-3,34.1298,3.5763,-5,1,29,0,86.076383684481797,0
-3,34.1298,3.5763,-5,2,29,0,86.076383684481797,0
-3,34.1298,2.6822,-5,3,29,0,86.076383684481797,0
-3,34.1298,4.0234,-5,4,29,0,86.076383684481797,0
-4,34.1298,3.1293,-5,5,29,0,92.748266931412331,0
-4,34.1298,3.5763,-5,6,29,0,92.748266931412331,0
-4,34.1298,3.5763,-7,7,29,0,79.631765086518371,0
-5,1856.9232,2.2352,-8,8,29,98.335,79.478232981322179,82.807
-5,1856.9232,1.3411,-7,9,29,286.25,85.857954785728069,235.52
-4,1856.9232,2.2352,-7,10,29,440.6,79.631765086518371,364.32
-3,34.1298,3.1293,-8,11,29,549.51,68.41198876664923,452.29
-3,34.1298,2.2352,-8,12,29,600.94,68.41198876664923,474.9
-2,34.1298,3.5763,-8,13,29,605.57,63.530085685625657,485.14
-2,34.1298,3.5763,-8,14,29,548.13,63.530085685625657,435.21
-2,34.1298,3.5763,-8,15,29,435.3,63.530085685625657,304.26
-3,34.1298,7.1526,-8,16,29,282.98,68.41198876664923,183.23
-3,34.1298,5.8115,-8,17,29,84.785,68.41198876664923,60.668
-4,1856.9232,4.0234,-8,18,29,0,73.714683677886498,0
-4,1856.9232,3.5763,-9,19,29,0,68.192265367640786,0
-4,1856.9232,3.5763,-8,20,29,0,73.714683677886498,0
-5,34.1298,3.5763,-8,21,29,0,79.478232981322179,0
-5,34.1298,4.4704,-8,22,29,0,79.478232981322179,0
-6,34.1298,4.4704,-9,23,29,0,79.323042834535087,0
-7,1856.9232,4.9174,-9,0,30,0,85.634501876922116,0
-7,34.1298,3.5763,-9,1,30,0,85.634501876922116,0
-8,34.1298,2.6822,-10,2,30,0,85.520844858228372,0
-8,34.1298,3.5763,-10,3,30,0,85.520844858228372,0
-9,34.1298,3.5763,-10,4,30,0,92.446584559154559,0
-9,34.1298,2.6822,-11,5,30,0,85.405875303028878,0
-10,34.1298,2.2352,-11,6,30,0,92.384024472401691,0
-10,34.1298,0,-11,7,30,0,92.384024472401691,0
-9,1856.9232,1.3411,-10,8,30,100.34,92.446584559154559,100.34
-8,1856.9232,2.2352,-10,9,30,287.11,85.520844858228372,287.11
-7,1856.9232,2.6822,-9,10,30,441.08,85.634501876922116,441.08
-5,34.1298,3.1293,-9,11,30,551.89,73.524031902471236,551.89
-4,34.1298,4.4704,-9,12,30,622.45,68.192265367640786,622.45
-3,34.1298,4.0234,-9,13,30,618.39,63.286827800671929,618.39
-2,34.1298,5.8115,-8,14,30,557.34,63.530085685625657,27.587
-2,34.1298,5.8115,-7,15,30,442.08,68.629648895336288,23.657
-1,34.1298,3.5763,-6,16,30,279.83,68.845267915788227,72.693
-1,34.1298,4.4704,-6,17,30,88.208,68.845267915788227,6.1958
-1,1856.9232,4.4704,-6,18,30,0,68.845267915788227,0
0,1856.9232,6.2586,-5,19,30,0,69.058867777488345,0
0,1856.9232,5.8115,-4,20,30,0,74.458391582192704,0
1,34.1298,3.5763,-3,21,30,0,74.639707050276655,0
1,34.1298,4.4704,-2,22,30,0,80.375317381711923,0
1,34.1298,4.0234,-2,23,30,0,80.375317381711923,0
1,1856.9232,4.0234,-2,0,31,0,80.375317381711923,0
1,34.1298,4.4704,-3,1,31,0,74.639707050276655,0
1,34.1298,7.5997,-3,2,31,0,74.639707050276655,0
0,34.1298,8.9408,-2,3,31,0,86.394921766765563,0
0,34.1298,10.729,-2,4,31,0,86.394921766765563,0
0,34.1298,8.9408,-3,5,31,0,80.22975039312503,0
0,34.1298,8.9408,-3,6,31,0,80.22975039312503,0
-3,34.1298,8.9408,-3,7,31,0,100.0,0
-3,1856.9232,9.3878,-3,8,31,109.42,100.0,88.575
-2,1856.9232,6.7056,-3,9,31,303.87,92.863965557739348,233.92
-2,1856.9232,8.0467,-3,10,31,467.24,92.863965557739348,338.06
0,34.1298,8.9408,-3,11,31,581.5,80.22975039312503,418.01
1,34.1298,8.9408,-3,12,31,639.24,74.639707050276655,438.5
2,34.1298,6.7056,-3,13,31,628.82,69.480096758186903,462.23
3,34.1298,8.9408,-3,14,31,575.97,64.714825534265714,408.17
3,34.1298,8.0467,-3,15,31,456.99,64.714825534265714,302.7
2,34.1298,7.1526,-3,16,31,292.26,69.480096758186903,204.41
1,34.1298,6.7056,-3,17,31,94.013,74.639707050276655,57.146
0,1856.9232,4.4704,-4,18,31,0,74.458391582192704,0
1,1856.9232,3.5763,-4,19,31,0,69.270470217066517,0
1,1856.9232,3.1293,-4,20,31,0,69.270470217066517,0
0,34.1298,2.6822,-4,21,31,0,74.458391582192704,0
0,34.1298,3.1293,-4,22,31,0,74.458391582192704,0
0,34.1298,3.1293,-4,23,31,0,74.458391582192704,0
-2,1856.9232,3.5763,-5,0,32,0,79.933943298104751,0
