7,34.1298,2.2352,-2,22,67,0,52.74704994628754,0
6,34.1298,2.2352,-2,23,67,0,56.50325893770539,0
5,1856.9232,0,-2,0,68,0,60.56053603547852,0
4,34.1298,1.3411,-2,1,68,0,64.945601027542693,0
4,34.1298,0,-3,2,68,0,60.311060569484063,0
3,34.1298,0,-3,3,68,0,64.714825534265714,0
2,34.1298,0,-3,4,68,0,69.480096758186903,0
2,34.1298,0,-3,5,68,0,69.480096758186903,0
1,34.1298,2.2352,-3,6,68,0,74.639707050276655,0
2,34.1298,2.6822,-2,7,68,64.896,74.819222225640118,64.896
2,1856.9232,3.1293,-2,8,68,291.8,74.819222225640118,291.8
5,1856.9232,5.8115,-2,9,68,500.1,60.56053603547852,500.1
8,1856.9232,4.4704,-1,10,68,660.49,53.021005417931356,660.49
10,34.1298,3.1293,0,11,68,763.7,49.831135182182052,763.7
12,34.1298,3.5763,1,12,68,817.61,46.904342960709904,817.61
13,34.1298,4.0234,1,13,68,821.07,43.926256823909441,821.07
13,34.1298,2.6822,2,14,68,747.46,47.188232229476426,0
14,34.1298,4.9174,2,15,68,636.54,44.21468308311352,636.54
14,34.1298,3.1293,2,16,68,456.05,44.21468308311352,456.05
13,34.1298,4.0234,2,17,68,259.41,47.188232229476426,0
11,1856.9232,4.4704,1,18,68,33.091,50.110207765456927,1.2066
10,1856.9232,6.2586,0,19,68,0,49.831135182182052,0
8,1856.9232,6.2586,0,20,68,0,57.025965891592342,0
7,34.1298,6.7056,0,21,68,0,61.053414792926283,0
5,34.1298,5.8115,-1,22,68,0,65.174364282645996,0
4,34.1298,4.4704,-2,23,68,0,64.945601027542693,0
3,1856.9232,6.7056,-2,0,69,0,69.687768711565994,0
2,34.1298,4.4704,-2,1,69,0,74.819222225640118,0
1,34.1298,4.9174,-3,2,69,0,74.639707050276655,0
0,34.1298,4.4704,-3,3,69,0,80.22975039312503,0
-1,34.1298,4.4704,-4,4,69,0,80.082632632857582,0
-2,34.1298,3.5763,-5,5,69,0,79.933943298104751,0
-3,34.1298,6.2586,-7,6,69,0,73.90342258501218,0
-3,34.1298,5.8115,-8,7,69,73.405,68.41198876664923,73.405
-3,1856.9232,4.9174,-9,8,69,303.09,63.286827800671929,303.09
-2,1856.9232,6.2586,-9,9,69,512.32,58.770657971401796,512.32
0,1856.9232,8.0467,-9,10,69,678.82,50.77486397620595,678.82
0,34.1298,4.9174,-10,11,69,780.61,46.939627560558947,780.61
1,34.1298,7.5997,-10,12,69,848.82,43.669088249705375,848.82
1,34.1298,6.2586,-10,13,69,842.85,43.669088249705375,842.85
1,34.1298,5.8115,-11,14,69,774.48,40.343261175482503,774.48
1,34.1298,6.7056,-12,15,69,666.89,37.24517919206248,666.89
1,34.1298,7.5997,-13,16,69,488.66,34.361130155647885,488.66
0,34.1298,7.5997,-13,17,69,278.02,36.934562105882399,278.02
-2,1856.9232,7.1526,-13,18,69,38.758,42.75084848805362,38.758
-3,1856.9232,4.9174,-13,19,69,0,46.035992789337357,0
-4,1856.9232,3.1293,-13,20,69,0,49.604297542623229,0
-5,34.1298,4.4704,-14,21,69,0,49.306619239457561,0
-6,34.1298,3.5763,-14,22,69,0,53.195546663514051,0
-7,34.1298,3.5763,-15,23,69,0,52.90622132512005,0
-8,1856.9232,2.2352,-15,0,70,0,57.153006402185255,0
-8,34.1298,0,-15,1,70,0,57.153006402185255,0
-8,34.1298,0,-15,2,70,0,57.153006402185255,0
-8,34.1298,0,-14,3,70,0,62.037890614710676,0
-8,34.1298,2.2352,-14,4,70,0,62.037890614710676,0
-8,34.1298,2.2352,-14,5,70,0,62.037890614710676,0
-8,34.1298,3.1293,-14,6,70,0,62.037890614710676,0
-8,34.1298,3.1293,-14,7,70,79.074,62.037890614710676,79.074
-7,1856.9232,3.5763,-14,8,70,307.15,57.428131572094784,307.15
-5,1856.9232,4.4704,-14,9,70,502.45,49.306619239457561,502.45
-3,1856.9232,4.4704,-13,10,70,666.56,46.035992789337357,666.56
-3,34.1298,3.1293,-13,11,70,770.64,46.035992789337357,770.64
-2,34.1298,3.1293,-13,12,70,834.42,42.75084848805362,834.42
-2,34.1298,4.4704,-12,13,70,828.43,46.339075732890365,828.43
-2,34.1298,4.4704,-12,14,70,771.4,46.339075732890365,771.4
-2,34.1298,4.0234,-12,15,70,649.19,46.339075732890365,649.19
-2,34.1298,3.1293,-12,16,70,476.07,46.339075732890365,476.07
-2,34.1298,2.2352,-12,17,70,266,46.339075732890365,266
-2,1856.9232,4.0234,-12,18,70,41.361,46.339075732890365,41.361
-3,1856.9232,3.1293,-12,19,70,0,49.899953609108429,0
-4,1856.9232,3.5763,-12,20,70,0,53.767758577862509,0
-4,34.1298,4.4704,-12,21,70,0,53.767758577862509,0
