11,34.1298,2.6822,6,22,49,0,71.281266407174215,0
10,34.1298,3.1293,6,23,49,0,76.193074639467341,0
9,1856.9232,4.0234,5,0,50,0,76.027205034617879,0
8,34.1298,4.0234,5,1,50,0,81.35254712725947,0
7,34.1298,4.0234,5,2,50,0,87.098056588182175,0
7,34.1298,3.1293,5,3,50,0,87.098056588182175,0
6,34.1298,3.1293,5,4,50,0,93.300460393223361,0
6,34.1298,2.6822,5,5,50,0,93.300460393223361,0
6,34.1298,2.2352,5,6,50,0,93.300460393223361,0
5,34.1298,1.3411,5,7,50,0,100.0,0
6,1856.9232,1.3411,5,8,50,182.27,93.300460393223361,175.82
7,1856.9232,0,5,9,50,375.15,87.098056588182175,360.69
9,1856.9232,2.2352,6,10,50,540.6,81.486420017858691,515.03
11,34.1298,2.2352,6,11,50,651.25,71.281266407174215,610.1
13,34.1298,1.3411,7,12,50,700.64,66.934299400772474,639.97
15,34.1298,2.6822,7,13,50,703.3,58.794057173929204,703.3
17,34.1298,0,7,14,50,635.59,51.746906785263072,635.59
18,34.1298,1.3411,7,15,50,531.65,48.582347990729033,531.65
18,34.1298,2.6822,7,16,50,376.89,48.582347990729033,376.89
17,34.1298,0,7,17,50,176.83,51.746906785263072,176.83
16,1856.9232,0,7,18,50,0,55.144459527043999,0
14,1856.9232,0,7,19,50,0,62.716459074021699,0
12,1856.9232,0,7,20,50,0,71.472271072726826,0
12,34.1298,0,7,21,50,0,71.472271072726826,0
11,34.1298,2.6822,7,22,50,0,76.357329126718284,0
10,34.1298,0,7,23,50,0,81.618915749746961,0
10,1856.9232,0,7,0,51,0,81.618915749746961,0
9,34.1298,0,7,1,51,0,87.289209441366083,0
8,34.1298,1.3411,7,2,51,0,93.403401079212742,0
8,34.1298,2.2352,7,3,51,0,93.403401079212742,0
8,34.1298,1.3411,7,4,51,0,93.403401079212742,0
7,34.1298,2.2352,7,5,51,0,100.0,0
7,34.1298,2.2352,7,6,51,0,100.0,0
7,34.1298,1.3411,7,7,51,0,100.0,0
8,1856.9232,2.2352,7,8,51,185.35,93.403401079212742,185.35
10,1856.9232,2.2352,8,9,51,380.75,87.383237448204156,380.75
11,1856.9232,2.6822,8,10,51,535.29,81.750052187031002,535.29
13,34.1298,4.9174,9,11,51,655.57,76.681069549305064,655.57
15,34.1298,5.8115,10,12,51,726.54,72.034842210105538,726.54
16,34.1298,3.5763,11,13,51,724.83,72.218947621294333,724.83
18,34.1298,5.8115,11,14,51,677.48,63.624996508330625,677.48
18,34.1298,4.0234,11,15,51,551.04,63.624996508330625,551.04
19,34.1298,6.2586,11,16,51,390.34,59.762815682936242,390.34
18,34.1298,4.0234,11,17,51,182.48,63.624996508330625,182.48
17,1856.9232,3.1293,11,18,51,0,67.769403902782983,0
16,1856.9232,4.0234,10,19,51,0,67.563332617800626,0
15,1856.9232,3.5763,11,20,51,0,76.998577407491453,0
14,34.1298,4.4704,11,21,51,0,82.135480367498232,0
13,34.1298,3.5763,11,22,51,0,87.659298938667845,0
13,34.1298,3.5763,11,23,51,0,87.659298938667845,0
13,1856.9232,4.4704,10,0,52,0,82.008317294977047,0
13,34.1298,3.5763,10,1,52,0,82.008317294977047,0
12,34.1298,2.2352,11,2,52,0,93.602371756764171,0
12,34.1298,2.2352,11,3,52,0,93.602371756764171,0
12,34.1298,1.3411,12,4,52,0,100.0,0
12,34.1298,0,12,5,52,0,100.0,0
11,34.1298,0,11,6,52,0,100.0,0
11,34.1298,0,11,7,52,0,100.0,0
12,1856.9232,0,11,8,52,191.05,93.602371756764171,7.5402
12,1856.9232,0,12,9,52,383.16,100.0,0
13,1856.9232,2.6822,12,10,52,548.02,93.650724114619621,548.02
14,34.1298,1.3411,12,11,52,656.78,87.749358083506806,70.457
15,34.1298,0,12,12,52,708.36,82.261352957573052,109.46
16,34.1298,2.2352,12,13,52,714.68,77.155040268598128,111.3
17,34.1298,2.6822,11,14,52,652.51,67.769403902782983,104.25
18,34.1298,1.3411,11,15,52,537.69,63.624996508330625,114.78
18,34.1298,0,11,16,52,376.24,63.624996508330625,63.963
17,34.1298,2.2352,10,17,52,185.89,63.400630000924139,24.209
16,1856.9232,0,10,18,52,0,67.563332617800626,0
15,1856.9232,0,10,19,52,0,72.034842210105538,0
13,1856.9232,0,9,20,52,0,76.681069549305064,0
12,34.1298,0,8,21,52,0,76.519987759453471,0
