15,34.1298,0,8,16,42,327.01,62.946377213895722,327.01
15,34.1298,1.3411,9,17,42,137.35,67.355469880183023,137.35
12,1856.9232,1.3411,8,18,42,0,76.519987759453471,0
10,1856.9232,3.1293,8,19,42,0,87.383237448204156,0
10,1856.9232,3.5763,8,20,42,0,87.383237448204156,0
10,34.1298,6.2586,8,21,42,0,87.383237448204156,0
9,34.1298,4.0234,8,22,42,0,93.453994643448382,0
8,34.1298,4.4704,7,23,42,0,93.403401079212742,0
8,1856.9232,3.1293,7,0,43,0,93.403401079212742,0
8,34.1298,4.9174,7,1,43,0,93.403401079212742,0
7,34.1298,4.0234,6,2,43,0,93.352225938756803,0
6,34.1298,5.8115,6,3,43,0,100.0,0
6,34.1298,5.8115,5,4,43,0,93.300460393223361,0
5,34.1298,4.0234,5,5,43,0,100.0,0
5,34.1298,3.5763,3,6,43,0,86.902676258921971,0
4,34.1298,3.5763,3,7,43,0,93.195121939330733,0
4,1856.9232,7.1526,2,8,43,156.5,86.803362953546198,12.872
4,1856.9232,5.8115,2,9,43,357.07,86.803362953546198,25.864
4,1856.9232,3.5763,2,10,43,509.74,86.803362953546198,509.74
5,34.1298,7.1526,2,11,43,631.12,80.942482739047733,390.56
6,34.1298,6.7056,2,12,43,684.14,75.519709049236894,684.14
6,34.1298,9.3878,2,13,43,696.61,75.519709049236894,560.9
6,34.1298,11.623,1,14,43,651.92,70.299266961976286,461.49
6,34.1298,10.282,0,15,43,533.84,65.401134444271349,533.84
5,34.1298,9.8349,0,16,43,372.34,70.097333034191095,372.34
4,34.1298,8.0467,-2,17,43,156.85,64.945601027542693,156.85
3,1856.9232,7.1526,-3,18,43,0,64.714825534265714,0
2,1856.9232,5.8115,-3,19,43,0,69.480096758186903,0
1,1856.9232,6.2586,-4,20,43,0,69.270470217066517,0
0,34.1298,4.9174,-4,21,43,0,74.458391582192704,0
0,34.1298,6.2586,-4,22,43,0,74.458391582192704,0
-1,34.1298,6.7056,-5,23,43,0,74.275253880025062,0
-2,1856.9232,4.9174,-5,0,44,0,79.933943298104751,0
-2,34.1298,3.5763,-5,1,44,0,79.933943298104751,0
-2,34.1298,4.0234,-5,2,44,0,79.933943298104751,0
-2,34.1298,2.6822,-5,3,44,0,79.933943298104751,0
-3,34.1298,2.2352,-5,4,44,0,86.076383684481797,0
-3,34.1298,1.3411,-6,5,44,0,79.783661265599576,0
-4,34.1298,2.6822,-7,6,44,0,79.631765086518371,0
-4,34.1298,0,-7,7,44,0,79.631765086518371,0
-3,1856.9232,0,-6,8,44,152.31,79.783661265599576,152.31
-3,1856.9232,1.3411,-5,9,44,342.13,86.076383684481797,342.13
-2,1856.9232,1.3411,-5,10,44,498.04,79.933943298104751,498.04
0,34.1298,2.2352,-5,11,44,609.37,69.058867777488345,609.37
2,34.1298,2.6822,-5,12,44,681.47,59.805954669926152,681.47
3,34.1298,3.5763,-5,13,44,691.02,55.70418152761755,691.02
5,34.1298,2.6822,-5,14,44,629.58,48.408424535627695,629.58
5,34.1298,5.8115,-4,15,44,520.7,52.193346719271737,520.7
5,34.1298,3.5763,-4,16,44,348.76,52.193346719271737,348.76
4,34.1298,4.9174,-4,17,44,152.11,55.972560585266336,152.11
3,1856.9232,3.1293,-4,18,44,0,60.059538976411261,0
1,1856.9232,2.2352,-4,19,44,0,69.270470217066517,0
0,1856.9232,0,-4,20,44,0,74.458391582192704,0
0,34.1298,0,-5,21,44,0,69.058867777488345,0
-1,34.1298,1.3411,-5,22,44,0,74.275253880025062,0
-2,34.1298,2.2352,-5,23,44,0,79.933943298104751,0
-2,1856.9232,1.3411,-5,0,45,0,79.933943298104751,0
-2,34.1298,2.2352,-5,1,45,0,79.933943298104751,0
-2,34.1298,3.1293,-5,2,45,0,79.933943298104751,0
-2,34.1298,3.1293,-4,3,45,0,86.18375948438603,0
-2,34.1298,3.1293,-4,4,45,0,86.18375948438603,0
-2,34.1298,3.1293,-4,5,45,0,86.18375948438603,0
-2,34.1298,3.1293,-4,6,45,0,86.18375948438603,0
-2,34.1298,3.1293,-4,7,45,0,86.18375948438603,0
-1,1856.9232,2.6822,-4,8,45,158.56,80.082632632857582,158.56
0,1856.9232,4.0234,-3,9,45,354.23,80.22975039312503,354.23
2,1856.9232,4.0234,-2,10,45,513.38,74.819222225640118,513.38
3,34.1298,7.1526,-2,11,45,638.15,69.687768711565994,638.15
5,34.1298,5.8115,-1,12,45,690.9,65.174364282645996,690.9
6,34.1298,4.9174,-1,13,45,686.41,60.807981934065246,686.41
6,34.1298,6.7056,-1,14,45,633.94,60.807981934065246,633.94
7,34.1298,4.4704,-1,15,45,514.93,56.765604683887005,514.93
