13,1856.9232,3.5763,4,18,48,0,54.362216651363781,0
12,1856.9232,2.6822,4,19,48,0,58.047833762427267,0
11,1856.9232,3.1293,5,20,48,0,66.505749732013612,0
11,34.1298,2.6822,5,21,48,0,66.505749732013612,0
11,34.1298,3.1293,5,22,48,0,66.505749732013612,0
10,34.1298,2.6822,5,23,48,0,71.088489426375332,0
10,1856.9232,1.3411,5,0,49,0,71.088489426375332,0
9,34.1298,2.6822,5,1,49,0,76.027205034617879,0
8,34.1298,2.6822,5,2,49,0,81.35254712725947,0
8,34.1298,2.2352,4,3,49,0,75.859700794653989,0
7,34.1298,2.2352,4,4,49,0,81.21727894075245,0
7,34.1298,2.2352,4,5,49,0,81.21727894075245,0
7,34.1298,2.6822,4,6,49,0,81.21727894075245,0
7,34.1298,2.2352,4,7,49,0,81.21727894075245,0
8,1856.9232,2.2352,5,8,49,177.94,81.35254712725947,177.94
9,1856.9232,1.3411,5,9,49,372.11,76.027205034617879,372.11
11,1856.9232,4.0234,6,10,49,534.91,71.281266407174215,534.91
12,34.1298,4.4704,6,11,49,651.44,66.720955975372661,651.44
14,34.1298,4.4704,7,12,49,709.74,62.716459074021699,709.74
15,34.1298,4.4704,7,13,49,713.41,58.794057173929204,713.41
16,34.1298,6.2586,8,14,49,657.9,59.0390273693327,657.9
17,34.1298,4.0234,8,15,49,532.01,55.401523057364912,532.01
17,34.1298,4.9174,8,16,49,373.68,55.401523057364912,373.68
16,34.1298,4.9174,8,17,49,174.15,59.0390273693327,174.15
14,1856.9232,3.5763,7,18,49,0,62.716459074021699,0
12,1856.9232,1.3411,7,19,49,0,71.472271072726826,0
12,1856.9232,1.3411,7,20,49,0,71.472271072726826,0
11,34.1298,2.6822,7,21,49,0,76.357329126718284,0
10,34.1298,2.6822,7,22,49,0,81.618915749746961,0
9,34.1298,3.1293,7,23,49,0,87.289209441366083,0
8,1856.9232,4.0234,6,0,50,0,87.194154009949884,0
7,34.1298,4.0234,6,1,50,0,93.352225938756803,0
7,34.1298,4.0234,5,2,50,0,87.098056588182175,0
6,34.1298,3.1293,5,3,50,0,93.300460393223361,0
5,34.1298,3.1293,5,4,50,0,100.0,0
5,34.1298,2.6822,4,5,50,0,93.248095448058876,0
3,34.1298,2.2352,3,6,50,0,100.0,0
3,34.1298,1.3411,3,7,50,0,100.0,0
5,1856.9232,1.3411,3,8,50,182.27,86.902676258921971,175.82
6,1856.9232,0,5,9,50,375.15,93.300460393223361,360.69
9,1856.9232,2.2352,6,10,50,540.6,81.486420017858691,515.03
12,34.1298,2.2352,6,11,50,651.25,66.720955975372661,610.1
14,34.1298,1.3411,7,12,50,700.64,62.716459074021699,639.97
16,34.1298,2.6822,7,13,50,703.3,55.144459527043999,703.3
18,34.1298,0,7,14,50,635.59,48.582347990729033,635.59
18,34.1298,1.3411,7,15,50,531.65,48.582347990729033,531.65
18,34.1298,2.6822,7,16,50,376.89,48.582347990729033,376.89
17,34.1298,0,7,17,50,176.83,51.746906785263072,176.83
16,1856.9232,0,7,18,50,0,55.144459527043999,0
14,1856.9232,0,7,19,50,0,62.716459074021699,0
13,1856.9232,0,7,20,50,0,66.934299400772474,0
12,34.1298,0,7,21,50,0,71.472271072726826,0
11,34.1298,2.6822,8,22,50,0,81.750052187031002,0
10,34.1298,0,7,23,50,0,81.618915749746961,0
9,1856.9232,0,7,0,51,0,87.289209441366083,0
8,34.1298,0,7,1,51,0,93.403401079212742,0
8,34.1298,1.3411,7,2,51,0,93.403401079212742,0
8,34.1298,2.2352,7,3,51,0,93.403401079212742,0
8,34.1298,1.3411,7,4,51,0,93.403401079212742,0
7,34.1298,2.2352,7,5,51,0,100.0,0
7,34.1298,2.2352,7,6,51,0,100.0,0
7,34.1298,1.3411,7,7,51,0,100.0,0
7,1856.9232,2.2352,7,8,51,185.35,100.0,185.35
8,1856.9232,2.2352,8,9,51,380.75,100.0,380.75
10,1856.9232,2.6822,10,10,51,535.29,100.0,535.29
13,34.1298,4.9174,10,11,51,655.57,82.008317294977047,655.57
16,34.1298,5.8115,11,12,51,726.54,72.218947621294333,726.54
18,34.1298,3.5763,11,13,51,724.83,63.624996508330625,724.83
19,34.1298,5.8115,11,14,51,677.48,59.762815682936242,677.48
20,34.1298,4.0234,11,15,51,551.04,56.161812821717625,551.04
20,34.1298,6.2586,11,16,51,390.34,56.161812821717625,390.34
18,34.1298,4.0234,11,17,51,182.48,63.624996508330625,182.48
