-10,1856.9232,0,-14,19,40,0,72.541250869952918,0
-11,1856.9232,0,-13,20,40,0,85.171920054221857,0
-12,34.1298,0,-12,21,40,0,100.0,0
-12,34.1298,0,-12,22,40,0,100.0,0
-12,34.1298,0,-12,23,40,0,100.0,0
-10,1856.9232,0,-11,0,41,0,92.384024472401691,0
-10,34.1298,0,-10,1,41,0,100.0,0
-10,34.1298,1.3411,-10,2,41,0,100.0,0
-10,34.1298,1.3411,-10,3,41,0,100.0,0
-9,34.1298,2.2352,-10,4,41,0,92.446584559154559,0
-9,34.1298,2.2352,-10,5,41,0,92.446584559154559,0
-8,34.1298,2.6822,-10,6,41,0,85.520844858228372,0
-8,34.1298,3.5763,-10,7,41,0,85.520844858228372,0
-7,1856.9232,4.4704,-9,8,41,142.43,85.634501876922116,142.43
-6,1856.9232,6.2586,-8,9,41,341.35,85.74686556299531,341.35
-4,1856.9232,3.5763,-7,10,41,495.74,79.631765086518371,495.74
-3,34.1298,4.9174,-6,11,41,608.92,79.783661265599576,608.92
0,34.1298,7.5997,-5,12,41,673.03,69.058867777488345,673.03
2,34.1298,6.7056,-5,13,41,661.84,59.805954669926152,661.84
3,34.1298,4.9174,-4,14,41,596.19,60.059538976411261,596.19
4,34.1298,4.4704,-3,15,41,484.91,60.311060569484063,484.91
5,34.1298,4.0234,-2,16,41,326.41,60.56053603547852,326.41
5,34.1298,2.6822,-1,17,41,132.83,65.174364282645996,132.83
4,1856.9232,2.6822,0,18,41,0,75.172938060956724,0
3,1856.9232,2.2352,0,19,41,0,80.661880682868471,0
3,1856.9232,2.2352,0,20,41,0,80.661880682868471,0
3,34.1298,1.3411,0,21,41,0,80.661880682868471,0
3,34.1298,4.0234,1,22,41,0,86.702946851967639,0
4,34.1298,4.4704,1,23,41,0,80.80291704368436,0
5,1856.9232,3.5763,1,0,42,0,75.347181209710627,0
5,34.1298,4.0234,1,1,42,0,75.347181209710627,0
4,34.1298,2.6822,1,2,42,0,80.80291704368436,0
3,34.1298,2.6822,1,3,42,0,86.702946851967639,0
2,34.1298,1.3411,1,4,42,0,93.087311705799863,0
2,34.1298,0,1,5,42,0,93.087311705799863,0
2,34.1298,3.1293,1,6,42,0,93.087311705799863,0
2,34.1298,2.2352,2,7,42,0,100.0,0
3,1856.9232,2.6822,2,8,42,146.08,93.141530529950373,146.08
3,1856.9232,2.2352,3,9,42,338.5,100.0,338.5
5,1856.9232,1.3411,3,10,42,489.87,86.902676258921971,489.87
7,34.1298,2.6822,5,11,42,600.93,87.098056588182175,600.93
9,34.1298,3.1293,6,12,42,659.43,81.486420017858691,659.43
11,34.1298,2.6822,7,13,42,656.83,76.357329126718284,656.83
11,34.1298,3.5763,7,14,42,604.36,76.357329126718284,604.36
11,34.1298,3.1293,8,15,42,491.96,81.750052187031002,491.96
11,34.1298,0,8,16,42,327.01,81.750052187031002,327.01
10,34.1298,1.3411,8,17,42,137.35,87.383237448204156,137.35
10,1856.9232,1.3411,8,18,42,0,87.383237448204156,0
10,1856.9232,3.1293,7,19,42,0,81.618915749746961,0
9,1856.9232,3.5763,7,20,42,0,87.289209441366083,0
8,34.1298,6.2586,6,21,42,0,87.194154009949884,0
8,34.1298,4.0234,6,22,42,0,87.194154009949884,0
8,34.1298,4.4704,6,23,42,0,87.194154009949884,0
10,1856.9232,3.1293,7,0,43,0,81.618915749746961,0
10,34.1298,4.9174,7,1,43,0,81.618915749746961,0
9,34.1298,4.0234,6,2,43,0,81.486420017858691,0
7,34.1298,5.8115,6,3,43,0,93.352225938756803,0
6,34.1298,5.8115,6,4,43,0,100.0,0
6,34.1298,4.0234,6,5,43,0,100.0,0
6,34.1298,3.5763,6,6,43,0,100.0,0
8,34.1298,3.5763,6,7,43,0,87.194154009949884,0
10,1856.9232,7.1526,6,8,43,156.5,76.193074639467341,12.872
10,1856.9232,5.8115,6,9,43,357.07,76.193074639467341,25.864
10,1856.9232,3.5763,6,10,43,509.74,76.193074639467341,509.74
10,34.1298,7.1526,6,11,43,631.12,76.193074639467341,390.56
10,34.1298,6.7056,5,12,43,684.14,71.088489426375332,684.14
10,34.1298,9.3878,5,13,43,696.61,71.088489426375332,560.9
10,34.1298,11.623,4,14,43,651.92,66.288662472889712,461.49
10,34.1298,10.282,4,15,43,533.84,66.288662472889712,533.84
10,34.1298,9.8349,3,16,43,372.34,61.77779982356094,372.34
10,34.1298,8.0467,3,17,43,156.85,61.77779982356094,156.85
9,1856.9232,7.1526,2,18,43,0,61.538307312126015,0
