0,1856.9232,1.3411,-4,10,44,498.04,74.458391582192704,498.04
1,34.1298,2.2352,-4,11,44,609.37,69.270470217066517,609.37
3,34.1298,2.6822,-4,12,44,681.47,60.059538976411261,681.47
6,34.1298,3.5763,-4,13,44,691.02,48.696632783711877,691.02
7,34.1298,2.6822,-4,14,44,629.58,45.459390660817419,629.58
7,34.1298,5.8115,-4,15,44,520.7,45.459390660817419,520.7
7,34.1298,3.5763,-4,16,44,348.76,45.459390660817419,348.76
6,34.1298,4.9174,-5,17,44,152.11,45.165282960846739,152.11
5,1856.9232,3.1293,-5,18,44,0,48.408424535627695,0
3,1856.9232,2.2352,-5,19,44,0,55.70418152761755,0
1,1856.9232,0,-5,20,44,0,64.247160621569336,0
0,34.1298,0,-4,21,44,0,74.458391582192704,0
0,34.1298,1.3411,-4,22,44,0,74.458391582192704,0
0,34.1298,2.2352,-4,23,44,0,74.458391582192704,0
0,1856.9232,1.3411,-4,0,45,0,74.458391582192704,0
0,34.1298,2.2352,-4,1,45,0,74.458391582192704,0
0,34.1298,3.1293,-4,2,45,0,74.458391582192704,0
0,34.1298,3.1293,-4,3,45,0,74.458391582192704,0
0,34.1298,3.1293,-4,4,45,0,74.458391582192704,0
0,34.1298,3.1293,-4,5,45,0,74.458391582192704,0
-1,34.1298,3.1293,-4,6,45,0,80.082632632857582,0
-1,34.1298,3.1293,-3,7,45,0,86.28993308116371,0
0,1856.9232,2.6822,-3,8,45,158.56,80.22975039312503,158.56
1,1856.9232,4.0234,-2,9,45,354.23,80.375317381711923,354.23
2,1856.9232,4.0234,-2,10,45,513.38,74.819222225640118,513.38
4,34.1298,7.1526,-1,11,45,638.15,69.893507175113811,638.15
6,34.1298,5.8115,0,12,45,690.9,65.401134444271349,690.9
7,34.1298,4.9174,0,13,45,686.41,61.053414792926283,686.41
8,34.1298,6.7056,0,14,45,633.94,57.025965891592342,633.94
9,34.1298,4.4704,0,15,45,514.93,53.293043109703412,514.93
9,34.1298,6.7056,0,16,45,361.54,53.293043109703412,361.54
8,34.1298,6.2586,0,17,45,159.01,57.025965891592342,159.01
7,1856.9232,5.8115,0,18,45,0,61.053414792926283,0
5,1856.9232,3.5763,-1,19,45,0,65.174364282645996,0
4,1856.9232,3.1293,-2,20,45,0,64.945601027542693,0
3,34.1298,3.5763,-2,21,45,0,69.687768711565994,0
2,34.1298,4.4704,-2,22,45,0,74.819222225640118,0
1,34.1298,5.8115,-3,23,45,0,74.639707050276655,0
1,1856.9232,4.0234,-3,0,46,0,74.639707050276655,0
0,34.1298,4.4704,-3,1,46,0,80.22975039312503,0
0,34.1298,3.5763,-4,2,46,0,74.458391582192704,0
-2,34.1298,3.5763,-5,3,46,0,79.933943298104751,0
-2,34.1298,2.2352,-5,4,46,0,79.933943298104751,0
-3,34.1298,3.1293,-6,5,46,0,79.783661265599576,0
-3,34.1298,2.6822,-7,6,46,0,73.90342258501218,0
-3,34.1298,3.1293,-7,7,46,0,73.90342258501218,0
-3,1856.9232,3.5763,-7,8,46,167.88,73.90342258501218,167.88
-3,1856.9232,6.7056,-7,9,46,372.27,73.90342258501218,372.27
-2,1856.9232,8.0467,-7,10,46,541.7,68.629648895336288,541.7
0,34.1298,6.7056,-7,11,46,650.12,59.292531471931667,650.12
1,34.1298,5.8115,-7,12,46,703.41,55.161298117581083,703.41
1,34.1298,5.8115,-7,13,46,700.74,55.161298117581083,700.74
2,34.1298,7.1526,-7,14,46,645.16,51.348169519678208,645.16
2,34.1298,7.5997,-7,15,46,530.13,51.348169519678208,530.13
1,34.1298,6.7056,-7,16,46,361.78,55.161298117581083,361.78
1,34.1298,6.2586,-7,17,46,162.18,55.161298117581083,162.18
0,1856.9232,4.9174,-7,18,46,0,59.292531471931667,0
-1,1856.9232,4.0234,-7,19,46,0,63.77121389329664,0
-2,1856.9232,4.0234,-7,20,46,0,68.629648895336288,0
-2,34.1298,2.6822,-7,21,46,0,68.629648895336288,0
-3,34.1298,0,-7,22,46,0,73.90342258501218,0
-4,34.1298,0,-7,23,46,0,79.631765086518371,0
-4,1856.9232,2.2352,-8,0,47,0,73.714683677886498,0
-4,34.1298,2.2352,-8,1,47,0,73.714683677886498,0
-5,34.1298,2.2352,-8,2,47,0,79.478232981322179,0
-5,34.1298,1.3411,-8,3,47,0,79.478232981322179,0
-5,34.1298,3.1293,-8,4,47,0,79.478232981322179,0
-5,34.1298,1.3411,-8,5,47,0,79.478232981322179,0
-5,34.1298,0,-8,6,47,0,79.478232981322179,0
-5,34.1298,2.2352,-8,7,47,0,79.478232981322179,0
-4,1856.9232,0,-8,8,47,168.49,73.714683677886498,70.504
-3,1856.9232,0,-8,9,47,364.9,68.41198876664923,130.77
