-1,34.1298,6.2586,-8,6,69,0,59.032659326234857,0
-1,34.1298,5.8115,-7,7,69,73.405,63.77121389329664,73.405
0,1856.9232,4.9174,-7,8,69,303.09,59.292531471931667,303.09
0,1856.9232,6.2586,-8,9,69,512.32,54.886767826455419,512.32
0,1856.9232,8.0467,-9,10,69,678.82,50.77486397620595,678.82
1,34.1298,4.9174,-10,11,69,780.61,43.669088249705375,780.61
1,34.1298,7.5997,-11,12,69,848.82,40.343261175482503,848.82
1,34.1298,6.2586,-12,13,69,842.85,37.24517919206248,842.85
1,34.1298,5.8115,-13,14,69,774.48,34.361130155647885,774.48
1,34.1298,6.7056,-13,15,69,666.89,34.361130155647885,666.89
1,34.1298,7.5997,-14,16,69,488.66,31.678102859839907,488.66
0,34.1298,7.5997,-14,17,69,278.02,34.050592986126624,278.02
-2,1856.9232,7.1526,-14,18,69,38.758,39.412725065080416,38.758
-2,1856.9232,4.9174,-13,19,69,0,42.75084848805362,0
-3,1856.9232,3.1293,-13,20,69,0,46.035992789337357,0
-4,34.1298,4.4704,-13,21,69,0,49.604297542623229,0
-4,34.1298,3.5763,-13,22,69,0,49.604297542623229,0
-5,34.1298,3.5763,-13,23,69,0,53.48272176266731,0
-5,1856.9232,2.2352,-14,0,70,0,49.306619239457561,0
-5,34.1298,0,-14,1,70,0,49.306619239457561,0
-6,34.1298,0,-14,2,70,0,53.195546663514051,0
-6,34.1298,0,-14,3,70,0,53.195546663514051,0
-7,34.1298,2.2352,-15,4,70,0,52.90622132512005,0
-8,34.1298,2.2352,-15,5,70,0,57.153006402185255,0
-8,34.1298,3.1293,-15,6,70,0,57.153006402185255,0
-8,34.1298,3.1293,-15,7,70,79.074,57.153006402185255,79.074
-7,1856.9232,3.5763,-15,8,70,307.15,52.90622132512005,307.15
-5,1856.9232,4.4704,-15,9,70,502.45,45.424199584158785,502.45
-3,1856.9232,4.4704,-15,10,70,666.56,39.099508319665297,666.56
-2,34.1298,3.1293,-15,11,70,770.64,36.30935393921942,770.64
-2,34.1298,3.1293,-15,12,70,834.42,36.30935393921942,834.42
-1,34.1298,4.4704,-14,13,70,828.43,36.622616619764386,828.43
-1,34.1298,4.4704,-14,14,70,771.4,36.622616619764386,771.4
0,34.1298,4.0234,-14,15,70,649.19,34.050592986126624,649.19
0,34.1298,3.1293,-14,16,70,476.07,34.050592986126624,476.07
-1,34.1298,2.2352,-14,17,70,266,36.622616619764386,266
-2,1856.9232,4.0234,-14,18,70,41.361,39.412725065080416,41.361
-3,1856.9232,3.1293,-13,19,70,0,46.035992789337357,0
-4,1856.9232,3.5763,-13,20,70,0,49.604297542623229,0
-5,34.1298,4.4704,-13,21,70,0,53.48272176266731,0
-6,34.1298,4.0234,-13,22,70,0,57.701028079024439,0
-7,34.1298,3.5763,-13,23,70,0,62.292098497037117,0
-7,1856.9232,4.0234,-13,0,71,0,62.292098497037117,0
-8,34.1298,4.0234,-13,1,71,0,67.292288412144302,0
-8,34.1298,2.6822,-13,2,71,0,67.292288412144302,0
-8,34.1298,1.3411,-13,3,71,0,67.292288412144302,0
-8,34.1298,2.2352,-12,4,71,0,72.940363975260709,0
-9,34.1298,1.3411,-12,5,71,0,78.847297839406991,0
-9,34.1298,0,-13,6,71,0,72.741823834704164,0
-8,34.1298,0,-13,7,71,81.146,67.292288412144302,81.146
-7,1856.9232,0,-13,8,71,295.63,62.292098497037117,295.63
-5,1856.9232,2.6822,-13,9,71,497.73,53.48272176266731,497.73
-3,1856.9232,0,-13,10,71,653.82,46.035992789337357,465.29
-2,34.1298,2.2352,-13,11,71,784.97,42.75084848805362,515.9
0,34.1298,0,-14,12,71,823.58,34.050592986126624,521.68
1,34.1298,2.2352,-14,13,71,827.94,31.678102859839907,827.94
1,34.1298,0,-14,14,71,749.95,31.678102859839907,749.95
1,34.1298,2.6822,-13,15,71,642.18,34.361130155647885,642.18
1,34.1298,2.6822,-13,16,71,472.89,34.361130155647885,472.89
1,34.1298,2.2352,-12,17,71,270.23,37.24517919206248,270.23
0,1856.9232,4.0234,-12,18,71,45.945,40.034608226872876,45.945
-1,1856.9232,3.5763,-12,19,71,0,43.058636576831397,0
-2,1856.9232,3.5763,-11,20,71,0,50.193594861825019,0
-3,34.1298,3.5763,-10,21,71,0,58.506510777554723,0
-4,34.1298,4.4704,-10,22,71,0,63.041420265899106,0
-4,34.1298,3.5763,-10,23,71,0,63.041420265899106,0
-5,1856.9232,3.5763,-9,0,72,0,73.524031902471236,0
-5,34.1298,4.4704,-9,1,72,0,73.524031902471236,0
-5,34.1298,4.4704,-9,2,72,0,73.524031902471236,0
-5,34.1298,4.0234,-9,3,72,0,73.524031902471236,0
-5,34.1298,4.4704,-8,4,72,0,79.478232981322179,0
-5,34.1298,3.5763,-8,5,72,0,79.478232981322179,0
