-12,34.1298,0,-16,7,35,0,72.133906532621111,0
-11,1856.9232,0,-15,8,35,116.18,72.338620174891417,116.18
-9,1856.9232,0,-15,9,35,300.21,61.781431742499457,300.21
-7,1856.9232,2.2352,-14,10,35,452.02,57.428131572094784,452.02
-4,34.1298,3.5763,-14,11,35,571.42,45.731034827067205,571.42
-3,34.1298,6.7056,-15,12,35,658.27,39.099508319665297,658.27
-1,34.1298,5.8115,-15,13,35,663.79,33.738939564103227,663.79
0,34.1298,4.0234,-15,14,35,589.97,31.369437929806626,0
0,34.1298,4.9174,-15,15,35,471.01,31.369437929806626,11.027
0,34.1298,4.0234,-14,16,35,306.66,34.050592986126624,8.12
0,34.1298,4.0234,-14,17,35,110.88,34.050592986126624,110.88
-1,1856.9232,3.5763,-14,18,35,0,36.622616619764386,0
-2,1856.9232,3.1293,-13,19,35,0,42.75084848805362,0
-3,1856.9232,2.2352,-13,20,35,0,46.035992789337357,0
-3,34.1298,2.6822,-13,21,35,0,46.035992789337357,0
-3,34.1298,3.5763,-12,22,35,0,49.899953609108429,0
-3,34.1298,3.5763,-12,23,35,0,49.899953609108429,0
-2,1856.9232,3.5763,-11,0,36,0,50.193594861825019,0
-2,34.1298,4.0234,-10,1,36,0,54.331466017503473,0
-2,34.1298,3.5763,-10,2,36,0,54.331466017503473,0
-2,34.1298,3.1293,-9,3,36,0,58.770657971401796,0
-2,34.1298,3.5763,-8,4,36,0,63.530085685625657,0
-2,34.1298,3.5763,-8,5,36,0,63.530085685625657,0
-2,34.1298,3.1293,-7,6,36,0,68.629648895336288,0
-2,34.1298,3.5763,-6,7,36,0,74.090271718389829,0
-1,1856.9232,4.4704,-5,8,36,122.51,74.275253880025062,122.51
0,1856.9232,3.5763,-4,9,36,313.12,74.458391582192704,313.12
1,1856.9232,6.2586,-3,10,36,479,74.639707050276655,479
2,34.1298,6.7056,-3,11,36,590.92,69.480096758186903,590.92
3,34.1298,5.8115,-3,12,36,647.16,64.714825534265714,647.16
5,34.1298,4.9174,-2,13,36,640.31,60.56053603547852,640.31
6,34.1298,6.2586,-2,14,36,587.98,56.50325893770539,587.98
6,34.1298,4.9174,-2,15,36,469.68,56.50325893770539,469.68
5,34.1298,4.4704,-3,16,36,310.03,56.238915325569103,310.03
4,34.1298,4.4704,-3,17,36,114.52,60.311060569484063,114.52
2,1856.9232,2.6822,-3,18,36,0,69.480096758186903,0
1,1856.9232,1.3411,-3,19,36,0,74.639707050276655,0
0,1856.9232,1.3411,-4,20,36,0,74.458391582192704,0
-2,34.1298,0,-4,21,36,0,86.18375948438603,0
-2,34.1298,0,-4,22,36,0,86.18375948438603,0
-3,34.1298,0,-5,23,36,0,86.076383684481797,0
-3,1856.9232,3.1293,-5,0,37,0,86.076383684481797,0
-3,34.1298,2.6822,-5,1,37,0,86.076383684481797,0
-4,34.1298,2.2352,-5,2,37,0,92.748266931412331,0
-4,34.1298,2.6822,-5,3,37,0,92.748266931412331,0
-4,34.1298,2.6822,-5,4,37,0,92.748266931412331,0
-4,34.1298,2.2352,-5,5,37,0,92.748266931412331,0
-4,34.1298,2.2352,-5,6,37,0,92.748266931412331,0
-4,34.1298,1.3411,-4,7,37,0,100.0,0
-3,1856.9232,2.2352,-4,8,37,125.25,92.806460468027481,125.25
-1,1856.9232,1.3411,-2,9,37,311.66,92.920792863957388,311.66
1,1856.9232,1.3411,-1,10,37,459.25,86.498742535900504,459.25
3,34.1298,3.5763,1,11,37,567.34,86.702946851967639,567.34
6,34.1298,3.5763,2,12,37,626.15,75.519709049236894,626.15
7,34.1298,4.4704,3,13,37,635.07,75.690542144640617,561.43
8,34.1298,4.0234,4,14,37,578.53,75.859700794653989,517.23
8,34.1298,3.1293,4,15,37,465.61,75.859700794653989,431.31
8,34.1298,4.0234,5,16,37,311.18,81.35254712725947,295.52
7,34.1298,3.5763,5,17,37,117.33,87.098056588182175,112.54
7,1856.9232,3.5763,5,18,37,0,87.098056588182175,0
7,1856.9232,2.2352,5,19,37,0,87.098056588182175,0
7,1856.9232,3.1293,5,20,37,0,87.098056588182175,0
7,34.1298,2.2352,5,21,37,0,87.098056588182175,0
8,34.1298,1.3411,6,22,37,0,87.194154009949884,0
8,34.1298,2.2352,6,23,37,0,87.194154009949884,0
9,1856.9232,2.6822,7,0,38,0,87.289209441366083,0
10,34.1298,2.2352,7,1,38,0,81.618915749746961,0
10,34.1298,1.3411,7,2,38,0,81.618915749746961,0
10,34.1298,2.2352,8,3,38,0,87.383237448204156,0
11,34.1298,0,8,4,38,0,81.750052187031002,0
11,34.1298,2.6822,8,5,38,0,81.750052187031002,0
11,34.1298,2.6822,8,6,38,0,81.750052187031002,0
