2,34.1298,4.4704,-2,1,31,0,74.819222225640118,0
2,34.1298,7.5997,-2,2,31,0,74.819222225640118,0
2,34.1298,8.9408,-1,3,31,0,80.519354085990997,0
2,34.1298,10.729,0,4,31,0,86.60141209181765,0
2,34.1298,8.9408,0,5,31,0,86.60141209181765,0
2,34.1298,8.9408,0,6,31,0,86.60141209181765,0
2,34.1298,8.9408,0,7,31,0,86.60141209181765,0
2,1856.9232,9.3878,-2,8,31,109.42,74.819222225640118,88.575
2,1856.9232,6.7056,-1,9,31,303.87,80.519354085990997,233.92
2,1856.9232,8.0467,-2,0,31,467.24,74.819222225640118,338.06
2,34.1298,8.9408,-1,1,31,581.5,80.519354085990997,418.01
2,34.1298,8.9408,0,2,31,639.24,86.60141209181765,438.5
3,34.1298,6.7056,0,3,31,628.82,80.661880682868471,462.23
3,34.1298,8.9408,0,4,31,575.97,80.661880682868471,408.17
3,34.1298,8.0467,0,5,31,456.99,80.661880682868471,302.7
3,34.1298,7.1526,0,6,31,292.26,80.661880682868471,204.41
3,34.1298,6.7056,0,7,31,94.013,80.661880682868471,57.146
2,1856.9232,4.4704,0,8,31,0,86.60141209181765,0
2,1856.9232,3.5763,-1,9,31,0,80.519354085990997,0
2,1856.9232,3.1293,-1,0,31,0,80.519354085990997,0
1,34.1298,2.6822,-1,1,31,0,86.498742535900504,0
1,34.1298,3.1293,-1,2,31,0,86.498742535900504,0
1,34.1298,3.1293,-2,3,31,0,80.375317381711923,0
1,1856.9232,3.5763,-2,0,32,0,80.375317381711923,0
1,34.1298,3.1293,-3,1,32,0,74.639707050276655,0
0,34.1298,3.1293,-3,2,32,0,80.22975039312503,0
0,34.1298,4.0234,-3,3,32,0,80.22975039312503,0
0,34.1298,3.5763,-3,4,32,0,80.22975039312503,0
0,34.1298,4.0234,-3,5,32,0,80.22975039312503,0
0,34.1298,3.1293,-4,6,32,0,74.458391582192704,0
0,34.1298,2.2352,-4,7,32,0,74.458391582192704,0
0,1856.9232,2.2352,-4,8,32,107.58,74.458391582192704,0
0,1856.9232,2.2352,-3,9,32,297.24,80.22975039312503,297.24
0,1856.9232,3.5763,-3,0,32,454.05,80.22975039312503,454.05
1,34.1298,3.1293,-3,1,32,561.8,74.639707050276655,561.8
1,34.1298,4.4704,-4,2,32,626.66,69.270470217066517,543.8
2,34.1298,3.1293,-4,3,32,619.82,64.482018531033972,472.91
2,34.1298,4.4704,-4,4,32,568.93,64.482018531033972,418.6
2,34.1298,4.0234,-4,5,32,450.63,64.482018531033972,351.34
2,34.1298,6.2586,-4,6,32,297.16,64.482018531033972,213.32
1,34.1298,6.7056,-4,7,32,99.685,69.270470217066517,67.269
0,1856.9232,4.4704,-5,8,32,0,69.058867777488345,0
-1,1856.9232,3.5763,-5,9,32,0,74.275253880025062,0
-2,1856.9232,3.1293,-5,0,32,0,79.933943298104751,0
-2,34.1298,4.0234,-5,1,32,0,79.933943298104751,0
-3,34.1298,4.9174,-6,2,32,0,79.783661265599576,0
-4,34.1298,6.7056,-7,3,32,0,79.631765086518371,0
-4,1856.9232,6.2586,-7,0,33,0,79.631765086518371,0
-5,34.1298,5.8115,-8,1,33,0,79.478232981322179,0
-5,34.1298,5.8115,-8,2,33,0,79.478232981322179,0
-6,34.1298,5.8115,-9,3,33,0,79.323042834535087,0
-7,34.1298,4.0234,-10,4,33,0,79.166172189459587,0
-7,34.1298,4.9174,-10,5,33,0,79.166172189459587,0
-8,34.1298,4.9174,-11,6,33,0,79.007598242830397,0
-8,34.1298,4.0234,-12,7,33,0,72.940363975260709,0
-8,1856.9232,4.9174,-12,8,33,114.96,72.940363975260709,114.96
-8,1856.9232,3.5763,-12,9,33,308.41,72.940363975260709,308.41
-7,1856.9232,4.0234,-13,0,33,465.61,62.292098497037117,465.61
-6,34.1298,4.4704,-13,1,33,572.98,57.701028079024439,572.98
-5,34.1298,4.0234,-13,2,33,630.1,53.48272176266731,630.1
-4,34.1298,4.9174,-13,3,33,629.84,49.604297542623229,629.84
-3,34.1298,4.9174,-13,4,33,570.59,46.035992789337357,570.59
-3,34.1298,4.9174,-13,5,33,453.75,46.035992789337357,453.75
-3,34.1298,4.9174,-13,6,33,295.02,46.035992789337357,295.02
-4,34.1298,5.8115,-13,7,33,101.74,49.604297542623229,101.74
-5,1856.9232,4.4704,-13,8,33,0,53.48272176266731,0
-5,1856.9232,3.1293,-13,9,33,0,53.48272176266731,0
-6,1856.9232,3.5763,-13,0,33,0,57.701028079024439,0
-7,34.1298,3.1293,-13,1,33,0,62.292098497037117,0
-7,34.1298,3.1293,-13,2,33,0,62.292098497037117,0
-7,34.1298,2.6822,-13,3,33,0,62.292098497037117,0
-8,1856.9232,3.1293,-14,0,34,0,62.037890614710676,0
