1,34.1298,4.9174,-3,1,61,0,74.639707050276655,0
1,34.1298,4.0234,-3,2,61,0,74.639707050276655,0
0,34.1298,4.0234,-4,3,61,0,74.458391582192704,0
0,34.1298,4.0234,-4,4,61,0,74.458391582192704,0
-1,34.1298,3.5763,-4,5,61,0,80.082632632857582,0
-2,34.1298,3.1293,-4,6,61,0,86.18375948438603,0
-2,34.1298,3.1293,-4,7,61,22.775,86.18375948438603,10.949
-2,1856.9232,3.5763,-4,8,61,242.76,86.18375948438603,114.39
-1,1856.9232,4.4704,-4,9,61,443.14,80.082632632857582,346.73
0,1856.9232,8.0467,-3,10,61,625.6,80.22975039312503,428.91
2,34.1298,6.7056,-3,11,61,741.68,69.480096758186903,526.34
3,34.1298,6.7056,-4,12,61,800.86,60.059538976411261,670.19
4,34.1298,6.2586,-4,13,61,791.17,55.972560585266336,535.07
5,34.1298,8.9408,-4,14,61,746.32,52.193346719271737,505.4
5,34.1298,6.2586,-4,15,61,615.16,52.193346719271737,15.474
5,34.1298,7.1526,-4,16,61,447.67,52.193346719271737,70.662
5,34.1298,6.7056,-4,17,61,233.86,52.193346719271737,38.871
4,1856.9232,7.1526,-4,18,61,3.6351,55.972560585266336,3.6351
3,1856.9232,4.0234,-4,19,61,0,60.059538976411261,0
3,1856.9232,4.0234,-3,20,61,0,64.714825534265714,0
2,34.1298,3.5763,-3,21,61,0,69.480096758186903,0
1,34.1298,2.2352,-3,22,61,0,74.639707050276655,0
0,34.1298,1.3411,-4,23,61,0,74.458391582192704,0
-1,1856.9232,2.2352,-4,0,62,0,80.082632632857582,0
-2,34.1298,2.2352,-5,1,62,0,79.933943298104751,0
-3,34.1298,4.0234,-5,2,62,0,86.076383684481797,0
-3,34.1298,4.4704,-5,3,62,0,86.076383684481797,0
-4,34.1298,5.8115,-6,4,62,0,85.967788086353806,0
-5,34.1298,4.0234,-7,5,62,0,85.857954785728069,0
-5,34.1298,4.4704,-7,6,62,0,85.857954785728069,0
-5,34.1298,4.4704,-8,7,62,29.197,79.478232981322179,29.197
-5,1856.9232,4.4704,-8,8,62,255.9,79.478232981322179,255.9
-5,1856.9232,5.8115,-8,9,62,460.63,79.478232981322179,460.63
-4,1856.9232,4.4704,-9,10,62,628.89,68.192265367640786,628.89
-3,34.1298,6.2586,-9,11,62,750.84,63.286827800671929,750.84
-1,34.1298,2.6822,-9,12,62,785.52,54.610161358391132,785.52
0,34.1298,3.5763,-9,13,62,774.92,50.77486397620595,414.33
1,34.1298,4.9174,-9,14,62,718.8,47.237102871834566,718.8
2,34.1298,4.4704,-9,15,62,602.62,43.971749191093984,602.62
2,34.1298,3.5763,-9,16,62,433.5,43.971749191093984,433.5
1,34.1298,4.4704,-9,17,62,233.93,47.237102871834566,233.93
0,1856.9232,3.1293,-9,18,62,7.7255,50.77486397620595,7.7255
-2,1856.9232,0,-9,19,62,0,58.770657971401796,0
-2,1856.9232,0,-9,20,62,0,58.770657971401796,0
-3,34.1298,0,-9,21,62,0,63.286827800671929,0
-3,34.1298,0,-9,22,62,0,63.286827800671929,0
-3,34.1298,0,-8,23,62,0,68.41198876664923,0
-3,1856.9232,1.3411,-8,0,63,0,68.41198876664923,0
-3,34.1298,0,-8,1,63,0,68.41198876664923,0
-3,34.1298,1.3411,-7,2,63,0,73.90342258501218,0
-3,34.1298,2.6822,-7,3,63,0,73.90342258501218,0
-3,34.1298,4.4704,-7,4,63,0,73.90342258501218,0
-3,34.1298,2.6822,-7,5,63,0,73.90342258501218,0
-3,34.1298,2.6822,-6,6,63,0,79.783661265599576,0
-3,34.1298,4.9174,-6,7,63,34.308,79.783661265599576,9.6651
-2,1856.9232,4.9174,-5,8,63,255.74,79.933943298104751,43.76
-1,1856.9232,3.5763,-5,9,63,451.18,74.275253880025062,185.88
1,1856.9232,4.4704,-4,10,63,620.26,69.270470217066517,620.26
2,34.1298,7.1526,-3,11,63,751.05,69.480096758186903,751.05
5,34.1298,7.1526,-3,12,63,815.02,56.238915325569103,815.02
7,34.1298,7.1526,-2,13,63,814.85,52.74704994628754,814.85
8,34.1298,6.2586,-1,14,63,741.23,53.021005417931356,741.23
10,34.1298,6.2586,0,15,63,618.16,49.831135182182052,618.16
10,34.1298,6.7056,0,16,63,444.08,49.831135182182052,444.08
10,34.1298,8.0467,1,17,63,238.3,53.563172947337002,238.3
8,1856.9232,7.5997,1,18,63,12.055,61.296851102691427,12.055
6,1856.9232,7.1526,1,19,63,0,70.299266961976286,0
5,1856.9232,6.7056,1,20,63,0,75.347181209710627,0
4,34.1298,6.7056,1,21,63,0,80.80291704368436,0
3,34.1298,6.2586,1,22,63,0,86.702946851967639,0
3,34.1298,6.7056,1,23,63,0,86.702946851967639,0
3,1856.9232,4.9174,1,0,64,0,86.702946851967639,0
