2,34.1298,6.7056,-5,13,41,661.84,59.805954669926152,661.84
3,34.1298,4.9174,-3,14,41,596.19,64.714825534265714,596.19
4,34.1298,4.4704,-2,15,41,484.91,64.945601027542693,484.91
4,34.1298,4.0234,-1,16,41,326.41,69.893507175113811,326.41
5,34.1298,2.6822,0,17,41,132.83,70.097333034191095,132.83
5,1856.9232,2.6822,0,18,41,0,70.097333034191095,0
4,1856.9232,2.2352,1,19,41,0,80.80291704368436,0
3,1856.9232,2.2352,1,20,41,0,86.702946851967639,0
3,34.1298,1.3411,1,21,41,0,86.702946851967639,0
3,34.1298,4.0234,1,22,41,0,86.702946851967639,0
4,34.1298,4.4704,1,23,41,0,80.80291704368436,0
5,1856.9232,3.5763,2,0,42,0,80.942482739047733,0
5,34.1298,4.0234,2,1,42,0,80.942482739047733,0
4,34.1298,2.6822,2,2,42,0,86.803362953546198,0
3,34.1298,2.6822,1,3,42,0,86.702946851967639,0
2,34.1298,1.3411,1,4,42,0,93.087311705799863,0
2,34.1298,0,1,5,42,0,93.087311705799863,0
2,34.1298,3.1293,1,6,42,0,93.087311705799863,0
2,34.1298,2.2352,2,7,42,0,100.0,0
2,1856.9232,2.6822,2,8,42,146.08,100.0,146.08
2,1856.9232,2.2352,2,9,42,338.5,100.0,338.5
3,1856.9232,1.3411,3,10,42,489.87,100.0,489.87
6,34.1298,2.6822,4,11,42,600.93,87.000902360951287,600.93
8,34.1298,3.1293,5,12,42,659.43,81.35254712725947,659.43
10,34.1298,2.6822,6,13,42,656.83,76.193074639467341,656.83
10,34.1298,3.5763,7,14,42,604.36,81.618915749746961,604.36
10,34.1298,3.1293,7,15,42,491.96,81.618915749746961,491.96
9,34.1298,0,7,16,42,327.01,87.289209441366083,327.01
8,34.1298,1.3411,7,17,42,137.35,93.403401079212742,137.35
8,1856.9232,1.3411,7,18,42,0,93.403401079212742,0
8,1856.9232,3.1293,6,19,42,0,87.194154009949884,0
7,1856.9232,3.5763,6,20,42,0,93.352225938756803,0
7,34.1298,6.2586,6,21,42,0,93.352225938756803,0
7,34.1298,4.0234,5,22,42,0,87.098056588182175,0
6,34.1298,4.4704,5,23,42,0,93.300460393223361,0
6,1856.9232,3.1293,5,0,43,0,93.300460393223361,0
5,34.1298,4.9174,5,1,43,0,100.0,0
5,34.1298,4.0234,5,2,43,0,100.0,0
4,34.1298,5.8115,4,3,43,0,100.0,0
3,34.1298,5.8115,3,4,43,0,100.0,0
3,34.1298,4.0234,3,5,43,0,100.0,0
3,34.1298,3.5763,3,6,43,0,100.0,0
3,34.1298,3.5763,3,7,43,0,100.0,0
3,1856.9232,7.1526,3,8,43,156.5,100.0,12.872
3,1856.9232,5.8115,3,9,43,357.07,100.0,25.864
3,1856.9232,3.5763,2,10,43,509.74,93.141530529950373,509.74
4,34.1298,7.1526,2,11,43,631.12,86.803362953546198,390.56
5,34.1298,6.7056,2,12,43,684.14,80.942482739047733,684.14
6,34.1298,9.3878,2,13,43,696.61,75.519709049236894,560.9
5,34.1298,11.623,2,14,43,651.92,80.942482739047733,461.49
5,34.1298,10.282,1,15,43,533.84,75.347181209710627,533.84
5,34.1298,9.8349,1,16,43,372.34,75.347181209710627,372.34
4,34.1298,8.0467,0,17,43,156.85,75.172938060956724,156.85
4,1856.9232,7.1526,-1,18,43,0,69.893507175113811,0
3,1856.9232,5.8115,-2,19,43,0,69.687768711565994,0
3,1856.9232,6.2586,-2,20,43,0,69.687768711565994,0
2,34.1298,4.9174,-2,21,43,0,74.819222225640118,0
1,34.1298,6.2586,-3,22,43,0,74.639707050276655,0
1,34.1298,6.7056,-3,23,43,0,74.639707050276655,0
0,1856.9232,4.9174,-4,0,44,0,74.458391582192704,0
0,34.1298,3.5763,-5,1,44,0,69.058867777488345,0
-2,34.1298,4.0234,-5,2,44,0,79.933943298104751,0
-2,34.1298,2.6822,-5,3,44,0,79.933943298104751,0
-3,34.1298,2.2352,-5,4,44,0,86.076383684481797,0
-3,34.1298,1.3411,-5,5,44,0,86.076383684481797,0
-3,34.1298,2.6822,-5,6,44,0,86.076383684481797,0
-3,34.1298,0,-6,7,44,0,79.783661265599576,0
-2,1856.9232,0,-6,8,44,152.31,74.090271718389829,152.31
-1,1856.9232,1.3411,-6,9,44,342.13,68.845267915788227,342.13
1,1856.9232,1.3411,-5,10,44,498.04,64.247160621569336,498.04
2,34.1298,2.2352,-5,11,44,609.37,59.805954669926152,609.37
3,34.1298,2.6822,-5,12,44,681.47,55.70418152761755,681.47
