4,34.1298,2.6822,2,1,25,0,86.803362953546198,0
4,34.1298,3.5763,2,2,25,0,86.803362953546198,0
4,34.1298,4.4704,1,3,25,0,80.80291704368436,0
4,34.1298,4.0234,1,4,25,0,80.80291704368436,0
3,34.1298,3.1293,1,5,25,0,86.702946851967639,0
3,34.1298,2.2352,2,6,25,0,93.141530529950373,0
4,34.1298,2.6822,2,7,25,0,86.803362953546198,0
5,1856.9232,3.1293,2,8,25,87.801,80.942482739047733,87.801
6,1856.9232,1.3411,3,9,25,272.22,81.080597043606616,0
7,1856.9232,2.6822,4,10,25,422.61,81.21727894075245,0
8,34.1298,3.5763,5,11,25,530.74,81.35254712725947,530.74
8,34.1298,5.8115,6,12,25,590.53,87.194154009949884,478.04
9,34.1298,10.729,6,13,25,612.67,81.486420017858691,460.63
9,34.1298,8.0467,6,14,25,547.05,81.486420017858691,461.52
9,34.1298,9.8349,5,15,25,441.74,76.027205034617879,366.3
8,34.1298,10.282,4,16,25,277.01,75.859700794653989,231.38
7,34.1298,5.8115,3,17,25,68.905,75.690542144640617,51.133
6,1856.9232,6.2586,2,18,25,0,75.519709049236894,0
5,1856.9232,10.282,2,19,25,0,80.942482739047733,0
5,1856.9232,8.0467,1,20,25,0,75.347181209710627,0
3,34.1298,6.2586,0,21,25,0,80.661880682868471,0
3,34.1298,7.1526,0,22,25,0,80.661880682868471,0
2,34.1298,7.1526,-1,23,25,0,80.519354085990997,0
2,1856.9232,6.7056,-2,0,26,0,74.819222225640118,0
2,34.1298,8.0467,-2,1,26,0,74.819222225640118,0
2,34.1298,9.8349,-2,2,26,0,74.819222225640118,0
1,34.1298,8.0467,-1,3,26,0,86.498742535900504,0
1,34.1298,6.7056,-1,4,26,0,86.498742535900504,0
1,34.1298,5.8115,-1,5,26,0,86.498742535900504,0
0,34.1298,6.2586,-2,6,26,0,86.394921766765563,0
1,34.1298,8.0467,-2,7,26,0,80.375317381711923,0
0,1856.9232,6.2586,-2,8,26,92.281,86.394921766765563,85.19
0,1856.9232,6.2586,-2,9,26,286.14,86.394921766765563,269.88
1,1856.9232,7.1526,-2,10,26,447.13,80.375317381711923,369.33
0,34.1298,8.0467,-2,11,26,564.77,86.394921766765563,485.87
0,34.1298,7.5997,-3,12,26,619.78,80.22975039312503,544.6
1,34.1298,5.8115,-3,13,26,610.31,74.639707050276655,531.37
1,34.1298,7.5997,-3,14,26,551.45,74.639707050276655,435
2,34.1298,8.0467,-3,15,26,434.77,69.480096758186903,362.49
2,34.1298,6.7056,-3,16,26,269.82,69.480096758186903,185.84
1,34.1298,5.8115,-3,17,26,72.035,74.639707050276655,47.381
1,1856.9232,4.9174,-4,18,26,0,69.270470217066517,0
0,1856.9232,5.8115,-4,19,26,0,74.458391582192704,0
0,1856.9232,4.9174,-4,20,26,0,74.458391582192704,0
-1,34.1298,6.2586,-4,21,26,0,80.082632632857582,0
-1,34.1298,5.8115,-4,22,26,0,80.082632632857582,0
-2,34.1298,4.9174,-4,23,26,0,86.18375948438603,0
-2,1856.9232,6.2586,-5,0,27,0,79.933943298104751,0
-2,34.1298,5.8115,-5,1,27,0,79.933943298104751,0
-2,34.1298,3.5763,-5,2,27,0,79.933943298104751,0
-3,34.1298,6.2586,-5,3,27,0,86.076383684481797,0
-3,34.1298,4.0234,-5,4,27,0,86.076383684481797,0
-4,34.1298,5.8115,-6,5,27,0,85.967788086353806,0
-4,34.1298,4.0234,-7,6,27,0,79.631765086518371,0
-5,34.1298,3.5763,-7,7,27,0,85.857954785728069,0
-5,1856.9232,2.6822,-7,8,27,92.677,85.857954785728069,71.922
-4,1856.9232,4.0234,-7,9,27,280.71,79.631765086518371,251.06
-4,1856.9232,5.8115,-7,10,27,443.09,79.631765086518371,381.8
-4,34.1298,4.9174,-7,11,27,554.8,79.631765086518371,457.93
-3,34.1298,6.7056,-7,12,27,619.09,73.90342258501218,510.13
-3,34.1298,4.4704,-7,13,27,606.1,73.90342258501218,498.76
-2,34.1298,4.9174,-7,14,27,543.71,68.629648895336288,448.71
-2,34.1298,4.9174,-7,15,27,429.74,68.629648895336288,388.13
-2,34.1298,6.2586,-7,16,27,272.47,68.629648895336288,243.88
-3,34.1298,6.2586,-7,17,27,76.7,73.90342258501218,69.161
-4,1856.9232,7.1526,-7,18,27,0,79.631765086518371,0
-4,1856.9232,8.0467,-7,19,27,0,79.631765086518371,0
-4,1856.9232,4.4704,-7,20,27,0,79.631765086518371,0
-4,34.1298,6.7056,-7,21,27,0,79.631765086518371,0
-5,34.1298,6.2586,-7,22,27,0,85.857954785728069,0
-5,34.1298,4.9174,-7,23,27,0,85.857954785728069,0
-5,1856.9232,3.5763,-7,0,28,0,85.857954785728069,0
