6,34.1298,3.5763,6,22,22,0,100.0,0
6,34.1298,3.5763,6,23,22,0,100.0,0
6,1856.9232,3.5763,5,0,23,0,93.300460393223361,0
6,34.1298,3.5763,5,1,23,0,93.300460393223361,0
6,34.1298,4.9174,6,2,23,0,100.0,0
5,34.1298,4.9174,5,3,23,0,100.0,0
5,34.1298,2.6822,5,4,23,0,100.0,0
5,34.1298,4.0234,5,5,23,0,100.0,0
4,34.1298,6.2586,4,6,23,0,100.0,0
4,34.1298,7.5997,3,7,23,0,93.195121939330733,0
4,1856.9232,7.1526,3,8,23,86.193,93.195121939330733,83.23
4,1856.9232,6.7056,2,9,23,278.37,86.803362953546198,268.04
4,1856.9232,6.2586,2,10,23,433.65,86.803362953546198,413.83
4,34.1298,4.4704,2,11,23,534.97,86.803362953546198,509.45
5,34.1298,6.2586,2,12,23,595.32,80.942482739047733,562.39
5,34.1298,5.8115,2,13,23,590.16,80.942482739047733,553.42
6,34.1298,5.8115,2,14,23,529.13,75.519709049236894,493.08
6,34.1298,7.5997,3,15,23,420.34,81.080597043606616,392.78
6,34.1298,4.9174,3,16,23,253.07,81.080597043606616,235.71
6,34.1298,4.0234,3,17,23,59.141,81.080597043606616,54.989
5,1856.9232,3.5763,3,18,23,0,86.902676258921971,0
5,1856.9232,4.9174,2,19,23,0,80.942482739047733,0
4,1856.9232,3.5763,2,20,23,0,86.803362953546198,0
3,34.1298,2.6822,2,21,23,0,93.141530529950373,0
2,34.1298,3.5763,1,22,23,0,93.087311705799863,0
2,34.1298,2.6822,1,23,23,0,93.087311705799863,0
2,1856.9232,3.1293,1,0,24,0,93.087311705799863,0
2,34.1298,4.0234,1,1,24,0,93.087311705799863,0
2,34.1298,2.6822,1,2,24,0,93.087311705799863,0
1,34.1298,3.5763,0,3,24,0,93.032455771758947,0
1,34.1298,2.6822,0,4,24,0,93.032455771758947,0
0,34.1298,2.6822,0,5,24,0,100.0,0
0,34.1298,2.2352,0,6,24,0,100.0,0
0,34.1298,3.1293,0,7,24,0,100.0,0
1,1856.9232,3.1293,0,8,24,85.867,93.032455771758947,73.072
1,1856.9232,2.2352,0,9,24,274.43,93.032455771758947,242.7
2,1856.9232,3.1293,0,10,24,427.15,86.60141209181765,386.96
3,34.1298,2.2352,1,11,24,533.19,86.702946851967639,476.92
4,34.1298,3.1293,1,12,24,588.01,80.80291704368436,524.97
5,34.1298,2.6822,1,13,24,585.18,75.347181209710627,522.53
6,34.1298,1.3411,2,14,24,518.89,75.519709049236894,464.27
7,34.1298,2.2352,2,15,24,411.1,70.499329419935393,366.33
7,34.1298,0,2,16,24,250.37,70.499329419935393,222.67
7,34.1298,0,2,17,24,61.471,70.499329419935393,55.525
6,1856.9232,3.1293,2,18,24,0,75.519709049236894,0
5,1856.9232,3.5763,2,19,24,0,80.942482739047733,0
5,1856.9232,2.6822,2,20,24,0,80.942482739047733,0
5,34.1298,4.0234,2,21,24,0,80.942482739047733,0
5,34.1298,5.8115,3,22,24,0,86.902676258921971,0
4,34.1298,2.6822,3,23,24,0,93.195121939330733,0
4,1856.9232,2.6822,3,0,25,0,93.195121939330733,0
4,34.1298,2.6822,3,1,25,0,93.195121939330733,0
4,34.1298,3.5763,3,2,25,0,93.195121939330733,0
5,34.1298,4.4704,3,3,25,0,86.902676258921971,0
5,34.1298,4.0234,3,4,25,0,86.902676258921971,0
5,34.1298,3.1293,3,5,25,0,86.902676258921971,0
5,34.1298,2.2352,3,6,25,0,86.902676258921971,0
4,34.1298,2.6822,3,7,25,0,93.195121939330733,0
3,1856.9232,3.1293,2,8,25,87.801,93.141530529950373,87.801
3,1856.9232,1.3411,2,9,25,272.22,93.141530529950373,0
4,1856.9232,2.6822,2,10,25,422.61,86.803362953546198,0
5,34.1298,3.5763,2,11,25,530.74,80.942482739047733,530.74
6,34.1298,5.8115,2,12,25,590.53,75.519709049236894,478.04
7,34.1298,10.729,2,13,25,612.67,70.499329419935393,460.63
7,34.1298,8.0467,2,14,25,547.05,70.499329419935393,461.52
7,34.1298,9.8349,2,15,25,441.74,70.499329419935393,366.3
6,34.1298,10.282,2,16,25,277.01,75.519709049236894,231.38
5,34.1298,5.8115,1,17,25,68.905,75.347181209710627,51.133
3,1856.9232,6.2586,1,18,25,0,86.702946851967639,0
4,1856.9232,10.282,1,19,25,0,80.80291704368436,0
3,1856.9232,8.0467,1,20,25,0,86.702946851967639,0
3,34.1298,6.2586,0,21,25,0,80.661880682868471,0
