-5,1856.9232,2.6822,-8,0,57,0,79.478232981322179,0
-5,34.1298,2.2352,-8,1,57,0,79.478232981322179,0
-6,34.1298,2.2352,-8,2,57,0,85.74686556299531,0
-6,34.1298,0,-8,3,57,0,85.74686556299531,0
-6,34.1298,0,-8,4,57,0,85.74686556299531,0
-7,34.1298,0,-7,5,57,0,100.0,0
-7,34.1298,0,-7,6,57,0,100.0,0
-6,34.1298,0,-7,7,57,0.58309,92.629770823612489,0.58309
-5,1856.9232,2.6822,-7,8,57,220.05,85.857954785728069,220.05
-3,1856.9232,3.5763,-7,9,57,418.89,73.90342258501218,418.89
-1,1856.9232,3.1293,-7,10,57,570.74,63.77121389329664,570.74
1,34.1298,4.4704,-7,11,57,701.48,55.161298117581083,701.48
3,34.1298,4.9174,-7,12,57,764.24,47.82647098974175,764.24
5,34.1298,6.2586,-7,13,57,773.52,41.562483250282511,773.52
7,34.1298,6.7056,-7,14,57,706.03,36.200115180784799,706.03
7,34.1298,8.0467,-7,15,57,593.54,36.200115180784799,593.54
7,34.1298,8.9408,-6,16,57,427.25,39.080432628639237,427.25
7,34.1298,6.7056,-5,17,57,214.82,42.16279699548847,214.82
6,1856.9232,4.4704,-5,18,57,0,45.165282960846739,0
5,1856.9232,3.1293,-4,19,57,0,52.193346719271737,0
3,1856.9232,2.6822,-4,20,57,0,60.059538976411261,0
3,34.1298,2.6822,-4,21,57,0,60.059538976411261,0
2,34.1298,3.1293,-3,22,57,0,69.480096758186903,0
2,34.1298,0,-3,23,57,0,69.480096758186903,0
2,1856.9232,0,-3,0,58,0,69.480096758186903,0
1,34.1298,0,-3,1,58,0,74.639707050276655,0
1,34.1298,0,-2,2,58,0,80.375317381711923,0
1,34.1298,1.3411,-2,3,58,0,80.375317381711923,0
1,34.1298,0,-2,4,58,0,80.375317381711923,0
1,34.1298,0,-2,5,58,0,80.375317381711923,0
1,34.1298,1.3411,-1,6,58,0,86.498742535900504,0
1,34.1298,0,-1,7,58,5.8739,86.498742535900504,4.2413
2,1856.9232,0,-1,8,58,218.41,80.519354085990997,152.93
3,1856.9232,0,0,9,58,405.46,80.661880682868471,264.81
5,1856.9232,2.2352,0,10,58,567.16,70.097333034191095,367.24
7,34.1298,3.1293,1,11,58,687.32,65.625930527633926,385.72
8,34.1298,3.5763,2,12,58,766.22,65.848771416257676,766.22
10,34.1298,2.6822,2,13,58,764.87,57.540788283393631,764.87
10,34.1298,3.5763,3,14,58,702.02,61.77779982356094,414.28
10,34.1298,1.3411,3,15,58,568.67,61.77779982356094,337.45
10,34.1298,4.0234,3,16,58,414.07,61.77779982356094,191.32
10,34.1298,4.0234,3,17,58,212.27,61.77779982356094,110.94
8,1856.9232,3.5763,3,18,58,0,70.697540658389229,0
8,1856.9232,3.5763,3,19,58,0,70.697540658389229,0
7,1856.9232,2.6822,3,20,58,0,75.690542144640617,0
6,34.1298,3.1293,4,21,58,0,87.000902360951287,0
5,34.1298,4.0234,4,22,58,0,93.248095448058876,0
5,34.1298,4.0234,4,23,58,0,93.248095448058876,0
5,1856.9232,2.2352,4,0,59,0,93.248095448058876,0
5,34.1298,6.2586,4,1,59,0,93.248095448058876,0
5,34.1298,3.5763,5,2,59,0,100.0,0
5,34.1298,3.5763,5,3,59,0,100.0,0
6,34.1298,4.4704,5,4,59,0,93.300460393223361,0
6,34.1298,0,5,5,59,0,93.300460393223361,0
6,34.1298,3.1293,5,6,59,0,93.300460393223361,0
6,34.1298,2.2352,6,7,59,11.461,100.0,10.583
7,1856.9232,3.1293,6,8,59,230.45,93.352225938756803,219.46
8,1856.9232,2.2352,7,9,59,426.6,93.403401079212742,401.95
10,1856.9232,2.6822,8,10,59,583.73,87.383237448204156,564.09
11,34.1298,3.5763,10,11,59,701.13,93.553471551666661,681.7
12,34.1298,4.0234,10,12,59,758.1,87.568268233149638,736.77
14,34.1298,3.5763,11,13,59,756.02,82.135480367498232,729.53
15,34.1298,4.9174,11,14,59,698.65,76.998577407491453,636.55
16,34.1298,4.0234,12,15,59,580.29,77.155040268598128,545.88
16,34.1298,4.9174,12,16,59,417.77,77.155040268598128,397.12
16,34.1298,4.9174,12,17,59,219.05,77.155040268598128,205.22
15,1856.9232,4.4704,12,18,59,0,82.261352957573052,0
15,1856.9232,4.0234,11,19,59,0,76.998577407491453,0
15,1856.9232,7.1526,11,20,59,0,76.998577407491453,0
15,34.1298,9.8349,11,21,59,0,76.998577407491453,0
15,34.1298,6.2586,11,22,59,0,76.998577407491453,0
15,34.1298,5.8115,11,23,59,0,76.998577407491453,0
