13,34.1298,5.8115,11,6,66,0,87.659298938667845,0
14,34.1298,3.5763,11,7,66,53.441,82.135480367498232,12.895
12,1856.9232,4.4704,10,8,66,280.27,87.568268233149638,22.465
12,1856.9232,5.8115,8,9,66,486.53,76.519987759453471,342.01
12,1856.9232,8.0467,7,10,66,658.77,71.472271072726826,339.13
11,34.1298,7.1526,5,11,66,783.38,66.505749732013612,553.81
11,34.1298,6.7056,3,12,66,846.01,57.795276383180649,595.15
12,34.1298,7.5997,2,13,66,841.67,50.387471827470875,465.32
12,34.1298,7.5997,1,14,66,770.51,46.904342960709904,502.66
12,34.1298,7.1526,1,15,66,650.25,46.904342960709904,406.95
12,34.1298,8.0467,0,16,66,480.97,43.636262119956577,270.41
11,34.1298,7.5997,-1,17,66,263.91,43.344699599247413,263.91
10,1856.9232,7.1526,-1,18,66,25.654,46.331471061776149,25.654
9,1856.9232,5.8115,-1,19,66,0,49.550247563176043,0
8,1856.9232,3.1293,-1,20,66,0,53.021005417931356,0
7,34.1298,2.6822,-1,21,66,0,56.765604683887005,0
6,34.1298,0,-2,22,66,0,56.50325893770539,0
6,34.1298,0,-2,23,66,0,56.50325893770539,0
5,1856.9232,2.2352,-2,0,67,0,60.56053603547852,0
5,34.1298,1.3411,-2,1,67,0,60.56053603547852,0
5,34.1298,4.0234,-2,2,67,0,60.56053603547852,0
4,34.1298,4.4704,-2,3,67,0,64.945601027542693,0
3,34.1298,5.8115,-2,4,67,0,69.687768711565994,0
3,34.1298,3.5763,-2,5,67,0,69.687768711565994,0
2,34.1298,3.1293,-3,6,67,0,69.480096758186903,0
2,34.1298,3.1293,-3,7,67,58.2,69.480096758186903,58.2
3,1856.9232,2.6822,-3,8,67,278.08,64.714825534265714,278.08
5,1856.9232,5.8115,-3,9,67,484.26,56.238915325569103,484.26
6,1856.9232,6.7056,-3,10,67,654.47,52.471166918911017,654.47
8,34.1298,11.176,-3,11,67,797.84,45.751790094093153,797.84
10,34.1298,10.282,-3,12,67,855.22,39.979395374725371,855.22
11,34.1298,11.623,-4,13,67,860.77,34.711576545880995,860.77
12,34.1298,12.517,-4,14,67,794.74,32.490858921109286,794.74
12,34.1298,14.305,-4,15,67,677.97,32.490858921109286,677.97
12,34.1298,12.517,-3,16,67,488.65,35.009264179730927,488.65
12,34.1298,13.411,-3,17,67,272.15,35.009264179730927,272.15
11,1856.9232,8.9408,-3,18,67,29.712,37.402112278422031,29.712
10,1856.9232,4.9174,-2,19,67,0,43.051570256137374,0
8,1856.9232,2.2352,-2,20,67,0,49.267538618783618,0
7,34.1298,2.2352,-1,21,67,0,56.765604683887005,0
6,34.1298,2.2352,0,22,67,0,65.401134444271349,0
6,34.1298,2.2352,0,23,67,0,65.401134444271349,0
5,1856.9232,0,-1,0,68,0,65.174364282645996,0
5,34.1298,1.3411,-2,1,68,0,60.56053603547852,0
4,34.1298,0,-2,2,68,0,64.945601027542693,0
3,34.1298,0,-2,3,68,0,69.687768711565994,0
2,34.1298,0,-2,4,68,0,74.819222225640118,0
1,34.1298,0,-2,5,68,0,80.375317381711923,0
1,34.1298,2.2352,-3,6,68,0,74.639707050276655,0
0,34.1298,2.6822,-4,7,68,64.896,74.458391582192704,64.896
1,1856.9232,3.1293,-4,8,68,291.8,69.270470217066517,291.8
2,1856.9232,5.8115,-3,9,68,500.1,69.480096758186903,500.1
5,1856.9232,4.4704,-3,10,68,660.49,56.238915325569103,660.49
6,34.1298,3.1293,-2,11,68,763.7,56.50325893770539,763.7
7,34.1298,3.5763,-2,12,68,817.61,52.74704994628754,817.61
9,34.1298,4.0234,-1,13,68,821.07,49.550247563176043,821.07
10,34.1298,2.6822,-1,14,68,747.46,46.331471061776149,0
10,34.1298,4.9174,-1,15,68,636.54,46.331471061776149,636.54
10,34.1298,3.1293,-1,16,68,456.05,46.331471061776149,456.05
9,34.1298,4.0234,-1,17,68,259.41,49.550247563176043,0
8,1856.9232,4.4704,-1,18,68,33.091,53.021005417931356,1.2066
6,1856.9232,6.2586,-1,19,68,0,60.807981934065246,0
5,1856.9232,6.2586,-2,20,68,0,60.56053603547852,0
4,34.1298,6.7056,-2,21,68,0,64.945601027542693,0
3,34.1298,5.8115,-2,22,68,0,69.687768711565994,0
3,34.1298,4.4704,-2,23,68,0,69.687768711565994,0
2,1856.9232,6.7056,-3,0,69,0,69.480096758186903,0
1,34.1298,4.4704,-3,1,69,0,74.639707050276655,0
1,34.1298,4.9174,-3,2,69,0,74.639707050276655,0
0,34.1298,4.4704,-3,3,69,0,80.22975039312503,0
0,34.1298,4.4704,-3,4,69,0,80.22975039312503,0
-1,34.1298,3.5763,-4,5,69,0,80.082632632857582,0
