6,34.1298,1.3411,5,2,51,0,93.300460393223361,0
6,34.1298,2.2352,5,3,51,0,93.300460393223361,0
6,34.1298,1.3411,5,4,51,0,93.300460393223361,0
6,34.1298,2.2352,4,5,51,0,87.000902360951287,0
6,34.1298,2.2352,4,6,51,0,87.000902360951287,0
6,34.1298,1.3411,5,7,51,0,93.300460393223361,0
6,1856.9232,2.2352,6,8,51,185.35,100.0,185.35
8,1856.9232,2.2352,7,9,51,380.75,93.403401079212742,380.75
10,1856.9232,2.6822,8,10,51,535.29,87.383237448204156,535.29
12,34.1298,4.9174,9,11,51,655.57,81.879846925107273,655.57
13,34.1298,5.8115,10,12,51,726.54,82.008317294977047,726.54
16,34.1298,3.5763,11,13,51,724.83,72.218947621294333,724.83
18,34.1298,5.8115,11,14,51,677.48,63.624996508330625,677.48
19,34.1298,4.0234,11,15,51,551.04,59.762815682936242,551.04
20,34.1298,6.2586,11,16,51,390.34,56.161812821717625,390.34
19,34.1298,4.0234,11,17,51,182.48,59.762815682936242,182.48
17,1856.9232,3.1293,10,18,51,0,63.400630000924139,0
16,1856.9232,4.0234,10,19,51,0,67.563332617800626,0
15,1856.9232,3.5763,10,20,51,0,72.034842210105538,0
14,34.1298,4.4704,10,21,51,0,76.840593259432197,0
13,34.1298,3.5763,10,22,51,0,82.008317294977047,0
13,34.1298,3.5763,10,23,51,0,82.008317294977047,0
13,1856.9232,4.4704,10,0,52,0,82.008317294977047,0
13,34.1298,3.5763,10,1,52,0,82.008317294977047,0
13,34.1298,2.2352,10,2,52,0,82.008317294977047,0
13,34.1298,2.2352,11,3,52,0,87.659298938667845,0
12,34.1298,1.3411,11,4,52,0,93.602371756764171,0
12,34.1298,0,11,5,52,0,93.602371756764171,0
12,34.1298,0,11,6,52,0,93.602371756764171,0
12,34.1298,0,11,7,52,0,93.602371756764171,0
12,1856.9232,0,11,8,52,191.05,93.602371756764171,7.5402
13,1856.9232,0,11,9,52,383.16,87.659298938667845,0
13,1856.9232,2.6822,11,10,52,548.02,87.659298938667845,548.02
14,34.1298,1.3411,11,11,52,656.78,82.135480367498232,70.457
16,34.1298,0,11,12,52,708.36,72.218947621294333,109.46
17,34.1298,2.2352,11,13,52,714.68,67.769403902782983,111.3
18,34.1298,2.6822,10,14,52,652.51,59.52339300816999,104.25
18,34.1298,1.3411,9,15,52,537.69,55.656762504376644,114.78
18,34.1298,0,8,16,52,376.24,52.013467849556939,63.963
17,34.1298,2.2352,8,17,52,185.89,55.401523057364912,24.209
16,1856.9232,0,8,18,52,0,59.0390273693327,0
15,1856.9232,0,8,19,52,0,62.946377213895722,0
13,1856.9232,0,8,20,52,0,71.661522629146475,0
12,34.1298,0,8,21,52,0,76.519987759453471,0
11,34.1298,0,7,22,52,0,76.357329126718284,0
11,34.1298,0,7,23,52,0,76.357329126718284,0
10,1856.9232,1.3411,7,0,53,0,81.618915749746961,0
10,34.1298,3.1293,6,1,53,0,76.193074639467341,0
9,34.1298,2.2352,6,2,53,0,81.486420017858691,0
8,34.1298,2.2352,6,3,53,0,87.194154009949884,0
8,34.1298,1.3411,6,4,53,0,87.194154009949884,0
8,34.1298,0,6,5,53,0,87.194154009949884,0
8,34.1298,0,6,6,53,0,87.194154009949884,0
8,34.1298,0,6,7,53,0,87.194154009949884,0
9,1856.9232,0,7,8,53,198.09,87.289209441366083,194.58
10,1856.9232,0,7,9,53,388.31,81.618915749746961,383.39
12,1856.9232,3.1293,8,10,53,550.75,76.519987759453471,543.48
14,34.1298,2.6822,8,11,53,654.38,67.145798064498393,636.4
16,34.1298,3.1293,8,12,53,717.7,59.0390273693327,687.59
18,34.1298,3.5763,9,13,53,723.74,55.656762504376644,662.92
20,34.1298,4.4704,9,14,53,669.57,49.128249109205441,576.91
20,34.1298,5.8115,10,15,53,561.9,52.541325581065877,470.29
20,34.1298,5.8115,10,16,53,397.44,52.541325581065877,335.75
19,34.1298,3.5763,10,17,53,192.69,55.910188768410727,154.54
18,1856.9232,3.1293,10,18,53,0,59.52339300816999,0
16,1856.9232,2.6822,10,19,53,0,67.563332617800626,0
15,1856.9232,4.0234,10,20,53,0,72.034842210105538,0
15,34.1298,4.0234,10,21,53,0,72.034842210105538,0
14,34.1298,3.5763,10,22,53,0,76.840593259432197,0
13,34.1298,3.1293,10,23,53,0,82.008317294977047,0
13,1856.9232,2.6822,10,0,54,0,82.008317294977047,0
12,34.1298,3.1293,10,1,54,0,87.568268233149638,0
