-8,1856.9232,4.4704,-13,9,34,308.95,67.292288412144302,8.9477
-8,1856.9232,4.0234,-13,10,34,465.18,67.292288412144302,23.434
-7,34.1298,4.9174,-13,11,34,581.06,62.292098497037117,54.953
-5,34.1298,5.8115,-13,12,34,641.65,53.48272176266731,641.65
-4,34.1298,6.2586,-14,13,34,642.08,45.731034827067205,642.08
-3,34.1298,5.8115,-14,14,34,580.32,42.441354758402014,580.32
-3,34.1298,6.2586,-14,15,34,469.83,42.441354758402014,469.83
-3,34.1298,4.9174,-14,16,34,305.48,42.441354758402014,305.48
-3,34.1298,5.8115,-14,17,34,107.19,42.441354758402014,107.19
-4,1856.9232,4.4704,-14,18,34,0,45.731034827067205,0
-5,1856.9232,2.6822,-14,19,34,0,49.306619239457561,0
-6,1856.9232,0,-14,20,34,0,53.195546663514051,0
-7,34.1298,1.3411,-14,21,34,0,57.428131572094784,0
-7,34.1298,1.3411,-14,22,34,0,57.428131572094784,0
-8,34.1298,1.3411,-14,23,34,0,62.037890614710676,0
-9,1856.9232,1.3411,-14,0,35,0,67.061908825759474,0
-10,34.1298,2.2352,-13,1,35,0,78.685247466506723,0
-10,34.1298,0,-13,2,35,0,78.685247466506723,0
-11,34.1298,0,-14,3,35,0,78.521423248478968,0
-12,34.1298,0,-14,4,35,0,85.052894218833558,0
-12,34.1298,0,-14,5,35,0,85.052894218833558,0
-13,34.1298,0,-14,6,35,0,92.191679133793073,0
-12,34.1298,0,-14,7,35,0,85.052894218833558,0
-11,1856.9232,0,-14,8,35,116.18,78.521423248478968,116.18
-9,1856.9232,0,-14,9,35,300.21,67.061908825759474,300.21
-7,1856.9232,2.2352,-14,10,35,452.02,57.428131572094784,452.02
-5,34.1298,3.5763,-15,11,35,571.42,45.424199584158785,571.42
-3,34.1298,6.7056,-15,12,35,658.27,39.099508319665297,658.27
-2,34.1298,5.8115,-14,13,35,663.79,39.412725065080416,663.79
0,34.1298,4.0234,-14,14,35,589.97,34.050592986126624,0
0,34.1298,4.9174,-14,15,35,471.01,34.050592986126624,11.027
0,34.1298,4.0234,-14,16,35,306.66,34.050592986126624,8.12
0,34.1298,4.0234,-13,17,35,110.88,36.934562105882399,110.88
-2,1856.9232,3.5763,-13,18,35,0,42.75084848805362,0
-2,1856.9232,3.1293,-12,19,35,0,46.339075732890365,0
-3,1856.9232,2.2352,-12,20,35,0,49.899953609108429,0
-3,34.1298,2.6822,-11,21,35,0,54.050669234684477,0
-3,34.1298,3.5763,-10,22,35,0,58.506510777554723,0
-3,34.1298,3.5763,-10,23,35,0,58.506510777554723,0
-3,1856.9232,3.5763,-9,0,36,0,63.286827800671929,0
-3,34.1298,4.0234,-9,1,36,0,63.286827800671929,0
-2,34.1298,3.5763,-8,2,36,0,63.530085685625657,0
-2,34.1298,3.1293,-8,3,36,0,63.530085685625657,0
-2,34.1298,3.5763,-7,4,36,0,68.629648895336288,0
-2,34.1298,3.5763,-6,5,36,0,74.090271718389829,0
-2,34.1298,3.1293,-5,6,36,0,79.933943298104751,0
-2,34.1298,3.5763,-5,7,36,0,79.933943298104751,0
-2,1856.9232,4.4704,-4,8,36,122.51,86.18375948438603,122.51
0,1856.9232,3.5763,-3,9,36,313.12,80.22975039312503,313.12
1,1856.9232,6.2586,-2,10,36,479,80.375317381711923,479
2,34.1298,6.7056,-2,11,36,590.92,74.819222225640118,590.92
3,34.1298,5.8115,-1,12,36,647.16,74.996958768522148,647.16
5,34.1298,4.9174,0,13,36,640.31,70.097333034191095,640.31
5,34.1298,6.2586,0,14,36,587.98,70.097333034191095,587.98
5,34.1298,4.9174,0,15,36,469.68,70.097333034191095,469.68
5,34.1298,4.4704,0,16,36,310.03,70.097333034191095,310.03
4,34.1298,4.4704,-1,17,36,114.52,69.893507175113811,114.52
2,1856.9232,2.6822,-1,18,36,0,80.519354085990997,0
1,1856.9232,1.3411,-2,19,36,0,80.375317381711923,0
1,1856.9232,1.3411,-2,20,36,0,80.375317381711923,0
0,34.1298,0,-2,21,36,0,86.394921766765563,0
-1,34.1298,0,-3,22,36,0,86.28993308116371,0
-1,34.1298,0,-3,23,36,0,86.28993308116371,0
-2,1856.9232,3.1293,-3,0,37,0,92.863965557739348,0
-2,34.1298,2.6822,-4,1,37,0,86.18375948438603,0
-2,34.1298,2.2352,-4,2,37,0,86.18375948438603,0
-2,34.1298,2.6822,-4,3,37,0,86.18375948438603,0
-3,34.1298,2.6822,-4,4,37,0,92.806460468027481,0
-3,34.1298,2.2352,-4,5,37,0,92.806460468027481,0
-3,34.1298,2.2352,-4,6,37,0,92.806460468027481,0
-2,34.1298,1.3411,-4,7,37,0,86.18375948438603,0
-1,1856.9232,2.2352,-3,8,37,125.25,86.28993308116371,125.25
