-4,34.1298,4.9174,-8,23,27,0,73.714683677886498,0
-4,1856.9232,3.5763,-8,0,28,0,73.714683677886498,0
-4,34.1298,4.4704,-8,1,28,0,73.714683677886498,0
-4,34.1298,3.5763,-8,2,28,0,73.714683677886498,0
-5,34.1298,2.6822,-8,3,28,0,79.478232981322179,0
-5,34.1298,3.5763,-8,4,28,0,79.478232981322179,0
-5,34.1298,3.1293,-8,5,28,0,79.478232981322179,0
-5,34.1298,2.6822,-8,6,28,0,79.478232981322179,0
-5,34.1298,8.9408,-8,7,28,0,79.478232981322179,0
-4,1856.9232,4.4704,-8,8,28,96.499,73.714683677886498,88.655
-4,1856.9232,4.9174,-7,9,28,288.23,79.631765086518371,263.42
-3,1856.9232,4.4704,-7,10,28,442.73,73.90342258501218,399.39
-3,34.1298,6.7056,-6,11,28,557.35,79.783661265599576,493.37
-2,34.1298,4.4704,-6,12,28,606.87,74.090271718389829,526.54
-2,34.1298,5.8115,-6,13,28,607.74,74.090271718389829,523.31
-2,34.1298,4.9174,-6,14,28,546.53,74.090271718389829,475.82
-2,34.1298,6.2586,-5,15,28,436.72,79.933943298104751,376.17
-2,34.1298,4.4704,-5,16,28,273,79.933943298104751,234.34
-2,34.1298,4.4704,-5,17,28,79.563,79.933943298104751,70.756
-3,1856.9232,4.9174,-5,18,28,0,86.076383684481797,0
-3,1856.9232,6.2586,-5,19,28,0,86.076383684481797,0
-3,1856.9232,4.4704,-5,20,28,0,86.076383684481797,0
-3,34.1298,4.0234,-6,21,28,0,79.783661265599576,0
-3,34.1298,4.0234,-6,22,28,0,79.783661265599576,0
-3,34.1298,3.5763,-6,23,28,0,79.783661265599576,0
-4,1856.9232,3.5763,-7,0,29,0,79.631765086518371,0
-4,34.1298,3.5763,-7,1,29,0,79.631765086518371,0
-4,34.1298,3.5763,-7,2,29,0,79.631765086518371,0
-4,34.1298,2.6822,-7,3,29,0,79.631765086518371,0
-4,34.1298,4.0234,-7,4,29,0,79.631765086518371,0
-5,34.1298,3.1293,-7,5,29,0,85.857954785728069,0
-5,34.1298,3.5763,-8,6,29,0,79.478232981322179,0
-5,34.1298,3.5763,-8,7,29,0,79.478232981322179,0
-5,1856.9232,2.2352,-8,8,29,98.335,79.478232981322179,82.807
-4,1856.9232,1.3411,-7,9,29,286.25,79.631765086518371,235.52
-4,1856.9232,2.2352,-7,10,29,440.6,79.631765086518371,364.32
-3,34.1298,3.1293,-7,11,29,549.51,73.90342258501218,452.29
-3,34.1298,2.2352,-7,12,29,600.94,73.90342258501218,474.9
-2,34.1298,3.5763,-7,13,29,605.57,68.629648895336288,485.14
-2,34.1298,3.5763,-7,14,29,548.13,68.629648895336288,435.21
-2,34.1298,3.5763,-6,15,29,435.3,74.090271718389829,304.26
-2,34.1298,7.1526,-6,16,29,282.98,74.090271718389829,183.23
-3,34.1298,5.8115,-6,17,29,84.785,79.783661265599576,60.668
-3,1856.9232,4.0234,-7,18,29,0,73.90342258501218,0
-4,1856.9232,3.5763,-7,19,29,0,79.631765086518371,0
-4,1856.9232,3.5763,-7,20,29,0,79.631765086518371,0
-4,34.1298,3.5763,-8,21,29,0,73.714683677886498,0
-5,34.1298,4.4704,-8,22,29,0,79.478232981322179,0
-6,34.1298,4.4704,-8,23,29,0,85.74686556299531,0
-7,1856.9232,4.9174,-9,0,30,0,85.634501876922116,0
-7,34.1298,3.5763,-9,1,30,0,85.634501876922116,0
-8,34.1298,2.6822,-9,2,30,0,92.508387698742339,0
-8,34.1298,3.5763,-9,3,30,0,92.508387698742339,0
-8,34.1298,3.5763,-9,4,30,0,92.508387698742339,0
-9,34.1298,2.6822,-9,5,30,0,100.0,0
-9,34.1298,2.2352,-10,6,30,0,92.446584559154559,0
-9,34.1298,0,-10,7,30,0,92.446584559154559,0
-9,1856.9232,1.3411,-10,8,30,100.34,92.446584559154559,100.34
-8,1856.9232,2.2352,-9,9,30,287.11,92.508387698742339,287.11
-7,1856.9232,2.6822,-9,10,30,441.08,85.634501876922116,441.08
-5,34.1298,3.1293,-9,11,30,551.89,73.524031902471236,551.89
-4,34.1298,4.4704,-9,12,30,622.45,68.192265367640786,622.45
-3,34.1298,4.0234,-9,13,30,618.39,63.286827800671929,618.39
-3,34.1298,5.8115,-8,14,30,557.34,68.41198876664923,27.587
-2,34.1298,5.8115,-7,15,30,442.08,68.629648895336288,23.657
-2,34.1298,3.5763,-7,16,30,279.83,68.629648895336288,72.693
-2,34.1298,4.4704,-7,17,30,88.208,68.629648895336288,6.1958
-3,1856.9232,4.4704,-7,18,30,0,73.90342258501218,0
-4,1856.9232,6.2586,-8,19,30,0,73.714683677886498,0
-4,1856.9232,5.8115,-7,20,30,0,79.631765086518371,0
-3,34.1298,3.5763,-7,21,30,0,73.90342258501218,0
-3,34.1298,4.4704,-6,22,30,0,79.783661265599576,0
