8,1856.9232,6.2586,7,9,17,269.59,93.403401079212742,191.2
7,1856.9232,5.8115,6,10,17,421.33,93.352225938756803,359.27
7,34.1298,4.0234,6,11,17,520.16,93.352225938756803,492.37
7,34.1298,5.8115,6,12,17,574.6,93.352225938756803,543.37
7,34.1298,5.8115,5,13,17,569.24,87.098056588182175,546.17
7,34.1298,4.0234,5,14,17,501.26,87.098056588182175,474.57
7,34.1298,4.9174,5,15,17,389.51,87.098056588182175,369.45
7,34.1298,6.7056,5,16,17,232.24,87.098056588182175,222.44
7,34.1298,5.8115,5,17,17,36.333,87.098056588182175,35.109
6,1856.9232,5.8115,5,18,17,0,93.300460393223361,0
6,1856.9232,5.8115,4,19,17,0,87.000902360951287,0
5,1856.9232,4.9174,3,20,17,0,86.902676258921971,0
4,34.1298,4.9174,3,21,17,0,93.195121939330733,0
3,34.1298,5.8115,2,22,17,0,93.141530529950373,0
3,34.1298,4.9174,2,23,17,0,93.141530529950373,0
2,1856.9232,4.0234,2,0,18,0,100.0,0
2,34.1298,4.0234,1,1,18,0,93.087311705799863,0
2,34.1298,4.9174,1,2,18,0,93.087311705799863,0
1,34.1298,5.8115,1,3,18,0,100.0,0
1,34.1298,5.8115,0,4,18,0,93.032455771758947,0
1,34.1298,7.1526,0,5,18,0,93.032455771758947,0
0,34.1298,4.0234,0,6,18,0,100.0,0
0,34.1298,4.9174,0,7,18,0,100.0,0
0,1856.9232,3.5763,0,8,18,73.829,100.0,68.595
0,1856.9232,3.1293,0,9,18,259.78,100.0,240.03
1,1856.9232,3.5763,0,10,18,411.46,93.032455771758947,392.28
2,34.1298,3.5763,0,11,18,516.42,86.60141209181765,491.51
3,34.1298,3.5763,1,12,18,566.52,86.702946851967639,546.76
5,34.1298,4.0234,1,13,18,563.31,75.347181209710627,543.64
6,34.1298,2.6822,1,14,18,496.17,70.299266961976286,475.75
6,34.1298,2.6822,1,15,18,385.3,70.299266961976286,367.42
6,34.1298,4.0234,1,16,18,230.76,70.299266961976286,217.77
5,34.1298,3.1293,1,17,18,39.375,75.347181209710627,37.298
4,1856.9232,3.1293,1,18,18,0,80.80291704368436,0
3,1856.9232,4.0234,1,19,18,0,86.702946851967639,0
2,1856.9232,3.1293,1,20,18,0,93.087311705799863,0
2,34.1298,2.6822,0,21,18,0,86.60141209181765,0
1,34.1298,4.0234,0,22,18,0,93.032455771758947,0
1,34.1298,2.2352,0,23,18,0,93.032455771758947,0
0,1856.9232,2.6822,-1,0,19,0,92.97695284762996,0
0,34.1298,2.6822,-1,1,19,0,92.97695284762996,0
0,34.1298,2.6822,-1,2,19,0,92.97695284762996,0
0,34.1298,1.3411,0,3,19,0,100.0,0
0,34.1298,1.3411,0,4,19,0,100.0,0
0,34.1298,1.3411,0,5,19,0,100.0,0
0,34.1298,2.2352,-1,6,19,0,92.97695284762996,0
0,34.1298,2.6822,-1,7,19,0,92.97695284762996,0
0,1856.9232,2.2352,0,8,19,74.638,100.0,0
1,1856.9232,2.6822,0,9,19,259.45,93.032455771758947,9.5142
2,1856.9232,3.1293,1,10,19,410.26,93.087311705799863,13.593
3,34.1298,3.1293,2,11,19,511.39,93.141530529950373,82.818
5,34.1298,3.5763,2,12,19,564.43,80.942482739047733,564.43
7,34.1298,3.1293,3,13,19,560.46,75.690542144640617,201.13
8,34.1298,4.4704,3,14,19,507.54,70.697540658389229,0
8,34.1298,3.5763,3,15,19,391.47,70.697540658389229,163.52
8,34.1298,3.5763,3,16,19,234.03,70.697540658389229,29.379
8,34.1298,5.8115,3,17,19,43.454,70.697540658389229,21.112
7,1856.9232,3.1293,4,18,19,0,81.21727894075245,0
6,1856.9232,4.4704,4,19,19,0,87.000902360951287,0
6,1856.9232,6.2586,4,20,19,0,87.000902360951287,0
6,34.1298,6.7056,3,21,19,0,81.080597043606616,0
5,34.1298,4.9174,3,22,19,0,86.902676258921971,0
5,34.1298,4.0234,3,23,19,0,86.902676258921971,0
5,1856.9232,4.0234,3,0,20,0,86.902676258921971,0
5,34.1298,4.0234,3,1,20,0,86.902676258921971,0
5,34.1298,3.5763,3,2,20,0,86.902676258921971,0
5,34.1298,2.6822,3,3,20,0,86.902676258921971,0
4,34.1298,2.6822,3,4,20,0,93.195121939330733,0
4,34.1298,2.6822,3,5,20,0,93.195121939330733,0
4,34.1298,0,3,6,20,0,93.195121939330733,0
4,34.1298,0,3,7,20,0,93.195121939330733,0
4,1856.9232,0,3,8,20,75.64,93.195121939330733,73.886
