-3,34.1298,2.2352,-7,12,29,600.94,73.90342258501218,474.9
-2,34.1298,3.5763,-7,13,29,605.57,68.629648895336288,485.14
-2,34.1298,3.5763,-7,14,29,548.13,68.629648895336288,435.21
-2,34.1298,3.5763,-7,15,29,435.3,68.629648895336288,304.26
-2,34.1298,7.1526,-7,16,29,282.98,68.629648895336288,183.23
-3,34.1298,5.8115,-7,17,29,84.785,73.90342258501218,60.668
-3,1856.9232,4.0234,-7,18,29,0,73.90342258501218,0
-4,1856.9232,3.5763,-7,19,29,0,79.631765086518371,0
-4,1856.9232,3.5763,-7,20,29,0,79.631765086518371,0
-5,34.1298,3.5763,-8,21,29,0,79.478232981322179,0
-5,34.1298,4.4704,-8,22,29,0,79.478232981322179,0
-5,34.1298,4.4704,-8,23,29,0,79.478232981322179,0
-6,1856.9232,4.9174,-9,0,30,0,79.323042834535087,0
-7,34.1298,3.5763,-9,1,30,0,85.634501876922116,0
-7,34.1298,2.6822,-9,2,30,0,85.634501876922116,0
-8,34.1298,3.5763,-9,3,30,0,92.508387698742339,0
-8,34.1298,3.5763,-10,4,30,0,85.520844858228372,0
-9,34.1298,2.6822,-10,5,30,0,92.446584559154559,0
-9,34.1298,2.2352,-10,6,30,0,92.446584559154559,0
-9,34.1298,0,-10,7,30,0,92.446584559154559,0
-9,1856.9232,1.3411,-11,8,30,100.34,85.405875303028878,100.34
-8,1856.9232,2.2352,-10,9,30,287.11,85.520844858228372,287.11
-7,1856.9232,2.6822,-10,10,30,441.08,79.166172189459587,441.08
-6,34.1298,3.1293,-10,11,30,551.89,73.331443868922875,551.89
-5,34.1298,4.4704,-10,12,30,622.45,67.970456324017832,622.45
-4,34.1298,4.0234,-9,13,30,618.39,68.192265367640786,618.39
-3,34.1298,5.8115,-9,14,30,557.34,63.286827800671929,27.587
-2,34.1298,5.8115,-8,15,30,442.08,63.530085685625657,23.657
-2,34.1298,3.5763,-8,16,30,279.83,63.530085685625657,72.693
-2,34.1298,4.4704,-7,17,30,88.208,68.629648895336288,6.1958
-1,1856.9232,4.4704,-7,18,30,0,63.77121389329664,0
-1,1856.9232,6.2586,-6,19,30,0,68.845267915788227,0
0,1856.9232,5.8115,-5,20,30,0,69.058867777488345,0
0,34.1298,3.5763,-4,21,30,0,74.458391582192704,0
0,34.1298,4.4704,-3,22,30,0,80.22975039312503,0
0,34.1298,4.0234,-3,23,30,0,80.22975039312503,0
0,1856.9232,4.0234,-3,0,31,0,80.22975039312503,0
0,34.1298,4.4704,-3,1,31,0,80.22975039312503,0
0,34.1298,7.5997,-3,2,31,0,80.22975039312503,0
0,34.1298,8.9408,-3,3,31,0,80.22975039312503,0
0,34.1298,10.729,-3,4,31,0,80.22975039312503,0
0,34.1298,8.9408,-3,5,31,0,80.22975039312503,0
0,34.1298,8.9408,-3,6,31,0,80.22975039312503,0
-3,34.1298,8.9408,-3,7,31,0,100.0,0
-3,1856.9232,9.3878,-3,8,31,109.42,100.0,88.575
-2,1856.9232,6.7056,-3,9,31,303.87,92.863965557739348,233.92
-2,1856.9232,8.0467,-3,10,31,467.24,92.863965557739348,338.06
0,34.1298,8.9408,-3,11,31,581.5,80.22975039312503,418.01
1,34.1298,8.9408,-3,12,31,639.24,74.639707050276655,438.5
2,34.1298,6.7056,-3,13,31,628.82,69.480096758186903,462.23
3,34.1298,8.9408,-3,14,31,575.97,64.714825534265714,408.17
3,34.1298,8.0467,-3,15,31,456.99,64.714825534265714,302.7
2,34.1298,7.1526,-3,16,31,292.26,69.480096758186903,204.41
2,34.1298,6.7056,-3,17,31,94.013,69.480096758186903,57.146
2,1856.9232,4.4704,-4,18,31,0,64.482018531033972,0
1,1856.9232,3.5763,-4,19,31,0,69.270470217066517,0
1,1856.9232,3.1293,-4,20,31,0,69.270470217066517,0
0,34.1298,2.6822,-4,21,31,0,74.458391582192704,0
0,34.1298,3.1293,-4,22,31,0,74.458391582192704,0
-1,34.1298,3.1293,-4,23,31,0,80.082632632857582,0
-1,1856.9232,3.5763,-5,0,32,0,74.275253880025062,0
-1,34.1298,3.1293,-5,1,32,0,74.275253880025062,0
-2,34.1298,3.1293,-5,2,32,0,79.933943298104751,0
-2,34.1298,4.0234,-5,3,32,0,79.933943298104751,0
-3,34.1298,3.5763,-5,4,32,0,86.076383684481797,0
-4,34.1298,4.0234,-5,5,32,0,92.748266931412331,0
-4,34.1298,3.1293,-5,6,32,0,92.748266931412331,0
-4,34.1298,2.2352,-6,7,32,0,85.967788086353806,0
-3,1856.9232,2.2352,-6,8,32,107.58,79.783661265599576,0
-2,1856.9232,2.2352,-6,9,32,297.24,74.090271718389829,297.24
-2,1856.9232,3.5763,-6,10,32,454.05,74.090271718389829,454.05
0,34.1298,3.1293,-5,11,32,561.8,69.058867777488345,561.8
