6,1856.9232,4.4704,-5,18,57,0,45.165282960846739,0
5,1856.9232,3.1293,-5,19,57,0,48.408424535627695,0
4,1856.9232,2.6822,-5,20,57,0,51.913579899969307,0
3,34.1298,2.6822,-4,21,57,0,60.059538976411261,0
2,34.1298,3.1293,-4,22,57,0,64.482018531033972,0
1,34.1298,0,-4,23,57,0,69.270470217066517,0
1,1856.9232,0,-3,0,58,0,74.639707050276655,0
0,34.1298,0,-3,1,58,0,80.22975039312503,0
0,34.1298,0,-2,2,58,0,86.394921766765563,0
1,34.1298,1.3411,-2,3,58,0,80.375317381711923,0
1,34.1298,0,-2,4,58,0,80.375317381711923,0
1,34.1298,0,-1,5,58,0,86.498742535900504,0
1,34.1298,1.3411,-1,6,58,0,86.498742535900504,0
1,34.1298,0,-1,7,58,5.8739,86.498742535900504,4.2413
2,1856.9232,0,0,8,58,218.41,86.60141209181765,152.93
3,1856.9232,0,0,9,58,405.46,80.661880682868471,264.81
5,1856.9232,2.2352,1,10,58,567.16,75.347181209710627,367.24
6,34.1298,3.1293,1,11,58,687.32,70.299266961976286,385.72
8,34.1298,3.5763,2,12,58,766.22,65.848771416257676,766.22
10,34.1298,2.6822,2,13,58,764.87,57.540788283393631,764.87
10,34.1298,3.5763,2,14,58,702.02,57.540788283393631,414.28
11,34.1298,1.3411,3,15,58,568.67,57.795276383180649,337.45
11,34.1298,4.0234,3,16,58,414.07,57.795276383180649,191.32
10,34.1298,4.0234,3,17,58,212.27,61.77779982356094,110.94
9,1856.9232,3.5763,3,18,58,0,66.069675859940816,0
8,1856.9232,3.5763,3,19,58,0,70.697540658389229,0
7,1856.9232,2.6822,3,20,58,0,75.690542144640617,0
6,34.1298,3.1293,4,21,58,0,87.000902360951287,0
6,34.1298,4.0234,4,22,58,0,87.000902360951287,0
6,34.1298,4.0234,4,23,58,0,87.000902360951287,0
6,1856.9232,2.2352,5,0,59,0,93.300460393223361,0
6,34.1298,6.2586,5,1,59,0,93.300460393223361,0
6,34.1298,3.5763,5,2,59,0,93.300460393223361,0
6,34.1298,3.5763,5,3,59,0,93.300460393223361,0
6,34.1298,4.4704,5,4,59,0,93.300460393223361,0
7,34.1298,0,5,5,59,0,87.098056588182175,0
7,34.1298,3.1293,6,6,59,0,93.352225938756803,0
8,34.1298,2.2352,6,7,59,11.461,87.194154009949884,10.583
9,1856.9232,3.1293,7,8,59,230.45,87.289209441366083,219.46
10,1856.9232,2.2352,8,9,59,426.6,87.383237448204156,401.95
12,1856.9232,2.6822,9,10,59,583.73,81.879846925107273,564.09
13,34.1298,3.5763,10,11,59,701.13,82.008317294977047,681.7
15,34.1298,4.0234,11,12,59,758.1,76.998577407491453,736.77
16,34.1298,3.5763,11,13,59,756.02,72.218947621294333,729.53
17,34.1298,4.9174,12,14,59,698.65,72.401374699018376,636.55
18,34.1298,4.0234,12,15,59,580.29,67.973701215250202,545.88
18,34.1298,4.9174,12,16,59,417.77,67.973701215250202,397.12
17,34.1298,4.9174,12,17,59,219.05,72.401374699018376,205.22
17,1856.9232,4.4704,12,18,59,0,72.401374699018376,0
16,1856.9232,4.0234,12,19,59,0,77.155040268598128,0
16,1856.9232,7.1526,12,20,59,0,77.155040268598128,0
15,34.1298,9.8349,13,21,59,0,87.838459056539648,0
16,34.1298,6.2586,13,22,59,0,82.385951628273233,0
16,34.1298,5.8115,13,23,59,0,82.385951628273233,0
16,1856.9232,4.9174,12,0,60,0,77.155040268598128,0
16,34.1298,7.5997,12,1,60,0,77.155040268598128,0
15,34.1298,6.2586,11,2,60,0,76.998577407491453,0
14,34.1298,3.1293,11,3,60,0,82.135480367498232,0
13,34.1298,2.6822,11,4,60,0,87.659298938667845,0
12,34.1298,3.5763,11,5,60,0,93.602371756764171,0
12,34.1298,5.8115,11,6,60,0,93.602371756764171,0
12,34.1298,2.6822,10,7,60,17.225,87.568268233149638,0.79384
11,1856.9232,4.0234,10,8,60,241.44,93.553471551666661,241.44
11,1856.9232,6.7056,8,9,60,449.03,81.750052187031002,320.34
11,1856.9232,13.411,8,10,60,641.41,81.750052187031002,499.88
12,34.1298,9.3878,7,11,60,753.76,71.472271072726826,557.98
12,34.1298,10.282,7,12,60,823.31,71.472271072726826,753.79
11,34.1298,10.282,7,13,60,823.66,76.357329126718284,729.93
10,34.1298,14.752,6,14,60,770.2,76.193074639467341,632.25
8,34.1298,12.964,4,15,60,635.74,75.859700794653989,472.77
6,34.1298,9.3878,3,16,60,448.09,81.080597043606616,263.71
6,34.1298,13.411,2,17,60,240.31,75.519709049236894,167.91
