7,34.1298,6.7056,-3,16,63,444.08,48.983002294844027,444.08
6,34.1298,8.0467,-3,17,63,238.3,52.471166918911017,238.3
5,1856.9232,7.5997,-3,18,63,12.055,56.238915325569103,12.055
3,1856.9232,7.1526,-3,19,63,0,64.714825534265714,0
3,1856.9232,6.7056,-3,20,63,0,64.714825534265714,0
2,34.1298,6.7056,-3,21,63,0,69.480096758186903,0
2,34.1298,6.2586,-3,22,63,0,69.480096758186903,0
1,34.1298,6.7056,-3,23,63,0,74.639707050276655,0
1,1856.9232,4.9174,-3,0,64,0,74.639707050276655,0
1,34.1298,5.8115,-3,1,64,0,74.639707050276655,0
1,34.1298,4.4704,-3,2,64,0,74.639707050276655,0
1,34.1298,4.0234,-3,3,64,0,74.639707050276655,0
0,34.1298,4.0234,-3,4,64,0,80.22975039312503,0
0,34.1298,3.5763,-3,5,64,0,80.22975039312503,0
0,34.1298,3.1293,-3,6,64,0,80.22975039312503,0
1,34.1298,3.5763,-3,7,64,40.744,74.639707050276655,40.744
2,1856.9232,3.1293,-2,8,64,263.31,74.819222225640118,263.31
5,1856.9232,2.6822,-1,9,64,456.75,65.174364282645996,456.75
7,1856.9232,3.5763,0,10,64,617.88,61.053414792926283,617.88
9,34.1298,4.4704,1,11,64,731.55,57.284355946111774,16.225
11,34.1298,4.0234,1,12,64,785.99,50.110207765456927,32.667
13,34.1298,4.0234,2,13,64,785.68,47.188232229476426,32.506
15,34.1298,8.0467,3,14,64,753.1,44.501540623776982,33.803
16,34.1298,6.7056,3,15,64,627.06,41.739140378751529,94.149
16,34.1298,7.1526,4,16,64,454.49,44.786829514449664,71.864
15,34.1298,4.9174,4,17,64,237.37,47.750933415535549,39.786
13,1856.9232,5.8115,4,18,64,16.09,54.362216651363781,4.5029
12,1856.9232,4.0234,4,19,64,0,58.047833762427267,0
11,1856.9232,6.2586,5,20,64,0,66.505749732013612,0
10,34.1298,5.8115,5,21,64,0,71.088489426375332,0
10,34.1298,4.4704,5,22,64,0,71.088489426375332,0
10,34.1298,4.4704,5,23,64,0,71.088489426375332,0
10,1856.9232,4.4704,5,0,65,0,71.088489426375332,0
9,34.1298,4.4704,5,1,65,0,76.027205034617879,0
9,34.1298,4.0234,5,2,65,0,76.027205034617879,0
9,34.1298,4.0234,6,3,65,0,81.486420017858691,0
9,34.1298,4.4704,6,4,65,0,81.486420017858691,0
9,34.1298,4.4704,6,5,65,0,81.486420017858691,0
10,34.1298,4.9174,6,6,65,0,76.193074639467341,0
10,34.1298,4.0234,6,7,65,46.57,76.193074639467341,6.3088
10,1856.9232,5.8115,7,8,65,272.86,81.618915749746961,214.51
11,1856.9232,4.4704,8,9,65,464.38,81.750052187031002,370.82
11,1856.9232,4.4704,8,10,65,624.63,81.750052187031002,577.45
12,34.1298,4.0234,9,11,65,731.85,81.879846925107273,685.16
13,34.1298,4.9174,9,12,65,799.48,76.681069549305064,736.7
14,34.1298,4.0234,10,13,65,793.94,76.840593259432197,737.24
15,34.1298,4.0234,10,14,65,728.58,72.034842210105538,672.92
15,34.1298,4.9174,10,15,65,616.02,72.034842210105538,554.3
16,34.1298,6.2586,11,16,65,452.92,72.218947621294333,407.23
16,34.1298,6.2586,11,17,65,248.91,72.218947621294333,231.56
16,1856.9232,7.1526,11,18,65,20.78,72.218947621294333,19.363
15,1856.9232,7.1526,11,19,65,0,76.998577407491453,0
15,1856.9232,7.5997,11,20,65,0,76.998577407491453,0
15,34.1298,9.8349,12,21,65,0,82.261352957573052,0
16,34.1298,9.3878,12,22,65,0,77.155040268598128,0
16,34.1298,10.729,12,23,65,0,77.155040268598128,0
16,1856.9232,8.0467,11,0,66,0,72.218947621294333,0
16,34.1298,5.8115,11,1,66,0,72.218947621294333,0
15,34.1298,9.8349,10,2,66,0,72.034842210105538,0
13,34.1298,8.9408,10,3,66,0,82.008317294977047,0
12,34.1298,16.988,9,4,66,0,81.879846925107273,0
11,34.1298,4.0234,8,5,66,0,81.750052187031002,0
9,34.1298,5.8115,7,6,66,0,87.289209441366083,0
8,34.1298,3.5763,6,7,66,53.441,87.194154009949884,12.895
8,1856.9232,4.4704,5,8,66,280.27,81.35254712725947,22.465
8,1856.9232,5.8115,5,9,66,486.53,81.35254712725947,342.01
8,1856.9232,8.0467,4,10,66,658.77,75.859700794653989,339.13
10,34.1298,7.1526,3,11,66,783.38,61.77779982356094,553.81
11,34.1298,6.7056,2,12,66,846.01,53.831404997309406,595.15
12,34.1298,7.5997,2,13,66,841.67,50.387471827470875,465.32
12,34.1298,7.5997,1,14,66,770.51,46.904342960709904,502.66
13,34.1298,7.1526,0,15,66,650.25,40.865675451892798,406.95
