5,1856.9232,7.1526,3,8,23,86.193,86.902676258921971,83.23
5,1856.9232,6.7056,3,9,23,278.37,86.902676258921971,268.04
5,1856.9232,6.2586,3,10,23,433.65,86.902676258921971,413.83
5,34.1298,4.4704,3,11,23,534.97,86.902676258921971,509.45
5,34.1298,6.2586,3,12,23,595.32,86.902676258921971,562.39
5,34.1298,5.8115,3,13,23,590.16,86.902676258921971,553.42
6,34.1298,5.8115,3,14,23,529.13,81.080597043606616,493.08
6,34.1298,7.5997,3,15,23,420.34,81.080597043606616,392.78
6,34.1298,4.9174,3,16,23,253.07,81.080597043606616,235.71
6,34.1298,4.0234,4,17,23,59.141,87.000902360951287,54.989
5,1856.9232,3.5763,3,18,23,0,86.902676258921971,0
5,1856.9232,4.9174,3,19,23,0,86.902676258921971,0
4,1856.9232,3.5763,3,20,23,0,93.195121939330733,0
4,34.1298,2.6822,2,21,23,0,86.803362953546198,0
3,34.1298,3.5763,2,22,23,0,93.141530529950373,0
3,34.1298,2.6822,2,23,23,0,93.141530529950373,0
2,1856.9232,3.1293,1,0,24,0,93.087311705799863,0
2,34.1298,4.0234,1,1,24,0,93.087311705799863,0
2,34.1298,2.6822,1,2,24,0,93.087311705799863,0
2,34.1298,3.5763,0,3,24,0,86.60141209181765,0
1,34.1298,2.6822,0,4,24,0,93.032455771758947,0
1,34.1298,2.6822,0,5,24,0,93.032455771758947,0
1,34.1298,2.2352,0,6,24,0,93.032455771758947,0
2,34.1298,3.1293,0,7,24,0,86.60141209181765,0
2,1856.9232,3.1293,0,8,24,85.867,86.60141209181765,73.072
2,1856.9232,2.2352,0,9,24,274.43,86.60141209181765,242.7
2,1856.9232,3.1293,1,10,24,427.15,93.087311705799863,386.96
3,34.1298,2.2352,1,11,24,533.19,86.702946851967639,476.92
4,34.1298,3.1293,1,12,24,588.01,80.80291704368436,524.97
5,34.1298,2.6822,1,13,24,585.18,75.347181209710627,522.53
6,34.1298,1.3411,2,14,24,518.89,75.519709049236894,464.27
7,34.1298,2.2352,2,15,24,411.1,70.499329419935393,366.33
7,34.1298,0,2,16,24,250.37,70.499329419935393,222.67
7,34.1298,0,2,17,24,61.471,70.499329419935393,55.525
6,1856.9232,3.1293,2,18,24,0,75.519709049236894,0
5,1856.9232,3.5763,2,19,24,0,80.942482739047733,0
4,1856.9232,2.6822,2,20,24,0,86.803362953546198,0
4,34.1298,4.0234,3,21,24,0,93.195121939330733,0
5,34.1298,5.8115,3,22,24,0,86.902676258921971,0
5,34.1298,2.6822,3,23,24,0,86.902676258921971,0
5,1856.9232,2.6822,3,0,25,0,86.902676258921971,0
5,34.1298,2.6822,3,1,25,0,86.902676258921971,0
5,34.1298,3.5763,3,2,25,0,86.902676258921971,0
5,34.1298,4.4704,3,3,25,0,86.902676258921971,0
5,34.1298,4.0234,3,4,25,0,86.902676258921971,0
5,34.1298,3.1293,4,5,25,0,93.248095448058876,0
5,34.1298,2.2352,4,6,25,0,93.248095448058876,0
5,34.1298,2.6822,4,7,25,0,93.248095448058876,0
5,1856.9232,3.1293,3,8,25,87.801,86.902676258921971,87.801
5,1856.9232,1.3411,3,9,25,272.22,86.902676258921971,0
5,1856.9232,2.6822,2,10,25,422.61,80.942482739047733,0
6,34.1298,3.5763,2,11,25,530.74,75.519709049236894,530.74
7,34.1298,5.8115,2,12,25,590.53,70.499329419935393,478.04
7,34.1298,10.729,2,13,25,612.67,70.499329419935393,460.63
7,34.1298,8.0467,2,14,25,547.05,70.499329419935393,461.52
7,34.1298,9.8349,1,15,25,441.74,65.625930527633926,366.3
6,34.1298,10.282,1,16,25,277.01,70.299266961976286,231.38
6,34.1298,5.8115,1,17,25,68.905,70.299266961976286,51.133
5,1856.9232,6.2586,1,18,25,0,75.347181209710627,0
5,1856.9232,10.282,1,19,25,0,75.347181209710627,0
5,1856.9232,8.0467,1,20,25,0,75.347181209710627,0
4,34.1298,6.2586,0,21,25,0,75.172938060956724,0
3,34.1298,7.1526,0,22,25,0,80.661880682868471,0
3,34.1298,7.1526,0,23,25,0,80.661880682868471,0
3,1856.9232,6.7056,0,0,26,0,80.661880682868471,0
2,34.1298,8.0467,-1,1,26,0,80.519354085990997,0
2,34.1298,9.8349,-1,2,26,0,80.519354085990997,0
1,34.1298,8.0467,-2,3,26,0,80.375317381711923,0
1,34.1298,6.7056,-2,4,26,0,80.375317381711923,0
1,34.1298,5.8115,-2,5,26,0,80.375317381711923,0
0,34.1298,6.2586,-2,6,26,0,86.394921766765563,0
0,34.1298,8.0467,-2,7,26,0,86.394921766765563,0
