17,34.1298,0,11,12,52,708.36,67.769403902782983,109.46
18,34.1298,2.2352,11,13,52,714.68,63.624996508330625,111.3
18,34.1298,2.6822,12,14,52,652.51,67.973701215250202,104.25
19,34.1298,1.3411,12,15,52,537.69,63.847544203512655,114.78
19,34.1298,0,12,16,52,376.24,63.847544203512655,63.963
18,34.1298,2.2352,12,17,52,185.89,67.973701215250202,24.209
18,1856.9232,0,12,18,52,0,67.973701215250202,0
17,1856.9232,0,12,19,52,0,72.401374699018376,0
16,1856.9232,0,12,20,52,0,77.155040268598128,0
15,34.1298,0,12,21,52,0,82.261352957573052,0
13,34.1298,0,11,22,52,0,87.659298938667845,0
13,34.1298,0,11,23,52,0,87.659298938667845,0
13,1856.9232,1.3411,11,0,53,0,87.659298938667845,0
12,34.1298,3.1293,11,1,53,0,93.602371756764171,0
12,34.1298,2.2352,11,2,53,0,93.602371756764171,0
11,34.1298,2.2352,10,3,53,0,93.553471551666661,0
10,34.1298,1.3411,10,4,53,0,100.0,0
10,34.1298,0,10,5,53,0,100.0,0
10,34.1298,0,10,6,53,0,100.0,0
10,34.1298,0,9,7,53,0,93.504015298216231,0
11,1856.9232,0,10,8,53,198.09,93.553471551666661,194.58
12,1856.9232,0,10,9,53,388.31,87.568268233149638,383.39
13,1856.9232,3.1293,11,10,53,550.75,87.659298938667845,543.48
16,34.1298,2.6822,11,11,53,654.38,72.218947621294333,636.4
17,34.1298,3.1293,12,12,53,717.7,72.401374699018376,687.59
19,34.1298,3.5763,12,13,53,723.74,63.847544203512655,662.92
21,34.1298,4.4704,12,14,53,669.57,56.411645702142742,576.91
21,34.1298,5.8115,11,15,53,561.9,52.802638324228333,470.29
21,34.1298,5.8115,11,16,53,397.44,52.802638324228333,335.75
20,34.1298,3.5763,11,17,53,192.69,56.161812821717625,154.54
18,1856.9232,3.1293,11,18,53,0,63.624996508330625,0
17,1856.9232,2.6822,11,19,53,0,67.769403902782983,0
16,1856.9232,4.0234,11,20,53,0,72.218947621294333,0
15,34.1298,4.0234,11,21,53,0,76.998577407491453,0
14,34.1298,3.5763,11,22,53,0,82.135480367498232,0
13,34.1298,3.1293,11,23,53,0,87.659298938667845,0
13,1856.9232,2.6822,11,0,54,0,87.659298938667845,0
13,34.1298,3.1293,11,1,54,0,87.659298938667845,0
13,34.1298,2.6822,11,2,54,0,87.659298938667845,0
13,34.1298,2.6822,11,3,54,0,87.659298938667845,0
13,34.1298,2.6822,11,4,54,0,87.659298938667845,0
12,34.1298,2.6822,10,5,54,0,87.568268233149638,0
11,34.1298,2.2352,10,6,54,0,93.553471551666661,0
11,34.1298,2.2352,10,7,54,0,93.553471551666661,0
12,1856.9232,0,10,8,54,203.43,87.568268233149638,192.63
12,1856.9232,0,10,9,54,395.14,87.568268233149638,380.18
13,1856.9232,1.3411,10,10,54,554.01,82.008317294977047,546.65
15,34.1298,0,10,11,54,651.31,72.034842210105538,642.2
16,34.1298,3.1293,11,12,54,731.03,72.218947621294333,731.03
16,34.1298,1.3411,11,13,54,726.23,72.218947621294333,498.29
17,34.1298,1.3411,11,14,54,667.98,67.769403902782983,567.98
18,34.1298,0,11,15,54,545.21,63.624996508330625,475.31
18,34.1298,2.6822,11,16,54,391.02,63.624996508330625,343.8
17,34.1298,3.1293,10,17,54,197.41,63.400630000924139,175.03
15,1856.9232,3.5763,10,18,54,0,72.034842210105538,0
13,1856.9232,3.5763,10,19,54,0,82.008317294977047,0
12,1856.9232,4.0234,10,20,54,0,87.568268233149638,0
11,34.1298,4.0234,10,21,54,0,93.553471551666661,0
11,34.1298,3.5763,10,22,54,0,93.553471551666661,0
11,34.1298,2.2352,10,23,54,0,93.553471551666661,0
11,1856.9232,3.1293,10,0,55,0,93.553471551666661,0
11,34.1298,1.3411,11,1,55,0,100.0,0
11,34.1298,2.6822,11,2,55,0,100.0,0
11,34.1298,3.1293,11,3,55,0,100.0,0
11,34.1298,4.0234,11,4,55,0,100.0,0
11,34.1298,4.0234,11,5,55,0,100.0,0
11,34.1298,3.5763,11,6,55,0,100.0,0
12,34.1298,3.5763,11,7,55,0,93.602371756764171,0
12,1856.9232,4.4704,12,8,55,211.44,100.0,17.525
13,1856.9232,6.2586,12,9,55,415.69,93.650724114619621,415.69
15,1856.9232,6.2586,12,10,55,579.59,82.261352957573052,467.75
16,34.1298,4.9174,12,11,55,693.19,77.155040268598128,541.44
