15,34.1298,4.4704,12,17,21,51.525,82.261352957573052,51.525
13,1856.9232,2.6822,11,18,21,0,87.659298938667845,0
12,1856.9232,1.3411,11,19,21,0,93.602371756764171,0
11,1856.9232,0,11,20,21,0,100.0,0
11,34.1298,0,10,21,21,0,93.553471551666661,0
10,34.1298,0,10,22,21,0,100.0,0
10,34.1298,1.3411,10,23,21,0,100.0,0
10,1856.9232,2.2352,10,0,22,0,100.0,0
10,34.1298,2.2352,9,1,22,0,93.504015298216231,0
9,34.1298,2.2352,9,2,22,0,100.0,0
9,34.1298,0,9,3,22,0,100.0,0
8,34.1298,2.2352,8,4,22,0,100.0,0
8,34.1298,0,8,5,22,0,100.0,0
8,34.1298,1.3411,8,6,22,0,100.0,0
8,34.1298,0,8,7,22,0,100.0,0
8,1856.9232,0,8,8,22,79.831,100.0,78.9
9,1856.9232,1.3411,8,9,22,266.61,93.453994643448382,266.61
10,1856.9232,0,8,10,22,408.65,87.383237448204156,13.98
11,34.1298,1.3411,9,11,22,506.08,87.47625235168276,33.037
11,34.1298,2.6822,10,12,22,560.48,93.553471551666661,348.23
12,34.1298,2.6822,10,13,22,565.78,87.568268233149638,352.28
12,34.1298,4.9174,10,14,22,523.68,87.568268233149638,523.68
12,34.1298,4.0234,10,15,22,405.96,87.568268233149638,390.36
12,34.1298,4.4704,10,16,22,247.52,87.568268233149638,247.52
12,34.1298,4.4704,9,17,22,54.96,81.879846925107273,54.96
11,1856.9232,4.9174,8,18,22,0,81.750052187031002,0
10,1856.9232,4.4704,8,19,22,0,87.383237448204156,0
9,1856.9232,5.8115,7,20,22,0,87.289209441366083,0
8,34.1298,4.9174,7,21,22,0,93.403401079212742,0
7,34.1298,3.5763,6,22,22,0,93.352225938756803,0
7,34.1298,3.5763,6,23,22,0,93.352225938756803,0
6,1856.9232,3.5763,5,0,23,0,93.300460393223361,0
6,34.1298,3.5763,5,1,23,0,93.300460393223361,0
5,34.1298,4.9174,5,2,23,0,100.0,0
5,34.1298,4.9174,4,3,23,0,93.248095448058876,0
4,34.1298,2.6822,3,4,23,0,93.195121939330733,0
4,34.1298,4.0234,3,5,23,0,93.195121939330733,0
4,34.1298,6.2586,3,6,23,0,93.195121939330733,0
5,34.1298,7.5997,3,7,23,0,86.902676258921971,0
4,1856.9232,7.1526,3,8,23,86.193,93.195121939330733,83.23
4,1856.9232,6.7056,3,9,23,278.37,93.195121939330733,268.04
3,1856.9232,6.2586,2,10,23,433.65,93.141530529950373,413.83
4,34.1298,4.4704,2,11,23,534.97,86.803362953546198,509.45
5,34.1298,6.2586,3,12,23,595.32,86.902676258921971,562.39
5,34.1298,5.8115,3,13,23,590.16,86.902676258921971,553.42
6,34.1298,5.8115,3,14,23,529.13,81.080597043606616,493.08
6,34.1298,7.5997,2,15,23,420.34,75.519709049236894,392.78
6,34.1298,4.9174,2,16,23,253.07,75.519709049236894,235.71
5,34.1298,4.0234,2,17,23,59.141,80.942482739047733,54.989
5,1856.9232,3.5763,2,18,23,0,80.942482739047733,0
5,1856.9232,4.9174,2,19,23,0,80.942482739047733,0
5,1856.9232,3.5763,2,20,23,0,80.942482739047733,0
4,34.1298,2.6822,2,21,23,0,86.803362953546198,0
3,34.1298,3.5763,2,22,23,0,93.141530529950373,0
3,34.1298,2.6822,2,23,23,0,93.141530529950373,0
2,1856.9232,3.1293,1,0,24,0,93.087311705799863,0
2,34.1298,4.0234,1,1,24,0,93.087311705799863,0
2,34.1298,2.6822,1,2,24,0,93.087311705799863,0
2,34.1298,3.5763,1,3,24,0,93.087311705799863,0
1,34.1298,2.6822,0,4,24,0,93.032455771758947,0
1,34.1298,2.6822,0,5,24,0,93.032455771758947,0
1,34.1298,2.2352,0,6,24,0,93.032455771758947,0
1,34.1298,3.1293,0,7,24,0,93.032455771758947,0
1,1856.9232,3.1293,0,8,24,85.867,93.032455771758947,73.072
1,1856.9232,2.2352,0,9,24,274.43,93.032455771758947,242.7
2,1856.9232,3.1293,0,10,24,427.15,86.60141209181765,386.96
3,34.1298,2.2352,1,11,24,533.19,86.702946851967639,476.92
4,34.1298,3.1293,1,12,24,588.01,80.80291704368436,524.97
5,34.1298,2.6822,1,13,24,585.18,75.347181209710627,522.53
6,34.1298,1.3411,1,14,24,518.89,70.299266961976286,464.27
7,34.1298,2.2352,2,15,24,411.1,70.499329419935393,366.33
7,34.1298,0,2,16,24,250.37,70.499329419935393,222.67
