1,34.1298,6.7056,-1,5,56,0,86.498742535900504,0
0,34.1298,4.9174,-2,6,56,0,86.394921766765563,0
0,34.1298,6.7056,-3,7,56,0,80.22975039312503,0
-2,1856.9232,9.8349,-4,8,56,230.42,86.18375948438603,171.53
-2,1856.9232,12.964,-5,9,56,451.8,79.933943298104751,391.59
-3,1856.9232,9.8349,-7,10,56,616.44,73.90342258501218,423
-2,34.1298,7.1526,-7,11,56,712.98,68.629648895336288,463.96
-2,34.1298,9.3878,-7,12,56,780.71,68.629648895336288,513.48
0,34.1298,7.1526,-8,13,56,764.1,54.886767826455419,508.07
0,34.1298,8.0467,-8,14,56,707.12,54.886767826455419,501.5
0,34.1298,6.2586,-8,15,56,581.1,54.886767826455419,442.98
0,34.1298,7.5997,-8,16,56,413.03,54.886767826455419,260.47
-1,34.1298,10.729,-9,17,56,214.27,54.610161358391132,137.15
-2,1856.9232,6.2586,-8,18,56,0,63.530085685625657,0
-2,1856.9232,7.1526,-8,19,56,0,63.530085685625657,0
-2,1856.9232,6.7056,-8,20,56,0,63.530085685625657,0
-2,34.1298,4.4704,-8,21,56,0,63.530085685625657,0
-3,34.1298,3.5763,-8,22,56,0,68.41198876664923,0
-3,34.1298,2.6822,-8,23,56,0,68.41198876664923,0
-4,1856.9232,2.6822,-8,0,57,0,73.714683677886498,0
-4,34.1298,2.2352,-8,1,57,0,73.714683677886498,0
-4,34.1298,2.2352,-8,2,57,0,73.714683677886498,0
-4,34.1298,0,-8,3,57,0,73.714683677886498,0
-4,34.1298,0,-8,4,57,0,73.714683677886498,0
-5,34.1298,0,-7,5,57,0,85.857954785728069,0
-5,34.1298,0,-7,6,57,0,85.857954785728069,0
-5,34.1298,0,-7,7,57,0.58309,85.857954785728069,0.58309
-4,1856.9232,2.6822,-8,8,57,220.05,73.714683677886498,220.05
-2,1856.9232,3.5763,-8,9,57,418.89,63.530085685625657,418.89
0,1856.9232,3.1293,-8,10,57,570.74,54.886767826455419,570.74
2,34.1298,4.4704,-8,11,57,701.48,47.532715989267842,701.48
3,34.1298,4.9174,-8,12,57,764.24,44.272699174858509,764.24
5,34.1298,6.2586,-7,13,57,773.52,41.562483250282511,773.52
6,34.1298,6.7056,-7,14,57,706.03,38.777988223369931,706.03
6,34.1298,8.0467,-5,15,57,593.54,45.165282960846739,593.54
6,34.1298,8.9408,-5,16,57,427.25,45.165282960846739,427.25
6,34.1298,6.7056,-4,17,57,214.82,48.696632783711877,214.82
5,1856.9232,4.4704,-4,18,57,0,52.193346719271737,0
4,1856.9232,3.1293,-4,19,57,0,55.972560585266336,0
3,1856.9232,2.6822,-3,20,57,0,64.714825534265714,0
2,34.1298,2.6822,-3,21,57,0,69.480096758186903,0
2,34.1298,3.1293,-3,22,57,0,69.480096758186903,0
1,34.1298,0,-3,23,57,0,74.639707050276655,0
1,1856.9232,0,-2,0,58,0,80.375317381711923,0
1,34.1298,0,-2,1,58,0,80.375317381711923,0
1,34.1298,0,-2,2,58,0,80.375317381711923,0
1,34.1298,1.3411,-2,3,58,0,80.375317381711923,0
0,34.1298,0,-2,4,58,0,86.394921766765563,0
0,34.1298,0,-2,5,58,0,86.394921766765563,0
0,34.1298,1.3411,-1,6,58,0,92.97695284762996,0
0,34.1298,0,-1,7,58,5.8739,92.97695284762996,4.2413
1,1856.9232,0,0,8,58,218.41,93.032455771758947,152.93
2,1856.9232,0,0,9,58,405.46,86.60141209181765,264.81
3,1856.9232,2.2352,1,10,58,567.16,86.702946851967639,367.24
6,34.1298,3.1293,1,11,58,687.32,70.299266961976286,385.72
8,34.1298,3.5763,2,12,58,766.22,65.848771416257676,766.22
10,34.1298,2.6822,2,13,58,764.87,57.540788283393631,764.87
11,34.1298,3.5763,2,14,58,702.02,53.831404997309406,414.28
11,34.1298,1.3411,3,15,58,568.67,57.795276383180649,337.45
10,34.1298,4.0234,3,16,58,414.07,61.77779982356094,191.32
10,34.1298,4.0234,3,17,58,212.27,61.77779982356094,110.94
10,1856.9232,3.5763,3,18,58,0,61.77779982356094,0
8,1856.9232,3.5763,3,19,58,0,70.697540658389229,0
7,1856.9232,2.6822,3,20,58,0,75.690542144640617,0
6,34.1298,3.1293,4,21,58,0,87.000902360951287,0
5,34.1298,4.0234,4,22,58,0,93.248095448058876,0
5,34.1298,4.0234,4,23,58,0,93.248095448058876,0
5,1856.9232,2.2352,5,0,59,0,100.0,0
5,34.1298,6.2586,5,1,59,0,100.0,0
5,34.1298,3.5763,5,2,59,0,100.0,0
5,34.1298,3.5763,5,3,59,0,100.0,0
5,34.1298,4.4704,5,4,59,0,100.0,0
