10,34.1298,4.4704,6,1,65,0,76.193074639467341,0
10,34.1298,4.0234,6,2,65,0,76.193074639467341,0
10,34.1298,4.0234,6,3,65,0,76.193074639467341,0
9,34.1298,4.4704,6,4,65,0,81.486420017858691,0
9,34.1298,4.4704,6,5,65,0,81.486420017858691,0
9,34.1298,4.9174,6,6,65,0,81.486420017858691,0
10,34.1298,4.0234,6,7,65,46.57,76.193074639467341,6.3088
10,1856.9232,5.8115,7,8,65,272.86,81.618915749746961,214.51
11,1856.9232,4.4704,8,9,65,464.38,81.750052187031002,370.82
12,1856.9232,4.4704,8,10,65,624.63,76.519987759453471,577.45
13,34.1298,4.0234,9,11,65,731.85,76.681069549305064,685.16
13,34.1298,4.9174,10,12,65,799.48,82.008317294977047,736.7
15,34.1298,4.0234,10,13,65,793.94,72.034842210105538,737.24
15,34.1298,4.0234,10,14,65,728.58,72.034842210105538,672.92
15,34.1298,4.9174,10,15,65,616.02,72.034842210105538,554.3
15,34.1298,6.2586,10,16,65,452.92,72.034842210105538,407.23
15,34.1298,6.2586,11,17,65,248.91,76.998577407491453,231.56
16,1856.9232,7.1526,11,18,65,20.78,72.218947621294333,19.363
16,1856.9232,7.1526,11,19,65,0,72.218947621294333,0
16,1856.9232,7.5997,11,20,65,0,72.218947621294333,0
16,34.1298,9.8349,11,21,65,0,72.218947621294333,0
16,34.1298,9.3878,11,22,65,0,72.218947621294333,0
16,34.1298,10.729,11,23,65,0,72.218947621294333,0
16,1856.9232,8.0467,11,0,66,0,72.218947621294333,0
16,34.1298,5.8115,11,1,66,0,72.218947621294333,0
15,34.1298,9.8349,10,2,66,0,72.034842210105538,0
13,34.1298,8.9408,9,3,66,0,76.681069549305064,0
11,34.1298,16.988,8,4,66,0,81.750052187031002,0
11,34.1298,4.0234,8,5,66,0,81.750052187031002,0
10,34.1298,5.8115,8,6,66,0,87.383237448204156,0
10,34.1298,3.5763,6,7,66,53.441,76.193074639467341,12.895
9,1856.9232,4.4704,5,8,66,280.27,76.027205034617879,22.465
9,1856.9232,5.8115,5,9,66,486.53,76.027205034617879,342.01
9,1856.9232,8.0467,3,10,66,658.77,66.069675859940816,339.13
10,34.1298,7.1526,2,11,66,783.38,57.540788283393631,553.81
11,34.1298,6.7056,2,12,66,846.01,53.831404997309406,595.15
12,34.1298,7.5997,1,13,66,841.67,46.904342960709904,465.32
13,34.1298,7.5997,0,14,66,770.51,40.865675451892798,502.66
13,34.1298,7.1526,-1,15,66,650.25,37.995659795771857,406.95
13,34.1298,8.0467,-2,16,66,480.97,35.305868336123105,270.41
12,34.1298,7.5997,-2,17,66,263.91,37.699514520477237,263.91
11,1856.9232,7.1526,-2,18,66,25.654,40.276238532121262,25.654
10,1856.9232,5.8115,-2,19,66,0,43.051570256137374,0
8,1856.9232,3.1293,-2,20,66,0,49.267538618783618,0
7,34.1298,2.6822,-1,21,66,0,56.765604683887005,0
7,34.1298,0,-1,22,66,0,56.765604683887005,0
6,34.1298,0,-2,23,66,0,56.50325893770539,0
6,1856.9232,2.2352,-2,0,67,0,56.50325893770539,0
5,34.1298,1.3411,-2,1,67,0,60.56053603547852,0
5,34.1298,4.0234,-2,2,67,0,60.56053603547852,0
4,34.1298,4.4704,-2,3,67,0,64.945601027542693,0
3,34.1298,5.8115,-2,4,67,0,69.687768711565994,0
2,34.1298,3.5763,-3,5,67,0,69.480096758186903,0
1,34.1298,3.1293,-4,6,67,0,69.270470217066517,0
1,34.1298,3.1293,-4,7,67,58.2,69.270470217066517,58.2
1,1856.9232,2.6822,-4,8,67,278.08,69.270470217066517,278.08
3,1856.9232,5.8115,-3,9,67,484.26,64.714825534265714,484.26
5,1856.9232,6.7056,-2,10,67,654.47,60.56053603547852,654.47
6,34.1298,11.176,-3,11,67,797.84,52.471166918911017,797.84
8,34.1298,10.282,-4,12,67,855.22,42.46061698708948,855.22
9,34.1298,11.623,-4,13,67,860.77,39.681142724689735,860.77
10,34.1298,12.517,-4,14,67,794.74,37.103461763800908,794.74
10,34.1298,14.305,-4,15,67,677.97,37.103461763800908,677.97
10,34.1298,12.517,-4,16,67,488.65,37.103461763800908,488.65
8,34.1298,13.411,-4,17,67,272.15,42.46061698708948,272.15
7,1856.9232,8.9408,-4,18,67,29.712,45.459390660817419,29.712
6,1856.9232,4.9174,-4,19,67,0,48.696632783711877,0
5,1856.9232,2.2352,-3,20,67,0,56.238915325569103,0
4,34.1298,2.2352,-3,21,67,0,60.311060569484063,0
3,34.1298,2.2352,-2,22,67,0,69.687768711565994,0
2,34.1298,2.2352,-2,23,67,0,74.819222225640118,0
2,1856.9232,0,-3,0,68,0,69.480096758186903,0
