1,1856.9232,6.2586,-1,8,26,92.281,86.498742535900504,85.19
1,1856.9232,6.2586,-2,9,26,286.14,80.375317381711923,269.88
1,1856.9232,7.1526,-2,10,26,447.13,80.375317381711923,369.33
1,34.1298,8.0467,-2,11,26,564.77,80.375317381711923,485.87
1,34.1298,7.5997,-3,12,26,619.78,74.639707050276655,544.6
1,34.1298,5.8115,-3,13,26,610.31,74.639707050276655,531.37
1,34.1298,7.5997,-3,14,26,551.45,74.639707050276655,435
1,34.1298,8.0467,-3,15,26,434.77,74.639707050276655,362.49
1,34.1298,6.7056,-3,16,26,269.82,74.639707050276655,185.84
1,34.1298,5.8115,-3,17,26,72.035,74.639707050276655,47.381
0,1856.9232,4.9174,-3,18,26,0,80.22975039312503,0
0,1856.9232,5.8115,-2,19,26,0,86.394921766765563,0
0,1856.9232,4.9174,-2,20,26,0,86.394921766765563,0
-1,34.1298,6.2586,-3,21,26,0,86.28993308116371,0
-1,34.1298,5.8115,-3,22,26,0,86.28993308116371,0
-1,34.1298,4.9174,-3,23,26,0,86.28993308116371,0
-2,1856.9232,6.2586,-3,0,27,0,92.863965557739348,0
-2,34.1298,5.8115,-3,1,27,0,92.863965557739348,0
-2,34.1298,3.5763,-4,2,27,0,86.18375948438603,0
-2,34.1298,6.2586,-4,3,27,0,86.18375948438603,0
-2,34.1298,4.0234,-4,4,27,0,86.18375948438603,0
-3,34.1298,5.8115,-5,5,27,0,86.076383684481797,0
-3,34.1298,4.0234,-5,6,27,0,86.076383684481797,0
-3,34.1298,3.5763,-5,7,27,0,86.076383684481797,0
-3,1856.9232,2.6822,-5,8,27,92.677,86.076383684481797,71.922
-3,1856.9232,4.0234,-5,9,27,280.71,86.076383684481797,251.06
-2,1856.9232,5.8115,-5,10,27,443.09,79.933943298104751,381.8
-2,34.1298,4.9174,-5,11,27,554.8,79.933943298104751,457.93
-2,34.1298,6.7056,-5,12,27,619.09,79.933943298104751,510.13
-2,34.1298,4.4704,-5,13,27,606.1,79.933943298104751,498.76
-2,34.1298,4.9174,-6,14,27,543.71,74.090271718389829,448.71
-2,34.1298,4.9174,-6,15,27,429.74,74.090271718389829,388.13
-2,34.1298,6.2586,-7,16,27,272.47,68.629648895336288,243.88
-2,34.1298,6.2586,-7,17,27,76.7,68.629648895336288,69.161
-3,1856.9232,7.1526,-7,18,27,0,73.90342258501218,0
-3,1856.9232,8.0467,-7,19,27,0,73.90342258501218,0
-3,1856.9232,4.4704,-7,20,27,0,73.90342258501218,0
-3,34.1298,6.7056,-7,21,27,0,73.90342258501218,0
-3,34.1298,6.2586,-7,22,27,0,73.90342258501218,0
-4,34.1298,4.9174,-7,23,27,0,79.631765086518371,0
-4,1856.9232,3.5763,-7,0,28,0,79.631765086518371,0
-4,34.1298,4.4704,-7,1,28,0,79.631765086518371,0
-4,34.1298,3.5763,-7,2,28,0,79.631765086518371,0
-5,34.1298,2.6822,-7,3,28,0,85.857954785728069,0
-5,34.1298,3.5763,-7,4,28,0,85.857954785728069,0
-5,34.1298,3.1293,-7,5,28,0,85.857954785728069,0
-5,34.1298,2.6822,-7,6,28,0,85.857954785728069,0
-5,34.1298,8.9408,-7,7,28,0,85.857954785728069,0
-4,1856.9232,4.4704,-7,8,28,96.499,79.631765086518371,88.655
-4,1856.9232,4.9174,-7,9,28,288.23,79.631765086518371,263.42
-3,1856.9232,4.4704,-7,10,28,442.73,73.90342258501218,399.39
-2,34.1298,6.7056,-7,11,28,557.35,68.629648895336288,493.37
-2,34.1298,4.4704,-6,12,28,606.87,74.090271718389829,526.54
-1,34.1298,5.8115,-6,13,28,607.74,68.845267915788227,523.31
-1,34.1298,4.9174,-6,14,28,546.53,68.845267915788227,475.82
-1,34.1298,6.2586,-5,15,28,436.72,74.275253880025062,376.17
-1,34.1298,4.4704,-5,16,28,273,74.275253880025062,234.34
-1,34.1298,4.4704,-5,17,28,79.563,74.275253880025062,70.756
-1,1856.9232,4.9174,-5,18,28,0,74.275253880025062,0
-1,1856.9232,6.2586,-5,19,28,0,74.275253880025062,0
-2,1856.9232,4.4704,-5,20,28,0,79.933943298104751,0
-2,34.1298,4.0234,-6,21,28,0,74.090271718389829,0
-3,34.1298,4.0234,-6,22,28,0,79.783661265599576,0
-3,34.1298,3.5763,-6,23,28,0,79.783661265599576,0
-4,1856.9232,3.5763,-6,0,29,0,85.967788086353806,0
-4,34.1298,3.5763,-6,1,29,0,85.967788086353806,0
-4,34.1298,3.5763,-7,2,29,0,79.631765086518371,0
-4,34.1298,2.6822,-7,3,29,0,79.631765086518371,0
-4,34.1298,4.0234,-7,4,29,0,79.631765086518371,0
-5,34.1298,3.1293,-7,5,29,0,85.857954785728069,0
-5,34.1298,3.5763,-7,6,29,0,85.857954785728069,0
-5,34.1298,3.5763,-7,7,29,0,85.857954785728069,0
