6,34.1298,2.6822,-6,14,47,633.03,41.863418076691318,633.03
7,34.1298,4.4704,-5,15,47,528.84,42.16279699548847,528.84
7,34.1298,3.1293,-5,16,47,363.54,42.16279699548847,363.54
6,34.1298,5.8115,-4,17,47,167.5,48.696632783711877,167.5
5,1856.9232,4.0234,-4,18,47,0,52.193346719271737,0
4,1856.9232,1.3411,-3,19,47,0,60.311060569484063,0
3,1856.9232,1.3411,-3,20,47,0,64.714825534265714,0
2,34.1298,1.3411,-3,21,47,0,69.480096758186903,0
2,34.1298,3.1293,-2,22,47,0,74.819222225640118,0
2,34.1298,2.6822,-2,23,47,0,74.819222225640118,0
2,1856.9232,2.2352,-2,0,48,0,74.819222225640118,0
2,34.1298,2.6822,-2,1,48,0,74.819222225640118,0
2,34.1298,2.6822,-1,2,48,0,80.519354085990997,0
1,34.1298,2.2352,-1,3,48,0,86.498742535900504,0
1,34.1298,2.6822,-1,4,48,0,86.498742535900504,0
1,34.1298,3.5763,-1,5,48,0,86.498742535900504,0
1,34.1298,3.1293,-1,6,48,0,86.498742535900504,0
1,34.1298,3.1293,0,7,48,0,93.032455771758947,0
2,1856.9232,3.5763,1,8,48,174.93,93.087311705799863,174.93
4,1856.9232,2.6822,1,9,48,368.79,80.80291704368436,368.79
6,1856.9232,4.0234,2,10,48,531.14,75.519709049236894,531.14
8,34.1298,4.4704,3,11,48,646.08,70.697540658389229,646.08
11,34.1298,3.5763,3,12,48,698.48,57.795276383180649,698.48
13,34.1298,4.0234,5,13,48,701.66,58.298473968988098,701.66
15,34.1298,4.9174,5,14,48,641.38,51.20848118783703,641.38
16,34.1298,4.4704,6,15,48,528.84,51.478580450392407,528.84
16,34.1298,6.2586,6,16,48,369.53,51.478580450392407,369.53
15,34.1298,6.2586,6,17,48,170.97,54.885561091568235,170.97
13,1856.9232,3.5763,5,18,48,0,58.298473968988098,0
12,1856.9232,2.6822,5,19,48,0,62.250959103782563,0
11,1856.9232,3.1293,5,20,48,0,66.505749732013612,0
10,34.1298,2.6822,5,21,48,0,71.088489426375332,0
9,34.1298,3.1293,5,22,48,0,76.027205034617879,0
8,34.1298,2.6822,5,23,48,0,81.35254712725947,0
8,1856.9232,1.3411,5,0,49,0,81.35254712725947,0
7,34.1298,2.6822,5,1,49,0,87.098056588182175,0
7,34.1298,2.6822,5,2,49,0,87.098056588182175,0
6,34.1298,2.2352,5,3,49,0,93.300460393223361,0
6,34.1298,2.2352,4,4,49,0,87.000902360951287,0
5,34.1298,2.2352,4,5,49,0,93.248095448058876,0
5,34.1298,2.6822,4,6,49,0,93.248095448058876,0
5,34.1298,2.2352,4,7,49,0,93.248095448058876,0
6,1856.9232,2.2352,5,8,49,177.94,93.300460393223361,177.94
7,1856.9232,1.3411,5,9,49,372.11,87.098056588182175,372.11
8,1856.9232,4.0234,6,10,49,534.91,87.194154009949884,534.91
10,34.1298,4.4704,6,11,49,651.44,76.193074639467341,651.44
12,34.1298,4.4704,7,12,49,709.74,71.472271072726826,709.74
14,34.1298,4.4704,8,13,49,713.41,67.145798064498393,713.41
15,34.1298,6.2586,8,14,49,657.9,62.946377213895722,657.9
16,34.1298,4.0234,8,15,49,532.01,59.0390273693327,532.01
16,34.1298,4.9174,8,16,49,373.68,59.0390273693327,373.68
15,34.1298,4.9174,8,17,49,174.15,62.946377213895722,174.15
13,1856.9232,3.5763,8,18,49,0,71.661522629146475,0
12,1856.9232,1.3411,8,19,49,0,76.519987759453471,0
11,1856.9232,1.3411,8,20,49,0,81.750052187031002,0
10,34.1298,2.6822,8,21,49,0,87.383237448204156,0
10,34.1298,2.6822,7,22,49,0,81.618915749746961,0
8,34.1298,3.1293,7,23,49,0,93.403401079212742,0
8,1856.9232,4.0234,6,0,50,0,87.194154009949884,0
7,34.1298,4.0234,6,1,50,0,93.352225938756803,0
7,34.1298,4.0234,6,2,50,0,93.352225938756803,0
6,34.1298,3.1293,5,3,50,0,93.300460393223361,0
6,34.1298,3.1293,5,4,50,0,93.300460393223361,0
5,34.1298,2.6822,5,5,50,0,100.0,0
4,34.1298,2.2352,4,6,50,0,100.0,0
4,34.1298,1.3411,3,7,50,0,93.195121939330733,0
5,1856.9232,1.3411,3,8,50,182.27,86.902676258921971,175.82
7,1856.9232,0,4,9,50,375.15,81.21727894075245,360.69
8,1856.9232,2.2352,5,10,50,540.6,81.35254712725947,515.03
11,34.1298,2.2352,6,11,50,651.25,71.281266407174215,610.1
13,34.1298,1.3411,6,12,50,700.64,62.484658407133068,639.97
15,34.1298,2.6822,7,13,50,703.3,58.794057173929204,703.3
