2,34.1298,6.7056,-7,17,61,233.86,51.348169519678208,38.871
2,1856.9232,7.1526,-7,18,61,3.6351,51.348169519678208,3.6351
1,1856.9232,4.0234,-7,19,61,0,55.161298117581083,0
0,1856.9232,4.0234,-7,20,61,0,59.292531471931667,0
-1,34.1298,3.5763,-7,21,61,0,63.77121389329664,0
-2,34.1298,2.2352,-7,22,61,0,68.629648895336288,0
-2,34.1298,1.3411,-7,23,61,0,68.629648895336288,0
-3,1856.9232,2.2352,-7,0,62,0,73.90342258501218,0
-3,34.1298,2.2352,-8,1,62,0,68.41198876664923,0
-4,34.1298,4.0234,-8,2,62,0,73.714683677886498,0
-4,34.1298,4.4704,-8,3,62,0,73.714683677886498,0
-5,34.1298,5.8115,-8,4,62,0,79.478232981322179,0
-5,34.1298,4.0234,-9,5,62,0,73.524031902471236,0
-7,34.1298,4.4704,-10,6,62,0,79.166172189459587,0
-7,34.1298,4.4704,-10,7,62,29.197,79.166172189459587,29.197
-6,1856.9232,4.4704,-10,8,62,255.9,73.331443868922875,255.9
-5,1856.9232,5.8115,-11,9,62,460.63,62.793843004383746,460.63
-4,1856.9232,4.4704,-11,10,62,628.89,58.240201126197832,628.89
-3,34.1298,6.2586,-12,11,62,750.84,49.899953609108429,750.84
-2,34.1298,2.6822,-12,12,62,785.52,46.339075732890365,785.52
0,34.1298,3.5763,-12,13,62,774.92,40.034608226872876,414.33
0,34.1298,4.9174,-12,14,62,718.8,40.034608226872876,718.8
1,34.1298,4.4704,-12,15,62,602.62,37.24517919206248,602.62
1,34.1298,3.5763,-12,16,62,433.5,37.24517919206248,433.5
0,34.1298,4.4704,-11,17,62,233.93,43.364717012800988,233.93
-1,1856.9232,3.1293,-10,18,62,7.7255,50.485228998075804,7.7255
-2,1856.9232,0,-10,19,62,0,54.331466017503473,0
-3,1856.9232,0,-10,20,62,0,58.506510777554723,0
-3,34.1298,0,-10,21,62,0,58.506510777554723,0
-4,34.1298,0,-9,22,62,0,68.192265367640786,0
-4,34.1298,0,-9,23,62,0,68.192265367640786,0
-4,1856.9232,1.3411,-9,0,63,0,68.192265367640786,0
-4,34.1298,0,-8,1,63,0,73.714683677886498,0
-4,34.1298,1.3411,-8,2,63,0,73.714683677886498,0
-4,34.1298,2.6822,-7,3,63,0,79.631765086518371,0
-4,34.1298,4.4704,-7,4,63,0,79.631765086518371,0
-4,34.1298,2.6822,-7,5,63,0,79.631765086518371,0
-4,34.1298,2.6822,-6,6,63,0,85.967788086353806,0
-3,34.1298,4.9174,-6,7,63,34.308,79.783661265599576,9.6651
-2,1856.9232,4.9174,-6,8,63,255.74,74.090271718389829,43.76
0,1856.9232,3.5763,-5,9,63,451.18,69.058867777488345,185.88
1,1856.9232,4.4704,-5,10,63,620.26,64.247160621569336,620.26
3,34.1298,7.1526,-4,11,63,751.05,60.059538976411261,751.05
5,34.1298,7.1526,-3,12,63,815.02,56.238915325569103,815.02
6,34.1298,7.1526,-3,13,63,814.85,52.471166918911017,814.85
7,34.1298,6.2586,-2,14,63,741.23,52.74704994628754,741.23
8,34.1298,6.2586,-1,15,63,618.16,53.021005417931356,618.16
9,34.1298,6.7056,0,16,63,444.08,53.293043109703412,444.08
8,34.1298,8.0467,0,17,63,238.3,57.025965891592342,238.3
7,1856.9232,7.5997,1,18,63,12.055,65.625930527633926,12.055
6,1856.9232,7.1526,1,19,63,0,70.299266961976286,0
5,1856.9232,6.7056,1,20,63,0,75.347181209710627,0
4,34.1298,6.7056,1,21,63,0,80.80291704368436,0
4,34.1298,6.2586,1,22,63,0,80.80291704368436,0
3,34.1298,6.7056,1,23,63,0,86.702946851967639,0
3,1856.9232,4.9174,1,0,64,0,86.702946851967639,0
3,34.1298,5.8115,1,1,64,0,86.702946851967639,0
3,34.1298,4.4704,1,2,64,0,86.702946851967639,0
3,34.1298,4.0234,1,3,64,0,86.702946851967639,0
3,34.1298,4.0234,1,4,64,0,86.702946851967639,0
3,34.1298,3.5763,1,5,64,0,86.702946851967639,0
3,34.1298,3.1293,1,6,64,0,86.702946851967639,0
3,34.1298,3.5763,1,7,64,40.744,86.702946851967639,40.744
4,1856.9232,3.1293,1,8,64,263.31,80.80291704368436,263.31
5,1856.9232,2.6822,2,9,64,456.75,80.942482739047733,456.75
6,1856.9232,3.5763,3,10,64,617.88,81.080597043606616,617.88
8,34.1298,4.4704,3,11,64,731.55,70.697540658389229,16.225
10,34.1298,4.0234,3,12,64,785.99,61.77779982356094,32.667
11,34.1298,4.0234,4,13,64,785.68,62.015344988555213,32.506
12,34.1298,8.0467,5,14,64,753.1,62.250959103782563,33.803
13,34.1298,6.7056,5,15,64,627.06,58.298473968988098,94.149
13,34.1298,7.1526,5,16,64,454.49,58.298473968988098,71.864
