16,34.1298,9.8349,12,2,66,0,77.155040268598128,0
15,34.1298,8.9408,12,3,66,0,82.261352957573052,0
15,34.1298,16.988,12,4,66,0,82.261352957573052,0
14,34.1298,4.0234,11,5,66,0,82.135480367498232,0
13,34.1298,5.8115,11,6,66,0,87.659298938667845,0
11,34.1298,3.5763,9,7,66,53.441,87.47625235168276,12.895
9,1856.9232,4.4704,7,8,66,280.27,87.289209441366083,22.465
8,1856.9232,5.8115,5,9,66,486.53,81.35254712725947,342.01
8,1856.9232,8.0467,4,10,66,658.77,75.859700794653989,339.13
8,34.1298,7.1526,2,11,66,783.38,65.848771416257676,553.81
10,34.1298,6.7056,1,12,66,846.01,53.563172947337002,595.15
11,34.1298,7.5997,0,13,66,841.67,46.618756876535237,465.32
12,34.1298,7.5997,-1,14,66,770.51,40.571666855740233,502.66
12,34.1298,7.1526,-2,15,66,650.25,37.699514520477237,406.95
12,34.1298,8.0467,-2,16,66,480.97,37.699514520477237,270.41
11,34.1298,7.5997,-2,17,66,263.91,40.276238532121262,263.91
10,1856.9232,7.1526,-1,18,66,25.654,46.331471061776149,25.654
8,1856.9232,5.8115,-1,19,66,0,53.021005417931356,0
7,1856.9232,3.1293,-1,20,66,0,56.765604683887005,0
6,34.1298,2.6822,-1,21,66,0,60.807981934065246,0
5,34.1298,0,-2,22,66,0,60.56053603547852,0
5,34.1298,0,-2,23,66,0,60.56053603547852,0
5,1856.9232,2.2352,-2,0,67,0,60.56053603547852,0
5,34.1298,1.3411,-2,1,67,0,60.56053603547852,0
4,34.1298,4.0234,-2,2,67,0,64.945601027542693,0
3,34.1298,4.4704,-3,3,67,0,64.714825534265714,0
2,34.1298,5.8115,-3,4,67,0,69.480096758186903,0
1,34.1298,3.5763,-3,5,67,0,74.639707050276655,0
1,34.1298,3.1293,-3,6,67,0,74.639707050276655,0
1,34.1298,3.1293,-3,7,67,58.2,74.639707050276655,58.2
2,1856.9232,2.6822,-3,8,67,278.08,69.480096758186903,278.08
3,1856.9232,5.8115,-3,9,67,484.26,64.714825534265714,484.26
5,1856.9232,6.7056,-3,10,67,654.47,56.238915325569103,654.47
7,34.1298,11.176,-4,11,67,797.84,45.459390660817419,797.84
9,34.1298,10.282,-4,12,67,855.22,39.681142724689735,855.22
10,34.1298,11.623,-5,13,67,860.77,34.412817757484575,860.77
11,34.1298,12.517,-4,14,67,794.74,34.711576545880995,794.74
12,34.1298,14.305,-4,15,67,677.97,32.490858921109286,677.97
12,34.1298,12.517,-3,16,67,488.65,35.009264179730927,488.65
11,34.1298,13.411,-3,17,67,272.15,37.402112278422031,272.15
10,1856.9232,8.9408,-3,18,67,29.712,39.979395374725371,29.712
8,1856.9232,4.9174,-3,19,67,0,45.751790094093153,0
7,1856.9232,2.2352,-3,20,67,0,48.983002294844027,0
7,34.1298,2.2352,-2,21,67,0,52.74704994628754,0
6,34.1298,2.2352,-1,22,67,0,60.807981934065246,0
5,34.1298,2.2352,-2,23,67,0,60.56053603547852,0
4,1856.9232,0,-2,0,68,0,64.945601027542693,0
3,34.1298,1.3411,-3,1,68,0,64.714825534265714,0
3,34.1298,0,-3,2,68,0,64.714825534265714,0
2,34.1298,0,-3,3,68,0,69.480096758186903,0
1,34.1298,0,-3,4,68,0,74.639707050276655,0
1,34.1298,0,-4,5,68,0,69.270470217066517,0
0,34.1298,2.2352,-4,6,68,0,74.458391582192704,0
0,34.1298,2.6822,-4,7,68,64.896,74.458391582192704,64.896
1,1856.9232,3.1293,-4,8,68,291.8,69.270470217066517,291.8
2,1856.9232,5.8115,-4,9,68,500.1,64.482018531033972,500.1
3,1856.9232,4.4704,-3,10,68,660.49,64.714825534265714,660.49
5,34.1298,3.1293,-3,11,68,763.7,56.238915325569103,763.7
7,34.1298,3.5763,-3,12,68,817.61,48.983002294844027,817.61
8,34.1298,4.0234,-2,13,68,821.07,49.267538618783618,821.07
9,34.1298,2.6822,-2,14,68,747.46,46.042482901756905,0
10,34.1298,4.9174,-2,15,68,636.54,43.051570256137374,636.54
10,34.1298,3.1293,-1,16,68,456.05,46.331471061776149,456.05
10,34.1298,4.0234,-1,17,68,259.41,46.331471061776149,0
8,1856.9232,4.4704,0,18,68,33.091,57.025965891592342,1.2066
7,1856.9232,6.2586,0,19,68,0,61.053414792926283,0
6,1856.9232,6.2586,0,20,68,0,65.401134444271349,0
5,34.1298,6.7056,0,21,68,0,70.097333034191095,0
4,34.1298,5.8115,0,22,68,0,75.172938060956724,0
3,34.1298,4.4704,0,23,68,0,80.661880682868471,0
3,1856.9232,6.7056,-1,0,69,0,74.996958768522148,0
2,34.1298,4.4704,-1,1,69,0,80.519354085990997,0
