2,34.1298,6.2586,-8,17,46,162.18,47.532715989267842,162.18
0,1856.9232,4.9174,-8,18,46,0,54.886767826455419,0
-1,1856.9232,4.0234,-7,19,46,0,63.77121389329664,0
-2,1856.9232,4.0234,-7,20,46,0,68.629648895336288,0
-2,34.1298,2.6822,-7,21,46,0,68.629648895336288,0
-2,34.1298,0,-7,22,46,0,68.629648895336288,0
-3,34.1298,0,-7,23,46,0,73.90342258501218,0
-3,1856.9232,2.2352,-7,0,47,0,73.90342258501218,0
-4,34.1298,2.2352,-7,1,47,0,79.631765086518371,0
-4,34.1298,2.2352,-7,2,47,0,79.631765086518371,0
-4,34.1298,1.3411,-6,3,47,0,85.967788086353806,0
-4,34.1298,3.1293,-6,4,47,0,85.967788086353806,0
-4,34.1298,1.3411,-6,5,47,0,85.967788086353806,0
-4,34.1298,0,-7,6,47,0,79.631765086518371,0
-4,34.1298,2.2352,-7,7,47,0,79.631765086518371,0
-4,1856.9232,0,-6,8,47,168.49,85.967788086353806,70.504
-3,1856.9232,0,-6,9,47,364.9,79.783661265599576,130.77
-1,1856.9232,0,-5,10,47,522.72,74.275253880025062,183.35
1,34.1298,2.2352,-5,11,47,637.9,64.247160621569336,220.73
3,34.1298,2.6822,-5,12,47,690.92,55.70418152761755,202.61
5,34.1298,3.1293,-5,13,47,692.19,48.408424535627695,692.19
6,34.1298,2.6822,-5,14,47,633.03,45.165282960846739,633.03
7,34.1298,4.4704,-4,15,47,528.84,45.459390660817419,528.84
7,34.1298,3.1293,-4,16,47,363.54,45.459390660817419,363.54
7,34.1298,5.8115,-3,17,47,167.5,48.983002294844027,167.5
6,1856.9232,4.0234,-2,18,47,0,56.50325893770539,0
5,1856.9232,1.3411,-2,19,47,0,60.56053603547852,0
4,1856.9232,1.3411,-2,20,47,0,64.945601027542693,0
3,34.1298,1.3411,-2,21,47,0,69.687768711565994,0
2,34.1298,3.1293,-1,22,47,0,80.519354085990997,0
2,34.1298,2.6822,-1,23,47,0,80.519354085990997,0
2,1856.9232,2.2352,-1,0,48,0,80.519354085990997,0
1,34.1298,2.6822,-2,1,48,0,80.375317381711923,0
1,34.1298,2.6822,-2,2,48,0,80.375317381711923,0
1,34.1298,2.2352,-1,3,48,0,86.498742535900504,0
1,34.1298,2.6822,0,4,48,0,93.032455771758947,0
1,34.1298,3.5763,0,5,48,0,93.032455771758947,0
1,34.1298,3.1293,0,6,48,0,93.032455771758947,0
1,34.1298,3.1293,0,7,48,0,93.032455771758947,0
2,1856.9232,3.5763,0,8,48,174.93,86.60141209181765,174.93
3,1856.9232,2.6822,1,9,48,368.79,86.702946851967639,368.79
5,1856.9232,4.0234,1,10,48,531.14,75.347181209710627,531.14
7,34.1298,4.4704,2,11,48,646.08,70.499329419935393,646.08
10,34.1298,3.5763,3,12,48,698.48,61.77779982356094,698.48
12,34.1298,4.0234,4,13,48,701.66,58.047833762427267,701.66
14,34.1298,4.9174,5,14,48,641.38,54.624817014395546,641.38
15,34.1298,4.4704,5,15,48,528.84,51.20848118783703,528.84
15,34.1298,6.2586,6,16,48,369.53,54.885561091568235,369.53
13,34.1298,6.2586,6,17,48,170.97,62.484658407133068,170.97
12,1856.9232,3.5763,6,18,48,0,66.720955975372661,0
11,1856.9232,2.6822,5,19,48,0,66.505749732013612,0
10,1856.9232,3.1293,5,20,48,0,71.088489426375332,0
9,34.1298,2.6822,5,21,48,0,76.027205034617879,0
8,34.1298,3.1293,5,22,48,0,81.35254712725947,0
8,34.1298,2.6822,5,23,48,0,81.35254712725947,0
8,1856.9232,1.3411,5,0,49,0,81.35254712725947,0
7,34.1298,2.6822,5,1,49,0,87.098056588182175,0
7,34.1298,2.6822,4,2,49,0,81.21727894075245,0
6,34.1298,2.2352,4,3,49,0,87.000902360951287,0
6,34.1298,2.2352,3,4,49,0,81.080597043606616,0
5,34.1298,2.2352,3,5,49,0,86.902676258921971,0
5,34.1298,2.6822,3,6,49,0,86.902676258921971,0
5,34.1298,2.2352,3,7,49,0,86.902676258921971,0
6,1856.9232,2.2352,4,8,49,177.94,87.000902360951287,177.94
7,1856.9232,1.3411,5,9,49,372.11,87.098056588182175,372.11
8,1856.9232,4.0234,5,10,49,534.91,81.35254712725947,534.91
11,34.1298,4.4704,6,11,49,651.44,71.281266407174215,651.44
12,34.1298,4.4704,7,12,49,709.74,71.472271072726826,709.74
14,34.1298,4.4704,7,13,49,713.41,62.716459074021699,713.41
16,34.1298,6.2586,7,14,49,657.9,55.144459527043999,657.9
17,34.1298,4.0234,7,15,49,532.01,51.746906785263072,532.01
17,34.1298,4.9174,7,16,49,373.68,51.746906785263072,373.68
