17,34.1298,2.6822,11,14,52,652.51,67.769403902782983,104.25
18,34.1298,1.3411,11,15,52,537.69,63.624996508330625,114.78
18,34.1298,0,12,16,52,376.24,67.973701215250202,63.963
17,34.1298,2.2352,12,17,52,185.89,72.401374699018376,24.209
17,1856.9232,0,12,18,52,0,72.401374699018376,0
16,1856.9232,0,12,19,52,0,77.155040268598128,0
15,1856.9232,0,12,20,52,0,82.261352957573052,0
14,34.1298,0,12,21,52,0,87.749358083506806,0
13,34.1298,0,11,22,52,0,87.659298938667845,0
13,34.1298,0,11,23,52,0,87.659298938667845,0
13,1856.9232,1.3411,11,0,53,0,87.659298938667845,0
12,34.1298,3.1293,11,1,53,0,93.602371756764171,0
12,34.1298,2.2352,11,2,53,0,93.602371756764171,0
11,34.1298,2.2352,10,3,53,0,93.553471551666661,0
10,34.1298,1.3411,10,4,53,0,100.0,0
10,34.1298,0,10,5,53,0,100.0,0
10,34.1298,0,10,6,53,0,100.0,0
10,34.1298,0,9,7,53,0,93.504015298216231,0
11,1856.9232,0,10,8,53,198.09,93.553471551666661,194.58
12,1856.9232,0,10,9,53,388.31,87.568268233149638,383.39
13,1856.9232,3.1293,11,10,53,550.75,87.659298938667845,543.48
16,34.1298,2.6822,11,11,53,654.38,72.218947621294333,636.4
17,34.1298,3.1293,12,12,53,717.7,72.401374699018376,687.59
19,34.1298,3.5763,12,13,53,723.74,63.847544203512655,662.92
21,34.1298,4.4704,12,14,53,669.57,56.411645702142742,576.91
21,34.1298,5.8115,11,15,53,561.9,52.802638324228333,470.29
21,34.1298,5.8115,11,16,53,397.44,52.802638324228333,335.75
20,34.1298,3.5763,11,17,53,192.69,56.161812821717625,154.54
18,1856.9232,3.1293,11,18,53,0,63.624996508330625,0
17,1856.9232,2.6822,11,19,53,0,67.769403902782983,0
16,1856.9232,4.0234,11,20,53,0,72.218947621294333,0
16,34.1298,4.0234,11,21,53,0,72.218947621294333,0
15,34.1298,3.5763,11,22,53,0,76.998577407491453,0
15,34.1298,3.1293,11,23,53,0,76.998577407491453,0
15,1856.9232,2.6822,11,0,54,0,76.998577407491453,0
15,34.1298,3.1293,11,1,54,0,76.998577407491453,0
14,34.1298,2.6822,11,2,54,0,82.135480367498232,0
13,34.1298,2.6822,11,3,54,0,87.659298938667845,0
13,34.1298,2.6822,11,4,54,0,87.659298938667845,0
12,34.1298,2.6822,10,5,54,0,87.568268233149638,0
12,34.1298,2.2352,10,6,54,0,87.568268233149638,0
11,34.1298,2.2352,10,7,54,0,93.553471551666661,0
12,1856.9232,0,10,8,54,203.43,87.568268233149638,192.63
12,1856.9232,0,10,9,54,395.14,87.568268233149638,380.18
14,1856.9232,1.3411,11,10,54,554.01,82.135480367498232,546.65
15,34.1298,0,11,11,54,651.31,76.998577407491453,642.2
16,34.1298,3.1293,11,12,54,731.03,72.218947621294333,731.03
17,34.1298,1.3411,11,13,54,726.23,67.769403902782983,498.29
18,34.1298,1.3411,11,14,54,667.98,63.624996508330625,567.98
19,34.1298,0,11,15,54,545.21,59.762815682936242,475.31
19,34.1298,2.6822,11,16,54,391.02,59.762815682936242,343.8
18,34.1298,3.1293,11,17,54,197.41,63.624996508330625,175.03
16,1856.9232,3.5763,11,18,54,0,72.218947621294333,0
14,1856.9232,3.5763,11,19,54,0,82.135480367498232,0
13,1856.9232,4.0234,11,20,54,0,87.659298938667845,0
12,34.1298,4.0234,11,21,54,0,93.602371756764171,0
12,34.1298,3.5763,11,22,54,0,93.602371756764171,0
13,34.1298,2.2352,11,23,54,0,87.659298938667845,0
13,1856.9232,3.1293,12,0,55,0,93.650724114619621,0
13,34.1298,1.3411,12,1,55,0,93.650724114619621,0
14,34.1298,2.6822,12,2,55,0,87.749358083506806,0
14,34.1298,3.1293,12,3,55,0,87.749358083506806,0
13,34.1298,4.0234,12,4,55,0,93.650724114619621,0
13,34.1298,4.0234,12,5,55,0,93.650724114619621,0
14,34.1298,3.5763,12,6,55,0,87.749358083506806,0
13,34.1298,3.5763,12,7,55,0,93.650724114619621,0
13,1856.9232,4.4704,12,8,55,211.44,93.650724114619621,17.525
13,1856.9232,6.2586,12,9,55,415.69,93.650724114619621,415.69
13,1856.9232,6.2586,12,10,55,579.59,93.650724114619621,467.75
15,34.1298,4.9174,12,11,55,693.19,82.261352957573052,541.44
16,34.1298,8.9408,12,12,55,768.22,77.155040268598128,599.55
17,34.1298,5.8115,11,13,55,752.27,67.769403902782983,556.03
