3,34.1298,3.1293,-3,7,45,0,64.714825534265714,0
3,1856.9232,2.6822,-2,8,45,158.56,69.687768711565994,158.56
3,1856.9232,4.0234,-2,9,45,354.23,69.687768711565994,354.23
3,1856.9232,4.0234,-2,10,45,513.38,69.687768711565994,513.38
5,34.1298,7.1526,-1,11,45,638.15,65.174364282645996,638.15
7,34.1298,5.8115,0,12,45,690.9,61.053414792926283,690.9
9,34.1298,4.9174,0,13,45,686.41,53.293043109703412,686.41
10,34.1298,6.7056,0,14,45,633.94,49.831135182182052,633.94
10,34.1298,4.4704,0,15,45,514.93,49.831135182182052,514.93
9,34.1298,6.7056,0,16,45,361.54,53.293043109703412,361.54
8,34.1298,6.2586,0,17,45,159.01,57.025965891592342,159.01
7,1856.9232,5.8115,0,18,45,0,61.053414792926283,0
6,1856.9232,3.5763,-1,19,45,0,60.807981934065246,0
5,1856.9232,3.1293,-1,20,45,0,65.174364282645996,0
5,34.1298,3.5763,-2,21,45,0,60.56053603547852,0
3,34.1298,4.4704,-2,22,45,0,69.687768711565994,0
2,34.1298,5.8115,-3,23,45,0,69.480096758186903,0
1,1856.9232,4.0234,-3,0,46,0,74.639707050276655,0
0,34.1298,4.4704,-4,1,46,0,74.458391582192704,0
-2,34.1298,3.5763,-4,2,46,0,86.18375948438603,0
-2,34.1298,3.5763,-5,3,46,0,79.933943298104751,0
-3,34.1298,2.2352,-5,4,46,0,86.076383684481797,0
-3,34.1298,3.1293,-5,5,46,0,86.076383684481797,0
-4,34.1298,2.6822,-6,6,46,0,85.967788086353806,0
-4,34.1298,3.1293,-7,7,46,0,79.631765086518371,0
-4,1856.9232,3.5763,-7,8,46,167.88,79.631765086518371,167.88
-4,1856.9232,6.7056,-7,9,46,372.27,79.631765086518371,372.27
-3,1856.9232,8.0467,-7,10,46,541.7,73.90342258501218,541.7
-2,34.1298,6.7056,-7,11,46,650.12,68.629648895336288,650.12
0,34.1298,5.8115,-7,12,46,703.41,59.292531471931667,703.41
1,34.1298,5.8115,-7,13,46,700.74,55.161298117581083,700.74
1,34.1298,7.1526,-7,14,46,645.16,55.161298117581083,645.16
1,34.1298,7.5997,-7,15,46,530.13,55.161298117581083,530.13
1,34.1298,6.7056,-7,16,46,361.78,55.161298117581083,361.78
0,34.1298,6.2586,-7,17,46,162.18,59.292531471931667,162.18
-1,1856.9232,4.9174,-7,18,46,0,63.77121389329664,0
-2,1856.9232,4.0234,-7,19,46,0,68.629648895336288,0
-3,1856.9232,4.0234,-7,20,46,0,73.90342258501218,0
-4,34.1298,2.6822,-8,21,46,0,73.714683677886498,0
-5,34.1298,0,-8,22,46,0,79.478232981322179,0
-5,34.1298,0,-8,23,46,0,79.478232981322179,0
-5,1856.9232,2.2352,-8,0,47,0,79.478232981322179,0
-5,34.1298,2.2352,-8,1,47,0,79.478232981322179,0
-5,34.1298,2.2352,-8,2,47,0,79.478232981322179,0
-5,34.1298,1.3411,-8,3,47,0,79.478232981322179,0
-5,34.1298,3.1293,-8,4,47,0,79.478232981322179,0
-4,34.1298,1.3411,-8,5,47,0,73.714683677886498,0
-4,34.1298,0,-8,6,47,0,73.714683677886498,0
-4,34.1298,2.2352,-8,7,47,0,73.714683677886498,0
-4,1856.9232,0,-8,8,47,168.49,73.714683677886498,70.504
-3,1856.9232,0,-7,9,47,364.9,73.90342258501218,130.77
-2,1856.9232,0,-7,10,47,522.72,68.629648895336288,183.35
0,34.1298,2.2352,-7,11,47,637.9,59.292531471931667,220.73
2,34.1298,2.6822,-7,12,47,690.92,51.348169519678208,202.61
3,34.1298,3.1293,-6,13,47,692.19,51.6318571928823,692.19
5,34.1298,2.6822,-5,14,47,633.03,48.408424535627695,633.03
5,34.1298,4.4704,-5,15,47,528.84,48.408424535627695,528.84
5,34.1298,3.1293,-5,16,47,363.54,48.408424535627695,363.54
3,34.1298,5.8115,-4,17,47,167.5,60.059538976411261,167.5
1,1856.9232,4.0234,-4,18,47,0,69.270470217066517,0
0,1856.9232,1.3411,-4,19,47,0,74.458391582192704,0
-1,1856.9232,1.3411,-3,20,47,0,86.28993308116371,0
-1,34.1298,1.3411,-3,21,47,0,86.28993308116371,0
0,34.1298,3.1293,-3,22,47,0,80.22975039312503,0
0,34.1298,2.6822,-3,23,47,0,80.22975039312503,0
0,1856.9232,2.2352,-4,0,48,0,74.458391582192704,0
0,34.1298,2.6822,-4,1,48,0,74.458391582192704,0
0,34.1298,2.6822,-4,2,48,0,74.458391582192704,0
0,34.1298,2.2352,-3,3,48,0,80.22975039312503,0
0,34.1298,2.6822,-3,4,48,0,80.22975039312503,0
0,34.1298,3.5763,-3,5,48,0,80.22975039312503,0
0,34.1298,3.1293,-2,6,48,0,86.394921766765563,0
