10,1856.9232,1.3411,8,8,21,78.694,87.383237448204156,78.694
10,1856.9232,1.3411,9,9,21,265.11,93.504015298216231,265.11
11,1856.9232,2.2352,9,10,21,414.41,87.47625235168276,414.41
12,34.1298,3.1293,10,11,21,517.18,87.568268233149638,517.18
13,34.1298,2.2352,11,12,21,564.52,87.659298938667845,564.52
15,34.1298,6.2586,11,13,21,580.68,76.998577407491453,580.68
15,34.1298,4.4704,11,14,21,515.59,76.998577407491453,415.55
16,34.1298,4.4704,12,15,21,404.43,77.155040268598128,404.43
16,34.1298,4.0234,12,16,21,244.41,77.155040268598128,244.41
15,34.1298,4.4704,11,17,21,51.525,76.998577407491453,51.525
14,1856.9232,2.6822,11,18,21,0,82.135480367498232,0
13,1856.9232,1.3411,11,19,21,0,87.659298938667845,0
12,1856.9232,0,11,20,21,0,93.602371756764171,0
12,34.1298,0,11,21,21,0,93.602371756764171,0
11,34.1298,0,10,22,21,0,93.553471551666661,0
11,34.1298,1.3411,10,23,21,0,93.553471551666661,0
10,1856.9232,2.2352,10,0,22,0,100.0,0
10,34.1298,2.2352,10,1,22,0,100.0,0
10,34.1298,2.2352,10,2,22,0,100.0,0
10,34.1298,0,10,3,22,0,100.0,0
9,34.1298,2.2352,9,4,22,0,100.0,0
9,34.1298,0,9,5,22,0,100.0,0
8,34.1298,1.3411,8,6,22,0,100.0,0
8,34.1298,0,8,7,22,0,100.0,0
9,1856.9232,0,9,8,22,79.831,100.0,78.9
9,1856.9232,1.3411,9,9,22,266.61,100.0,266.61
10,1856.9232,0,9,10,22,408.65,93.504015298216231,13.98
11,34.1298,1.3411,9,11,22,506.08,87.47625235168276,33.037
12,34.1298,2.6822,10,12,22,560.48,87.568268233149638,348.23
12,34.1298,2.6822,10,13,22,565.78,87.568268233149638,352.28
13,34.1298,4.9174,10,14,22,523.68,82.008317294977047,523.68
13,34.1298,4.0234,10,15,22,405.96,82.008317294977047,390.36
12,34.1298,4.4704,10,16,22,247.52,87.568268233149638,247.52
12,34.1298,4.4704,9,17,22,54.96,81.879846925107273,54.96
11,1856.9232,4.9174,9,18,22,0,87.47625235168276,0
11,1856.9232,4.4704,8,19,22,0,81.750052187031002,0
10,1856.9232,5.8115,8,20,22,0,87.383237448204156,0
9,34.1298,4.9174,8,21,22,0,93.453994643448382,0
8,34.1298,3.5763,7,22,22,0,93.403401079212742,0
8,34.1298,3.5763,7,23,22,0,93.403401079212742,0
7,1856.9232,3.5763,6,0,23,0,93.352225938756803,0
7,34.1298,3.5763,6,1,23,0,93.352225938756803,0
7,34.1298,4.9174,5,2,23,0,87.098056588182175,0
6,34.1298,4.9174,5,3,23,0,93.300460393223361,0
6,34.1298,2.6822,4,4,23,0,87.000902360951287,0
5,34.1298,4.0234,4,5,23,0,93.248095448058876,0
5,34.1298,6.2586,3,6,23,0,86.902676258921971,0
5,34.1298,7.5997,3,7,23,0,86.902676258921971,0
4,1856.9232,7.1526,3,8,23,86.193,93.195121939330733,83.23
4,1856.9232,6.7056,3,9,23,278.37,93.195121939330733,268.04
4,1856.9232,6.2586,3,10,23,433.65,93.195121939330733,413.83
5,34.1298,4.4704,3,11,23,534.97,86.902676258921971,509.45
5,34.1298,6.2586,3,12,23,595.32,86.902676258921971,562.39
6,34.1298,5.8115,3,13,23,590.16,81.080597043606616,553.42
6,34.1298,5.8115,3,14,23,529.13,81.080597043606616,493.08
6,34.1298,7.5997,3,15,23,420.34,81.080597043606616,392.78
6,34.1298,4.9174,3,16,23,253.07,81.080597043606616,235.71
6,34.1298,4.0234,3,17,23,59.141,81.080597043606616,54.989
6,1856.9232,3.5763,3,18,23,0,81.080597043606616,0
6,1856.9232,4.9174,3,19,23,0,81.080597043606616,0
5,1856.9232,3.5763,2,20,23,0,80.942482739047733,0
5,34.1298,2.6822,2,21,23,0,80.942482739047733,0
4,34.1298,3.5763,2,22,23,0,86.803362953546198,0
4,34.1298,2.6822,2,23,23,0,86.803362953546198,0
3,1856.9232,3.1293,1,0,24,0,86.702946851967639,0
3,34.1298,4.0234,1,1,24,0,86.702946851967639,0
3,34.1298,2.6822,1,2,24,0,86.702946851967639,0
3,34.1298,3.5763,1,3,24,0,86.702946851967639,0
2,34.1298,2.6822,1,4,24,0,93.087311705799863,0
2,34.1298,2.6822,1,5,24,0,93.087311705799863,0
2,34.1298,2.2352,1,6,24,0,93.087311705799863,0
1,34.1298,3.1293,1,7,24,0,100.0,0
