-1,34.1298,2.6822,-3,17,14,24.594,86.28993308116371,23.002
-1,1856.9232,2.2352,-3,18,14,0,86.28993308116371,0
-1,1856.9232,0,-3,19,14,0,86.28993308116371,0
-2,1856.9232,0,-3,20,14,0,92.863965557739348,0
-2,34.1298,1.3411,-3,21,14,0,92.863965557739348,0
-2,34.1298,1.3411,-4,22,14,0,86.18375948438603,0
-3,34.1298,1.3411,-4,23,14,0,92.806460468027481,0
-3,1856.9232,1.3411,-4,0,15,0,92.806460468027481,0
-3,34.1298,1.3411,-5,1,15,0,86.076383684481797,0
-3,34.1298,0,-5,2,15,0,86.076383684481797,0
-3,34.1298,0,-5,3,15,0,86.076383684481797,0
-3,34.1298,0,-5,4,15,0,86.076383684481797,0
-3,34.1298,0,-5,5,15,0,86.076383684481797,0
-4,34.1298,0,-5,6,15,0,92.748266931412331,0
-4,34.1298,0,-5,7,15,0,92.748266931412331,0
-3,1856.9232,0,-5,8,15,67.905,86.076383684481797,2.635
-3,1856.9232,0,-5,9,15,250.05,86.076383684481797,250.05
-2,1856.9232,0,-5,10,15,394.33,79.933943298104751,394.33
-1,34.1298,2.6822,-5,11,15,502.47,74.275253880025062,0
0,34.1298,3.1293,-4,12,15,552.6,74.458391582192704,0
1,34.1298,2.2352,-4,13,15,549.03,69.270470217066517,30.657
1,34.1298,2.2352,-4,14,15,489.42,69.270470217066517,28.084
2,34.1298,2.2352,-3,15,15,377.15,69.480096758186903,0
2,34.1298,3.1293,-3,16,15,220.63,69.480096758186903,15.201
2,34.1298,2.6822,-3,17,15,28.164,69.480096758186903,2.2042
1,1856.9232,2.6822,-3,18,15,0,74.639707050276655,0
0,1856.9232,3.1293,-3,19,15,0,80.22975039312503,0
0,1856.9232,3.1293,-3,20,15,0,80.22975039312503,0
0,34.1298,3.1293,-3,21,15,0,80.22975039312503,0
0,34.1298,3.1293,-3,22,15,0,80.22975039312503,0
-1,34.1298,0,-3,23,15,0,86.28993308116371,0
-2,1856.9232,2.2352,-3,0,16,0,92.863965557739348,0
-3,34.1298,2.2352,-4,1,16,0,92.806460468027481,0
-3,34.1298,2.2352,-4,2,16,0,92.806460468027481,0
-3,34.1298,2.2352,-4,3,16,0,92.806460468027481,0
-3,34.1298,2.6822,-3,4,16,0,100.0,0
-2,34.1298,2.6822,-3,5,16,0,92.863965557739348,0
-2,34.1298,2.6822,-3,6,16,0,92.863965557739348,0
-1,34.1298,2.6822,-2,7,16,0,92.920792863957388,0
-1,1856.9232,2.2352,-2,8,16,69.494,92.920792863957388,62.905
0,1856.9232,2.2352,-1,9,16,252.93,92.97695284762996,238.45
0,1856.9232,2.6822,0,10,16,400.76,100.0,379.52
1,34.1298,2.6822,0,11,16,503.13,93.032455771758947,482.43
3,34.1298,2.6822,1,12,16,553.35,86.702946851967639,537.97
4,34.1298,3.5763,2,13,16,551.02,86.803362953546198,539.65
5,34.1298,3.1293,2,14,16,488.87,80.942482739047733,482.29
5,34.1298,4.0234,3,15,16,377.37,86.902676258921971,370.07
6,34.1298,3.1293,3,16,16,220.47,81.080597043606616,215.09
6,34.1298,3.1293,4,17,16,31.516,87.000902360951287,30.806
6,1856.9232,3.5763,4,18,16,0,87.000902360951287,0
7,1856.9232,3.1293,5,19,16,0,87.098056588182175,0
7,1856.9232,2.6822,5,20,16,0,87.098056588182175,0
5,34.1298,2.6822,5,21,16,0,100.0,0
5,34.1298,3.5763,5,22,16,0,100.0,0
6,34.1298,2.2352,6,23,16,0,100.0,0
7,1856.9232,2.6822,6,0,17,0,93.352225938756803,0
8,34.1298,4.0234,6,1,17,0,87.194154009949884,0
8,34.1298,4.9174,6,2,17,0,87.194154009949884,0
8,34.1298,4.4704,7,3,17,0,93.403401079212742,0
8,34.1298,6.2586,7,4,17,0,93.403401079212742,0
9,34.1298,4.9174,7,5,17,0,87.289209441366083,0
10,34.1298,9.3878,7,6,17,0,81.618915749746961,0
10,34.1298,7.5997,7,7,17,0,81.618915749746961,0
10,1856.9232,6.2586,7,8,17,75.512,81.618915749746961,44.562
9,1856.9232,6.2586,7,9,17,269.59,87.289209441366083,191.2
8,1856.9232,5.8115,7,10,17,421.33,93.403401079212742,359.27
8,34.1298,4.0234,7,11,17,520.16,93.403401079212742,492.37
8,34.1298,5.8115,7,12,17,574.6,93.403401079212742,543.37
8,34.1298,5.8115,7,13,17,569.24,93.403401079212742,546.17
8,34.1298,4.0234,7,14,17,501.26,93.403401079212742,474.57
8,34.1298,4.9174,6,15,17,389.51,87.194154009949884,369.45
7,34.1298,6.7056,6,16,17,232.24,93.352225938756803,222.44
