6,1856.9232,2.2352,1,19,41,0,70.299266961976286,0
5,1856.9232,2.2352,1,20,41,0,75.347181209710627,0
4,34.1298,1.3411,2,21,41,0,86.803362953546198,0
4,34.1298,4.0234,2,22,41,0,86.803362953546198,0
5,34.1298,4.4704,2,23,41,0,80.942482739047733,0
5,1856.9232,3.5763,2,0,42,0,80.942482739047733,0
5,34.1298,4.0234,2,1,42,0,80.942482739047733,0
5,34.1298,2.6822,2,2,42,0,80.942482739047733,0
4,34.1298,2.6822,2,3,42,0,86.803362953546198,0
3,34.1298,1.3411,2,4,42,0,93.141530529950373,0
3,34.1298,0,2,5,42,0,93.141530529950373,0
3,34.1298,3.1293,2,6,42,0,93.141530529950373,0
3,34.1298,2.2352,2,7,42,0,93.141530529950373,0
3,1856.9232,2.6822,2,8,42,146.08,93.141530529950373,146.08
3,1856.9232,2.2352,3,9,42,338.5,100.0,338.5
4,1856.9232,1.3411,3,10,42,489.87,93.195121939330733,489.87
6,34.1298,2.6822,4,11,42,600.93,87.000902360951287,600.93
8,34.1298,3.1293,5,12,42,659.43,81.35254712725947,659.43
10,34.1298,2.6822,6,13,42,656.83,76.193074639467341,656.83
10,34.1298,3.5763,6,14,42,604.36,76.193074639467341,604.36
10,34.1298,3.1293,7,15,42,491.96,81.618915749746961,491.96
10,34.1298,0,7,16,42,327.01,81.618915749746961,327.01
9,34.1298,1.3411,7,17,42,137.35,87.289209441366083,137.35
8,1856.9232,1.3411,7,18,42,0,93.403401079212742,0
8,1856.9232,3.1293,6,19,42,0,87.194154009949884,0
7,1856.9232,3.5763,6,20,42,0,93.352225938756803,0
6,34.1298,6.2586,6,21,42,0,100.0,0
6,34.1298,4.0234,5,22,42,0,93.300460393223361,0
6,34.1298,4.4704,3,23,42,0,81.080597043606616,0
6,1856.9232,3.1293,4,0,43,0,87.000902360951287,0
6,34.1298,4.9174,4,1,43,0,87.000902360951287,0
6,34.1298,4.0234,3,2,43,0,81.080597043606616,0
5,34.1298,5.8115,3,3,43,0,86.902676258921971,0
4,34.1298,5.8115,2,4,43,0,86.803362953546198,0
3,34.1298,4.0234,2,5,43,0,93.141530529950373,0
3,34.1298,3.5763,2,6,43,0,93.141530529950373,0
3,34.1298,3.5763,2,7,43,0,93.141530529950373,0
3,1856.9232,7.1526,1,8,43,156.5,86.702946851967639,12.872
3,1856.9232,5.8115,1,9,43,357.07,86.702946851967639,25.864
3,1856.9232,3.5763,1,10,43,509.74,86.702946851967639,509.74
5,34.1298,7.1526,1,11,43,631.12,75.347181209710627,390.56
6,34.1298,6.7056,1,12,43,684.14,70.299266961976286,684.14
6,34.1298,9.3878,1,13,43,696.61,70.299266961976286,560.9
6,34.1298,11.623,1,14,43,651.92,70.299266961976286,461.49
6,34.1298,10.282,0,15,43,533.84,65.401134444271349,533.84
5,34.1298,9.8349,-1,16,43,372.34,65.174364282645996,372.34
4,34.1298,8.0467,-2,17,43,156.85,64.945601027542693,156.85
3,1856.9232,7.1526,-2,18,43,0,69.687768711565994,0
2,1856.9232,5.8115,-3,19,43,0,69.480096758186903,0
1,1856.9232,6.2586,-3,20,43,0,74.639707050276655,0
0,34.1298,4.9174,-3,21,43,0,80.22975039312503,0
0,34.1298,6.2586,-4,22,43,0,74.458391582192704,0
-1,34.1298,6.7056,-4,23,43,0,80.082632632857582,0
-1,1856.9232,4.9174,-5,0,44,0,74.275253880025062,0
-1,34.1298,3.5763,-5,1,44,0,74.275253880025062,0
-2,34.1298,4.0234,-5,2,44,0,79.933943298104751,0
-2,34.1298,2.6822,-5,3,44,0,79.933943298104751,0
-3,34.1298,2.2352,-5,4,44,0,86.076383684481797,0
-4,34.1298,1.3411,-6,5,44,0,85.967788086353806,0
-4,34.1298,2.6822,-7,6,44,0,79.631765086518371,0
-4,34.1298,0,-7,7,44,0,79.631765086518371,0
-4,1856.9232,0,-6,8,44,152.31,85.967788086353806,152.31
-3,1856.9232,1.3411,-5,9,44,342.13,86.076383684481797,342.13
-2,1856.9232,1.3411,-5,10,44,498.04,79.933943298104751,498.04
0,34.1298,2.2352,-5,11,44,609.37,69.058867777488345,609.37
2,34.1298,2.6822,-4,12,44,681.47,64.482018531033972,681.47
3,34.1298,3.5763,-4,13,44,691.02,60.059538976411261,691.02
4,34.1298,2.6822,-4,14,44,629.58,55.972560585266336,629.58
5,34.1298,5.8115,-4,15,44,520.7,52.193346719271737,520.7
5,34.1298,3.5763,-4,16,44,348.76,52.193346719271737,348.76
3,34.1298,4.9174,-4,17,44,152.11,60.059538976411261,152.11
2,1856.9232,3.1293,-4,18,44,0,64.482018531033972,0
