5,34.1298,4.9174,-4,17,44,152.11,52.193346719271737,152.11
5,1856.9232,3.1293,-4,18,44,0,52.193346719271737,0
3,1856.9232,2.2352,-4,19,44,0,60.059538976411261,0
2,1856.9232,0,-5,20,44,0,59.805954669926152,0
1,34.1298,0,-4,21,44,0,69.270470217066517,0
1,34.1298,1.3411,-4,22,44,0,69.270470217066517,0
1,34.1298,2.2352,-4,23,44,0,69.270470217066517,0
1,1856.9232,1.3411,-4,0,45,0,69.270470217066517,0
1,34.1298,2.2352,-4,1,45,0,69.270470217066517,0
1,34.1298,3.1293,-4,2,45,0,69.270470217066517,0
0,34.1298,3.1293,-4,3,45,0,74.458391582192704,0
0,34.1298,3.1293,-3,4,45,0,80.22975039312503,0
0,34.1298,3.1293,-3,5,45,0,80.22975039312503,0
-1,34.1298,3.1293,-3,6,45,0,86.28993308116371,0
-1,34.1298,3.1293,-3,7,45,0,86.28993308116371,0
0,1856.9232,2.6822,-2,8,45,158.56,86.394921766765563,158.56
1,1856.9232,4.0234,-2,9,45,354.23,80.375317381711923,354.23
2,1856.9232,4.0234,-1,10,45,513.38,80.519354085990997,513.38
4,34.1298,7.1526,0,11,45,638.15,75.172938060956724,638.15
6,34.1298,5.8115,0,12,45,690.9,65.401134444271349,690.9
7,34.1298,4.9174,1,13,45,686.41,65.625930527633926,686.41
8,34.1298,6.7056,1,14,45,633.94,61.296851102691427,633.94
9,34.1298,4.4704,1,15,45,514.93,57.284355946111774,514.93
9,34.1298,6.7056,1,16,45,361.54,57.284355946111774,361.54
8,34.1298,6.2586,0,17,45,159.01,57.025965891592342,159.01
6,1856.9232,5.8115,0,18,45,0,65.401134444271349,0
5,1856.9232,3.5763,0,19,45,0,70.097333034191095,0
4,1856.9232,3.1293,-1,20,45,0,69.893507175113811,0
3,34.1298,3.5763,-2,21,45,0,69.687768711565994,0
2,34.1298,4.4704,-2,22,45,0,74.819222225640118,0
2,34.1298,5.8115,-3,23,45,0,69.480096758186903,0
1,1856.9232,4.0234,-3,0,46,0,74.639707050276655,0
0,34.1298,4.4704,-4,1,46,0,74.458391582192704,0
-1,34.1298,3.5763,-4,2,46,0,80.082632632857582,0
-2,34.1298,3.5763,-5,3,46,0,79.933943298104751,0
-3,34.1298,2.2352,-5,4,46,0,86.076383684481797,0
-3,34.1298,3.1293,-6,5,46,0,79.783661265599576,0
-3,34.1298,2.6822,-7,6,46,0,73.90342258501218,0
-3,34.1298,3.1293,-7,7,46,0,73.90342258501218,0
-3,1856.9232,3.5763,-7,8,46,167.88,73.90342258501218,167.88
-3,1856.9232,6.7056,-7,9,46,372.27,73.90342258501218,372.27
-3,1856.9232,8.0467,-7,10,46,541.7,73.90342258501218,541.7
-2,34.1298,6.7056,-7,11,46,650.12,68.629648895336288,650.12
0,34.1298,5.8115,-7,12,46,703.41,59.292531471931667,703.41
1,34.1298,5.8115,-7,13,46,700.74,55.161298117581083,700.74
1,34.1298,7.1526,-7,14,46,645.16,55.161298117581083,645.16
1,34.1298,7.5997,-7,15,46,530.13,55.161298117581083,530.13
1,34.1298,6.7056,-7,16,46,361.78,55.161298117581083,361.78
0,34.1298,6.2586,-7,17,46,162.18,59.292531471931667,162.18
0,1856.9232,4.9174,-8,18,46,0,54.886767826455419,0
-2,1856.9232,4.0234,-8,19,46,0,63.530085685625657,0
-2,1856.9232,4.0234,-8,20,46,0,63.530085685625657,0
-3,34.1298,2.6822,-8,21,46,0,68.41198876664923,0
-3,34.1298,0,-8,22,46,0,68.41198876664923,0
-4,34.1298,0,-8,23,46,0,73.714683677886498,0
-4,1856.9232,2.2352,-8,0,47,0,73.714683677886498,0
-5,34.1298,2.2352,-8,1,47,0,79.478232981322179,0
-5,34.1298,2.2352,-8,2,47,0,79.478232981322179,0
-5,34.1298,1.3411,-8,3,47,0,79.478232981322179,0
-5,34.1298,3.1293,-8,4,47,0,79.478232981322179,0
-5,34.1298,1.3411,-8,5,47,0,79.478232981322179,0
-5,34.1298,0,-8,6,47,0,79.478232981322179,0
-5,34.1298,2.2352,-8,7,47,0,79.478232981322179,0
-5,1856.9232,0,-8,8,47,168.49,79.478232981322179,70.504
-4,1856.9232,0,-8,9,47,364.9,73.714683677886498,130.77
-3,1856.9232,0,-8,10,47,522.72,68.41198876664923,183.35
-1,34.1298,2.2352,-7,11,47,637.9,63.77121389329664,220.73
1,34.1298,2.6822,-7,12,47,690.92,55.161298117581083,202.61
3,34.1298,3.1293,-7,13,47,692.19,47.82647098974175,692.19
4,34.1298,2.6822,-6,14,47,633.03,48.118372270447765,633.03
5,34.1298,4.4704,-6,15,47,528.84,44.869465702799424,528.84
5,34.1298,3.1293,-5,16,47,363.54,48.408424535627695,363.54
