3,34.1298,2.2352,2,6,25,0,93.141530529950373,0
4,34.1298,2.6822,2,7,25,0,86.803362953546198,0
5,1856.9232,3.1293,2,8,25,87.801,80.942482739047733,87.801
6,1856.9232,1.3411,3,9,25,272.22,81.080597043606616,0
7,1856.9232,2.6822,4,10,25,422.61,81.21727894075245,0
8,34.1298,3.5763,5,11,25,530.74,81.35254712725947,530.74
9,34.1298,5.8115,6,12,25,590.53,81.486420017858691,478.04
10,34.1298,10.729,6,13,25,612.67,76.193074639467341,460.63
10,34.1298,8.0467,6,14,25,547.05,76.193074639467341,461.52
10,34.1298,9.8349,5,15,25,441.74,71.088489426375332,366.3
9,34.1298,10.282,4,16,25,277.01,70.893920717171909,231.38
8,34.1298,5.8115,3,17,25,68.905,70.697540658389229,51.133
7,1856.9232,6.2586,2,18,25,0,70.499329419935393,0
6,1856.9232,10.282,2,19,25,0,75.519709049236894,0
5,1856.9232,8.0467,1,20,25,0,75.347181209710627,0
3,34.1298,6.2586,0,21,25,0,80.661880682868471,0
3,34.1298,7.1526,0,22,25,0,80.661880682868471,0
2,34.1298,7.1526,0,23,25,0,86.60141209181765,0
2,1856.9232,6.7056,0,0,26,0,86.60141209181765,0
2,34.1298,8.0467,0,1,26,0,86.60141209181765,0
2,34.1298,9.8349,0,2,26,0,86.60141209181765,0
2,34.1298,8.0467,0,3,26,0,86.60141209181765,0
2,34.1298,6.7056,0,4,26,0,86.60141209181765,0
1,34.1298,5.8115,0,5,26,0,93.032455771758947,0
1,34.1298,6.2586,0,6,26,0,93.032455771758947,0
2,34.1298,8.0467,-1,7,26,0,80.519354085990997,0
1,1856.9232,6.2586,-1,8,26,92.281,86.498742535900504,85.19
1,1856.9232,6.2586,-2,9,26,286.14,80.375317381711923,269.88
1,1856.9232,7.1526,-2,10,26,447.13,80.375317381711923,369.33
1,34.1298,8.0467,-2,11,26,564.77,80.375317381711923,485.87
1,34.1298,7.5997,-2,12,26,619.78,80.375317381711923,544.6
1,34.1298,5.8115,-2,13,26,610.31,80.375317381711923,531.37
1,34.1298,7.5997,-3,14,26,551.45,74.639707050276655,435
1,34.1298,8.0467,-3,15,26,434.77,74.639707050276655,362.49
1,34.1298,6.7056,-3,16,26,269.82,74.639707050276655,185.84
1,34.1298,5.8115,-3,17,26,72.035,74.639707050276655,47.381
0,1856.9232,4.9174,-4,18,26,0,74.458391582192704,0
0,1856.9232,5.8115,-4,19,26,0,74.458391582192704,0
0,1856.9232,4.9174,-4,20,26,0,74.458391582192704,0
0,34.1298,6.2586,-4,21,26,0,74.458391582192704,0
0,34.1298,5.8115,-4,22,26,0,74.458391582192704,0
-1,34.1298,4.9174,-4,23,26,0,80.082632632857582,0
-2,1856.9232,6.2586,-4,0,27,0,86.18375948438603,0
-3,34.1298,5.8115,-5,1,27,0,86.076383684481797,0
-3,34.1298,3.5763,-5,2,27,0,86.076383684481797,0
-3,34.1298,6.2586,-5,3,27,0,86.076383684481797,0
-4,34.1298,4.0234,-5,4,27,0,92.748266931412331,0
-4,34.1298,5.8115,-6,5,27,0,85.967788086353806,0
-4,34.1298,4.0234,-7,6,27,0,79.631765086518371,0
-4,34.1298,3.5763,-7,7,27,0,79.631765086518371,0
-4,1856.9232,2.6822,-7,8,27,92.677,79.631765086518371,71.922
-3,1856.9232,4.0234,-7,9,27,280.71,73.90342258501218,251.06
-3,1856.9232,5.8115,-7,10,27,443.09,73.90342258501218,381.8
-3,34.1298,4.9174,-7,11,27,554.8,73.90342258501218,457.93
-2,34.1298,6.7056,-7,12,27,619.09,68.629648895336288,510.13
-2,34.1298,4.4704,-7,13,27,606.1,68.629648895336288,498.76
-2,34.1298,4.9174,-7,14,27,543.71,68.629648895336288,448.71
-2,34.1298,4.9174,-7,15,27,429.74,68.629648895336288,388.13
-2,34.1298,6.2586,-7,16,27,272.47,68.629648895336288,243.88
-3,34.1298,6.2586,-7,17,27,76.7,73.90342258501218,69.161
-3,1856.9232,7.1526,-7,18,27,0,73.90342258501218,0
-3,1856.9232,8.0467,-7,19,27,0,73.90342258501218,0
-3,1856.9232,4.4704,-7,20,27,0,73.90342258501218,0
-4,34.1298,6.7056,-7,21,27,0,79.631765086518371,0
-4,34.1298,6.2586,-7,22,27,0,79.631765086518371,0
-4,34.1298,4.9174,-7,23,27,0,79.631765086518371,0
-4,1856.9232,3.5763,-7,0,28,0,79.631765086518371,0
-4,34.1298,4.4704,-7,1,28,0,79.631765086518371,0
-4,34.1298,3.5763,-7,2,28,0,79.631765086518371,0
-4,34.1298,2.6822,-7,3,28,0,79.631765086518371,0
-4,34.1298,3.5763,-7,4,28,0,79.631765086518371,0
-5,34.1298,3.1293,-7,5,28,0,85.857954785728069,0
