-2,34.1298,6.7056,-6,23,32,0,74.090271718389829,0
-3,1856.9232,6.2586,-7,0,33,0,73.90342258501218,0
-4,34.1298,5.8115,-7,1,33,0,79.631765086518371,0
-4,34.1298,5.8115,-8,2,33,0,73.714683677886498,0
-5,34.1298,5.8115,-8,3,33,0,79.478232981322179,0
-5,34.1298,4.0234,-9,4,33,0,73.524031902471236,0
-5,34.1298,4.9174,-9,5,33,0,73.524031902471236,0
-6,34.1298,4.9174,-10,6,33,0,73.331443868922875,0
-7,34.1298,4.0234,-11,7,33,0,73.136895889374017,0
-7,1856.9232,4.9174,-11,8,33,114.96,73.136895889374017,114.96
-7,1856.9232,3.5763,-11,9,33,308.41,73.136895889374017,308.41
-6,1856.9232,4.0234,-11,10,33,465.61,67.746539049831213,465.61
-5,34.1298,4.4704,-12,11,33,572.98,57.971712417682106,572.98
-4,34.1298,4.0234,-12,12,33,630.1,53.767758577862509,630.1
-4,34.1298,4.9174,-13,13,33,629.84,49.604297542623229,629.84
-4,34.1298,4.9174,-13,14,33,570.59,49.604297542623229,570.59
-3,34.1298,4.9174,-13,15,33,453.75,46.035992789337357,453.75
-3,34.1298,4.9174,-12,16,33,295.02,49.899953609108429,295.02
-3,34.1298,5.8115,-12,17,33,101.74,49.899953609108429,101.74
-3,1856.9232,4.4704,-12,18,33,0,49.899953609108429,0
-5,1856.9232,3.1293,-13,19,33,0,53.48272176266731,0
-6,1856.9232,3.5763,-12,20,33,0,62.54407583902627,0
-6,34.1298,3.1293,-12,21,33,0,62.54407583902627,0
-7,34.1298,3.1293,-12,22,33,0,67.520490748189346,0
-7,34.1298,2.6822,-13,23,33,0,62.292098497037117,0
-7,1856.9232,3.1293,-13,0,34,0,62.292098497037117,0
-7,34.1298,2.2352,-14,1,34,0,57.428131572094784,0
-7,34.1298,2.2352,-14,2,34,0,57.428131572094784,0
-7,34.1298,4.4704,-13,3,34,0,62.292098497037117,0
-8,34.1298,4.0234,-13,4,34,0,67.292288412144302,0
-9,34.1298,6.2586,-14,5,34,0,67.061908825759474,0
-9,34.1298,6.2586,-14,6,34,0,67.061908825759474,0
-10,34.1298,3.1293,-14,7,34,0,72.541250869952918,0
-9,1856.9232,3.1293,-14,8,34,115.43,67.061908825759474,7.6487
-9,1856.9232,4.4704,-13,9,34,308.95,72.741823834704164,8.9477
-8,1856.9232,4.0234,-13,10,34,465.18,67.292288412144302,23.434
-7,34.1298,4.9174,-14,11,34,581.06,57.428131572094784,54.953
-6,34.1298,5.8115,-14,12,34,641.65,53.195546663514051,641.65
-5,34.1298,6.2586,-15,13,34,642.08,45.424199584158785,642.08
-4,34.1298,5.8115,-15,14,34,580.32,42.130157881773087,580.32
-4,34.1298,6.2586,-14,15,34,469.83,45.731034827067205,469.83
-4,34.1298,4.9174,-14,16,34,305.48,45.731034827067205,305.48
-4,34.1298,5.8115,-14,17,34,107.19,45.731034827067205,107.19
-5,1856.9232,4.4704,-14,18,34,0,49.306619239457561,0
-5,1856.9232,2.6822,-14,19,34,0,49.306619239457561,0
-7,1856.9232,0,-13,20,34,0,62.292098497037117,0
-7,34.1298,1.3411,-13,21,34,0,62.292098497037117,0
-8,34.1298,1.3411,-13,22,34,0,67.292288412144302,0
-8,34.1298,1.3411,-13,23,34,0,67.292288412144302,0
-9,1856.9232,1.3411,-14,0,35,0,67.061908825759474,0
-9,34.1298,2.2352,-15,1,35,0,61.781431742499457,0
-9,34.1298,0,-15,2,35,0,61.781431742499457,0
-10,34.1298,0,-14,3,35,0,72.541250869952918,0
-10,34.1298,0,-14,4,35,0,72.541250869952918,0
-11,34.1298,0,-14,5,35,0,78.521423248478968,0
-12,34.1298,0,-15,6,35,0,78.355800941122155,0
-12,34.1298,0,-15,7,35,0,78.355800941122155,0
-10,1856.9232,0,-15,8,35,116.18,66.829328565369394,116.18
-9,1856.9232,0,-14,9,35,300.21,67.061908825759474,300.21
-7,1856.9232,2.2352,-14,10,35,452.02,57.428131572094784,452.02
-5,34.1298,3.5763,-14,11,35,571.42,49.306619239457561,571.42
-4,34.1298,6.7056,-14,12,35,658.27,45.731034827067205,658.27
-2,34.1298,5.8115,-15,13,35,663.79,36.30935393921942,663.79
-1,34.1298,4.0234,-14,14,35,589.97,36.622616619764386,0
0,34.1298,4.9174,-14,15,35,471.01,34.050592986126624,11.027
0,34.1298,4.0234,-13,16,35,306.66,36.934562105882399,8.12
-1,34.1298,4.0234,-13,17,35,110.88,39.724427371168566,110.88
-2,1856.9232,3.5763,-13,18,35,0,42.75084848805362,0
-3,1856.9232,3.1293,-13,19,35,0,46.035992789337357,0
-3,1856.9232,2.2352,-12,20,35,0,49.899953609108429,0
-3,34.1298,2.6822,-12,21,35,0,49.899953609108429,0
-4,34.1298,3.5763,-12,22,35,0,53.767758577862509,0
