10,1856.9232,7.1526,-2,18,66,25.654,43.051570256137374,25.654
8,1856.9232,5.8115,-2,19,66,0,49.267538618783618,0
7,1856.9232,3.1293,-2,20,66,0,52.74704994628754,0
6,34.1298,2.6822,-2,21,66,0,56.50325893770539,0
6,34.1298,0,-2,22,66,0,56.50325893770539,0
6,34.1298,0,-2,23,66,0,56.50325893770539,0
5,1856.9232,2.2352,-2,0,67,0,60.56053603547852,0
5,34.1298,1.3411,-2,1,67,0,60.56053603547852,0
5,34.1298,4.0234,-2,2,67,0,60.56053603547852,0
5,34.1298,4.4704,-3,3,67,0,56.238915325569103,0
4,34.1298,5.8115,-3,4,67,0,60.311060569484063,0
3,34.1298,3.5763,-3,5,67,0,64.714825534265714,0
3,34.1298,3.1293,-3,6,67,0,64.714825534265714,0
3,34.1298,3.1293,-3,7,67,58.2,64.714825534265714,58.2
3,1856.9232,2.6822,-3,8,67,278.08,64.714825534265714,278.08
5,1856.9232,5.8115,-3,9,67,484.26,56.238915325569103,484.26
7,1856.9232,6.7056,-3,10,67,654.47,48.983002294844027,654.47
9,34.1298,11.176,-4,11,67,797.84,39.681142724689735,797.84
10,34.1298,10.282,-5,12,67,855.22,34.412817757484575,855.22
12,34.1298,11.623,-5,13,67,860.77,30.134708560459039,860.77
12,34.1298,12.517,-5,14,67,794.74,30.134708560459039,794.74
13,34.1298,14.305,-5,15,67,677.97,28.221372776700161,677.97
13,34.1298,12.517,-5,16,67,488.65,28.221372776700161,488.65
12,34.1298,13.411,-4,17,67,272.15,32.490858921109286,272.15
11,1856.9232,8.9408,-3,18,67,29.712,37.402112278422031,29.712
9,1856.9232,4.9174,-2,19,67,0,46.042482901756905,0
7,1856.9232,2.2352,-2,20,67,0,52.74704994628754,0
6,34.1298,2.2352,-2,21,67,0,56.50325893770539,0
5,34.1298,2.2352,-1,22,67,0,65.174364282645996,0
4,34.1298,2.2352,0,23,67,0,75.172938060956724,0
3,1856.9232,0,0,0,68,0,80.661880682868471,0
2,34.1298,1.3411,0,1,68,0,86.60141209181765,0
2,34.1298,0,-1,2,68,0,80.519354085990997,0
2,34.1298,0,-1,3,68,0,80.519354085990997,0
2,34.1298,0,-2,4,68,0,74.819222225640118,0
1,34.1298,0,-2,5,68,0,80.375317381711923,0
1,34.1298,2.2352,-3,6,68,0,74.639707050276655,0
2,34.1298,2.6822,-3,7,68,64.896,69.480096758186903,64.896
3,1856.9232,3.1293,-3,8,68,291.8,64.714825534265714,291.8
6,1856.9232,5.8115,-3,9,68,500.1,52.471166918911017,500.1
8,1856.9232,4.4704,-2,10,68,660.49,49.267538618783618,660.49
9,34.1298,3.1293,-2,11,68,763.7,46.042482901756905,763.7
10,34.1298,3.5763,-2,12,68,817.61,43.051570256137374,817.61
10,34.1298,4.0234,-2,13,68,821.07,43.051570256137374,821.07
11,34.1298,2.6822,-2,14,68,747.46,40.276238532121262,0
11,34.1298,4.9174,-1,15,68,636.54,43.344699599247413,636.54
11,34.1298,3.1293,-1,16,68,456.05,43.344699599247413,456.05
11,34.1298,4.0234,-1,17,68,259.41,43.344699599247413,0
10,1856.9232,4.4704,-1,18,68,33.091,46.331471061776149,1.2066
8,1856.9232,6.2586,-1,19,68,0,53.021005417931356,0
7,1856.9232,6.2586,-1,20,68,0,56.765604683887005,0
6,34.1298,6.7056,-1,21,68,0,60.807981934065246,0
5,34.1298,5.8115,-2,22,68,0,60.56053603547852,0
5,34.1298,4.4704,-2,23,68,0,60.56053603547852,0
4,1856.9232,6.7056,-3,0,69,0,60.311060569484063,0
3,34.1298,4.4704,-3,1,69,0,64.714825534265714,0
2,34.1298,4.9174,-3,2,69,0,69.480096758186903,0
2,34.1298,4.4704,-4,3,69,0,64.482018531033972,0
1,34.1298,4.4704,-4,4,69,0,69.270470217066517,0
0,34.1298,3.5763,-4,5,69,0,74.458391582192704,0
-1,34.1298,6.2586,-5,6,69,0,74.275253880025062,0
-2,34.1298,5.8115,-6,7,69,73.405,74.090271718389829,73.405
-1,1856.9232,4.9174,-7,8,69,303.09,63.77121389329664,303.09
0,1856.9232,6.2586,-7,9,69,512.32,59.292531471931667,512.32
0,1856.9232,8.0467,-7,10,69,678.82,59.292531471931667,678.82
1,34.1298,4.9174,-8,11,69,780.61,51.062508002695161,780.61
2,34.1298,7.5997,-8,12,69,848.82,47.532715989267842,848.82
2,34.1298,6.2586,-8,13,69,842.85,47.532715989267842,842.85
2,34.1298,5.8115,-9,14,69,774.48,43.971749191093984,774.48
2,34.1298,6.7056,-9,15,69,666.89,43.971749191093984,666.89
2,34.1298,7.5997,-10,16,69,488.66,40.650380298084066,488.66
1,34.1298,7.5997,-10,17,69,278.02,43.669088249705375,278.02
