0,34.1298,3.5763,-7,2,36,0,59.292531471931667,0
0,34.1298,3.1293,-6,3,36,0,64.010232287886922,0
1,34.1298,3.5763,-5,4,36,0,64.247160621569336,0
1,34.1298,3.5763,-5,5,36,0,64.247160621569336,0
1,34.1298,3.1293,-5,6,36,0,64.247160621569336,0
-1,34.1298,3.5763,-4,7,36,0,80.082632632857582,0
-1,1856.9232,4.4704,-4,8,36,122.51,80.082632632857582,122.51
0,1856.9232,3.5763,-4,9,36,313.12,74.458391582192704,313.12
1,1856.9232,6.2586,-3,10,36,479,74.639707050276655,479
2,34.1298,6.7056,-3,11,36,590.92,69.480096758186903,590.92
3,34.1298,5.8115,-2,12,36,647.16,69.687768711565994,647.16
5,34.1298,4.9174,-2,13,36,640.31,60.56053603547852,640.31
5,34.1298,6.2586,-2,14,36,587.98,60.56053603547852,587.98
5,34.1298,4.9174,-2,15,36,469.68,60.56053603547852,469.68
5,34.1298,4.4704,-2,16,36,310.03,60.56053603547852,310.03
3,34.1298,4.4704,-2,17,36,114.52,69.687768711565994,114.52
2,1856.9232,2.6822,-2,18,36,0,74.819222225640118,0
1,1856.9232,1.3411,-3,19,36,0,74.639707050276655,0
0,1856.9232,1.3411,-3,20,36,0,80.22975039312503,0
0,34.1298,0,-3,21,36,0,80.22975039312503,0
-2,34.1298,0,-4,22,36,0,86.18375948438603,0
-2,34.1298,0,-4,23,36,0,86.18375948438603,0
-3,1856.9232,3.1293,-4,0,37,0,92.806460468027481,0
-3,34.1298,2.6822,-4,1,37,0,92.806460468027481,0
-3,34.1298,2.2352,-5,2,37,0,86.076383684481797,0
-3,34.1298,2.6822,-5,3,37,0,86.076383684481797,0
-3,34.1298,2.6822,-5,4,37,0,86.076383684481797,0
-3,34.1298,2.2352,-5,5,37,0,86.076383684481797,0
-3,34.1298,2.2352,-4,6,37,0,92.806460468027481,0
-3,34.1298,1.3411,-4,7,37,0,92.806460468027481,0
-1,1856.9232,2.2352,-3,8,37,125.25,86.28993308116371,125.25
1,1856.9232,1.3411,-2,9,37,311.66,80.375317381711923,311.66
3,1856.9232,1.3411,0,10,37,459.25,80.661880682868471,459.25
5,34.1298,3.5763,1,11,37,567.34,75.347181209710627,567.34
8,34.1298,3.5763,3,12,37,626.15,70.697540658389229,626.15
9,34.1298,4.4704,4,13,37,635.07,70.893920717171909,561.43
10,34.1298,4.0234,5,14,37,578.53,71.088489426375332,517.23
7,34.1298,3.1293,5,15,37,465.61,87.098056588182175,431.31
7,34.1298,4.0234,5,16,37,311.18,87.098056588182175,295.52
7,34.1298,3.5763,5,17,37,117.33,87.098056588182175,112.54
7,1856.9232,3.5763,5,18,37,0,87.098056588182175,0
8,1856.9232,2.2352,5,19,37,0,81.35254712725947,0
8,1856.9232,3.1293,5,20,37,0,81.35254712725947,0
7,34.1298,2.2352,6,21,37,0,93.352225938756803,0
7,34.1298,1.3411,6,22,37,0,93.352225938756803,0
8,34.1298,2.2352,7,23,37,0,93.403401079212742,0
8,1856.9232,2.6822,7,0,38,0,93.403401079212742,0
9,34.1298,2.2352,8,1,38,0,93.453994643448382,0
10,34.1298,1.3411,8,2,38,0,87.383237448204156,0
10,34.1298,2.2352,9,3,38,0,93.504015298216231,0
10,34.1298,0,9,4,38,0,93.504015298216231,0
11,34.1298,2.6822,9,5,38,0,87.47625235168276,0
11,34.1298,2.6822,9,6,38,0,87.47625235168276,0
12,34.1298,4.9174,9,7,38,0,81.879846925107273,0
12,1856.9232,7.1526,10,8,38,132.58,87.568268233149638,51.738
12,1856.9232,3.5763,10,9,38,324.29,87.568268233149638,272.18
12,1856.9232,4.9174,10,10,38,488.14,87.568268233149638,328.6
12,34.1298,6.2586,11,11,38,605.85,93.602371756764171,368.87
13,34.1298,5.8115,11,12,38,660.13,87.659298938667845,432.98
13,34.1298,7.1526,11,13,38,666.52,87.659298938667845,476.9
13,34.1298,7.5997,10,14,38,609.64,82.008317294977047,498.42
13,34.1298,5.8115,10,15,38,487.54,82.008317294977047,230.01
13,34.1298,9.3878,8,16,38,333.66,71.661522629146475,176.78
12,34.1298,11.176,8,17,38,130.73,76.519987759453471,116.99
10,1856.9232,8.0467,7,18,38,0,81.618915749746961,0
9,1856.9232,6.7056,6,19,38,0,81.486420017858691,0
8,1856.9232,7.1526,5,20,38,0,81.35254712725947,0
6,34.1298,7.1526,4,21,38,0,87.000902360951287,0
5,34.1298,7.1526,2,22,38,0,80.942482739047733,0
3,34.1298,7.5997,1,23,38,0,86.702946851967639,0
2,1856.9232,6.2586,0,0,39,0,86.60141209181765,0
1,34.1298,7.1526,-2,1,39,0,80.375317381711923,0
