18,34.1298,4.0234,9,15,51,551.04,55.656762504376644,551.04
20,34.1298,6.2586,9,16,51,390.34,49.128249109205441,390.34
19,34.1298,4.0234,9,17,51,182.48,52.278271459276347,182.48
17,1856.9232,3.1293,10,18,51,0,63.400630000924139,0
16,1856.9232,4.0234,10,19,51,0,67.563332617800626,0
15,1856.9232,3.5763,10,20,51,0,72.034842210105538,0
14,34.1298,4.4704,10,21,51,0,76.840593259432197,0
14,34.1298,3.5763,10,22,51,0,76.840593259432197,0
13,34.1298,3.5763,10,23,51,0,82.008317294977047,0
13,1856.9232,4.4704,10,0,52,0,82.008317294977047,0
13,34.1298,3.5763,10,1,52,0,82.008317294977047,0
13,34.1298,2.2352,10,2,52,0,82.008317294977047,0
13,34.1298,2.2352,10,3,52,0,82.008317294977047,0
13,34.1298,1.3411,10,4,52,0,82.008317294977047,0
13,34.1298,0,11,5,52,0,87.659298938667845,0
12,34.1298,0,11,6,52,0,93.602371756764171,0
12,34.1298,0,11,7,52,0,93.602371756764171,0
12,1856.9232,0,11,8,52,191.05,93.602371756764171,7.5402
13,1856.9232,0,12,9,52,383.16,93.650724114619621,0
13,1856.9232,2.6822,12,10,52,548.02,93.650724114619621,548.02
15,34.1298,1.3411,12,11,52,656.78,82.261352957573052,70.457
16,34.1298,0,12,12,52,708.36,77.155040268598128,109.46
17,34.1298,2.2352,12,13,52,714.68,72.401374699018376,111.3
18,34.1298,2.6822,12,14,52,652.51,67.973701215250202,104.25
18,34.1298,1.3411,12,15,52,537.69,67.973701215250202,114.78
18,34.1298,0,11,16,52,376.24,63.624996508330625,63.963
17,34.1298,2.2352,11,17,52,185.89,67.769403902782983,24.209
16,1856.9232,0,10,18,52,0,67.563332617800626,0
15,1856.9232,0,10,19,52,0,72.034842210105538,0
13,1856.9232,0,10,20,52,0,82.008317294977047,0
12,34.1298,0,9,21,52,0,81.879846925107273,0
12,34.1298,0,9,22,52,0,81.879846925107273,0
11,34.1298,0,8,23,52,0,81.750052187031002,0
11,1856.9232,1.3411,8,0,53,0,81.750052187031002,0
10,34.1298,3.1293,8,1,53,0,87.383237448204156,0
10,34.1298,2.2352,7,2,53,0,81.618915749746961,0
9,34.1298,2.2352,7,3,53,0,87.289209441366083,0
8,34.1298,1.3411,7,4,53,0,93.403401079212742,0
8,34.1298,0,7,5,53,0,93.403401079212742,0
8,34.1298,0,7,6,53,0,93.403401079212742,0
8,34.1298,0,7,7,53,0,93.403401079212742,0
10,1856.9232,0,7,8,53,198.09,81.618915749746961,194.58
11,1856.9232,0,8,9,53,388.31,81.750052187031002,383.39
13,1856.9232,3.1293,9,10,53,550.75,76.681069549305064,543.48
15,34.1298,2.6822,10,11,53,654.38,72.034842210105538,636.4
17,34.1298,3.1293,10,12,53,717.7,63.400630000924139,687.59
19,34.1298,3.5763,10,13,53,723.74,55.910188768410727,662.92
20,34.1298,4.4704,10,14,53,669.57,52.541325581065877,576.91
21,34.1298,5.8115,10,15,53,561.9,49.398701223186386,470.29
21,34.1298,5.8115,10,16,53,397.44,49.398701223186386,335.75
20,34.1298,3.5763,10,17,53,192.69,52.541325581065877,154.54
18,1856.9232,3.1293,9,18,53,0,55.656762504376644,0
17,1856.9232,2.6822,9,19,53,0,59.282134775229586,0
16,1856.9232,4.0234,9,20,53,0,63.17442886693302,0
15,34.1298,4.0234,10,21,53,0,72.034842210105538,0
15,34.1298,3.5763,10,22,53,0,72.034842210105538,0
13,34.1298,3.1293,10,23,53,0,82.008317294977047,0
13,1856.9232,2.6822,10,0,54,0,82.008317294977047,0
12,34.1298,3.1293,10,1,54,0,87.568268233149638,0
12,34.1298,2.6822,9,2,54,0,81.879846925107273,0
11,34.1298,2.6822,8,3,54,0,81.750052187031002,0
11,34.1298,2.6822,8,4,54,0,81.750052187031002,0
10,34.1298,2.6822,7,5,54,0,81.618915749746961,0
9,34.1298,2.2352,7,6,54,0,87.289209441366083,0
8,34.1298,2.2352,7,7,54,0,93.403401079212742,0
8,1856.9232,0,7,8,54,203.43,93.403401079212742,192.63
10,1856.9232,0,7,9,54,395.14,81.618915749746961,380.18
11,1856.9232,1.3411,7,10,54,554.01,76.357329126718284,546.65
12,34.1298,0,7,11,54,651.31,71.472271072726826,642.2
14,34.1298,3.1293,7,12,54,731.03,62.716459074021699,731.03
15,34.1298,1.3411,7,13,54,726.23,58.794057173929204,498.29
16,34.1298,1.3411,7,14,54,667.98,55.144459527043999,567.98
