1,34.1298,4.0234,-1,5,32,0,86.498742535900504,0
0,34.1298,3.1293,-1,6,32,0,92.97695284762996,0
0,34.1298,2.2352,-2,7,32,0,86.394921766765563,0
0,1856.9232,2.2352,-2,8,32,107.58,86.394921766765563,0
0,1856.9232,2.2352,-2,9,32,297.24,86.394921766765563,297.24
1,1856.9232,3.5763,-1,10,32,454.05,86.498742535900504,454.05
1,34.1298,3.1293,-1,11,32,561.8,86.498742535900504,561.8
2,34.1298,4.4704,-1,12,32,626.66,80.519354085990997,543.8
2,34.1298,3.1293,-1,13,32,619.82,80.519354085990997,472.91
2,34.1298,4.4704,-2,14,32,568.93,74.819222225640118,418.6
3,34.1298,4.0234,-2,15,32,450.63,69.687768711565994,351.34
3,34.1298,6.2586,-2,16,32,297.16,69.687768711565994,213.32
3,34.1298,6.7056,-2,17,32,99.685,69.687768711565994,67.269
2,1856.9232,4.4704,-2,18,32,0,74.819222225640118,0
1,1856.9232,3.5763,-3,19,32,0,74.639707050276655,0
0,1856.9232,3.1293,-3,20,32,0,80.22975039312503,0
-2,34.1298,4.0234,-3,21,32,0,92.863965557739348,0
-3,34.1298,4.9174,-4,22,32,0,92.806460468027481,0
-3,34.1298,6.7056,-5,23,32,0,86.076383684481797,0
-4,1856.9232,6.2586,-5,0,33,0,92.748266931412331,0
-4,34.1298,5.8115,-6,1,33,0,85.967788086353806,0
-5,34.1298,5.8115,-7,2,33,0,85.857954785728069,0
-5,34.1298,5.8115,-8,3,33,0,79.478232981322179,0
-5,34.1298,4.0234,-8,4,33,0,79.478232981322179,0
-5,34.1298,4.9174,-9,5,33,0,73.524031902471236,0
-6,34.1298,4.9174,-10,6,33,0,73.331443868922875,0
-7,34.1298,4.0234,-11,7,33,0,73.136895889374017,0
-7,1856.9232,4.9174,-11,8,33,114.96,73.136895889374017,114.96
-7,1856.9232,3.5763,-11,9,33,308.41,73.136895889374017,308.41
-6,1856.9232,4.0234,-11,10,33,465.61,67.746539049831213,465.61
-5,34.1298,4.4704,-12,11,33,572.98,57.971712417682106,572.98
-4,34.1298,4.0234,-12,12,33,630.1,53.767758577862509,630.1
-4,34.1298,4.9174,-13,13,33,629.84,49.604297542623229,629.84
-4,34.1298,4.9174,-13,14,33,570.59,49.604297542623229,570.59
-3,34.1298,4.9174,-13,15,33,453.75,46.035992789337357,453.75
-3,34.1298,4.9174,-12,16,33,295.02,49.899953609108429,295.02
-3,34.1298,5.8115,-12,17,33,101.74,49.899953609108429,101.74
-3,1856.9232,4.4704,-12,18,33,0,49.899953609108429,0
-4,1856.9232,3.1293,-12,19,33,0,53.767758577862509,0
-5,1856.9232,3.5763,-12,20,33,0,57.971712417682106,0
-6,34.1298,3.1293,-11,21,33,0,67.746539049831213,0
-7,34.1298,3.1293,-11,22,33,0,73.136895889374017,0
-7,34.1298,2.6822,-12,23,33,0,67.520490748189346,0
-8,1856.9232,3.1293,-12,0,34,0,72.940363975260709,0
-8,34.1298,2.2352,-13,1,34,0,67.292288412144302,0
-8,34.1298,2.2352,-13,2,34,0,67.292288412144302,0
-8,34.1298,4.4704,-12,3,34,0,72.940363975260709,0
-9,34.1298,4.0234,-12,4,34,0,78.847297839406991,0
-9,34.1298,6.2586,-13,5,34,0,72.741823834704164,0
-9,34.1298,6.2586,-13,6,34,0,72.741823834704164,0
-9,34.1298,3.1293,-13,7,34,0,72.741823834704164,0
-9,1856.9232,3.1293,-13,8,34,115.43,72.741823834704164,7.6487
-9,1856.9232,4.4704,-13,9,34,308.95,72.741823834704164,8.9477
-8,1856.9232,4.0234,-13,10,34,465.18,67.292288412144302,23.434
-7,34.1298,4.9174,-14,11,34,581.06,57.428131572094784,54.953
-6,34.1298,5.8115,-14,12,34,641.65,53.195546663514051,641.65
-5,34.1298,6.2586,-14,13,34,642.08,49.306619239457561,642.08
-4,34.1298,5.8115,-14,14,34,580.32,45.731034827067205,580.32
-4,34.1298,6.2586,-14,15,34,469.83,45.731034827067205,469.83
-4,34.1298,4.9174,-13,16,34,305.48,49.604297542623229,305.48
-4,34.1298,5.8115,-13,17,34,107.19,49.604297542623229,107.19
-4,1856.9232,4.4704,-13,18,34,0,49.604297542623229,0
-5,1856.9232,2.6822,-13,19,34,0,53.48272176266731,0
-7,1856.9232,0,-13,20,34,0,62.292098497037117,0
-7,34.1298,1.3411,-13,21,34,0,62.292098497037117,0
-8,34.1298,1.3411,-13,22,34,0,67.292288412144302,0
-8,34.1298,1.3411,-13,23,34,0,67.292288412144302,0
-9,1856.9232,1.3411,-13,0,35,0,72.741823834704164,0
-9,34.1298,2.2352,-14,1,35,0,67.061908825759474,0
-9,34.1298,0,-14,2,35,0,67.061908825759474,0
-10,34.1298,0,-13,3,35,0,78.685247466506723,0
-10,34.1298,0,-13,4,35,0,78.685247466506723,0
