15,34.1298,7.1526,3,16,64,454.49,44.501540623776982,71.864
15,34.1298,4.9174,3,17,64,237.37,44.501540623776982,39.786
13,1856.9232,5.8115,4,18,64,16.09,54.362216651363781,4.5029
12,1856.9232,4.0234,5,19,64,0,62.250959103782563,0
12,1856.9232,6.2586,5,20,64,0,62.250959103782563,0
11,34.1298,5.8115,5,21,64,0,66.505749732013612,0
11,34.1298,4.4704,6,22,64,0,71.281266407174215,0
11,34.1298,4.4704,6,23,64,0,71.281266407174215,0
10,1856.9232,4.4704,6,0,65,0,76.193074639467341,0
10,34.1298,4.4704,6,1,65,0,76.193074639467341,0
10,34.1298,4.0234,6,2,65,0,76.193074639467341,0
10,34.1298,4.0234,6,3,65,0,76.193074639467341,0
9,34.1298,4.4704,6,4,65,0,81.486420017858691,0
9,34.1298,4.4704,6,5,65,0,81.486420017858691,0
9,34.1298,4.9174,7,6,65,0,87.289209441366083,0
10,34.1298,4.0234,7,7,65,46.57,81.618915749746961,6.3088
11,1856.9232,5.8115,7,8,65,272.86,76.357329126718284,214.51
11,1856.9232,4.4704,8,9,65,464.38,81.750052187031002,370.82
12,1856.9232,4.4704,8,10,65,624.63,76.519987759453471,577.45
13,34.1298,4.0234,9,11,65,731.85,76.681069549305064,685.16
14,34.1298,4.9174,10,12,65,799.48,76.840593259432197,736.7
15,34.1298,4.0234,10,13,65,793.94,72.034842210105538,737.24
15,34.1298,4.0234,10,14,65,728.58,72.034842210105538,672.92
16,34.1298,4.9174,10,15,65,616.02,67.563332617800626,554.3
16,34.1298,6.2586,11,16,65,452.92,72.218947621294333,407.23
16,34.1298,6.2586,11,17,65,248.91,72.218947621294333,231.56
16,1856.9232,7.1526,11,18,65,20.78,72.218947621294333,19.363
16,1856.9232,7.1526,11,19,65,0,72.218947621294333,0
16,1856.9232,7.5997,11,20,65,0,72.218947621294333,0
16,34.1298,9.8349,11,21,65,0,72.218947621294333,0
16,34.1298,9.3878,11,22,65,0,72.218947621294333,0
16,34.1298,10.729,11,23,65,0,72.218947621294333,0
16,1856.9232,8.0467,11,0,66,0,72.218947621294333,0
16,34.1298,5.8115,11,1,66,0,72.218947621294333,0
15,34.1298,9.8349,10,2,66,0,72.034842210105538,0
13,34.1298,8.9408,8,3,66,0,71.661522629146475,0
11,34.1298,16.988,7,4,66,0,76.357329126718284,0
11,34.1298,4.0234,7,5,66,0,76.357329126718284,0
10,34.1298,5.8115,7,6,66,0,81.618915749746961,0
10,34.1298,3.5763,7,7,66,53.441,81.618915749746961,12.895
10,1856.9232,4.4704,6,8,66,280.27,76.193074639467341,22.465
10,1856.9232,5.8115,6,9,66,486.53,76.193074639467341,342.01
10,1856.9232,8.0467,5,10,66,658.77,71.088489426375332,339.13
10,34.1298,7.1526,3,11,66,783.38,61.77779982356094,553.81
11,34.1298,6.7056,3,12,66,846.01,57.795276383180649,595.15
12,34.1298,7.5997,2,13,66,841.67,50.387471827470875,465.32
13,34.1298,7.5997,1,14,66,770.51,43.926256823909441,502.66
13,34.1298,7.1526,0,15,66,650.25,40.865675451892798,406.95
12,34.1298,8.0467,0,16,66,480.97,43.636262119956577,270.41
12,34.1298,7.5997,-1,17,66,263.91,40.571666855740233,263.91
11,1856.9232,7.1526,-1,18,66,25.654,43.344699599247413,25.654
9,1856.9232,5.8115,-1,19,66,0,49.550247563176043,0
8,1856.9232,3.1293,-1,20,66,0,53.021005417931356,0
6,34.1298,2.6822,0,21,66,0,65.401134444271349,0
6,34.1298,0,0,22,66,0,65.401134444271349,0
5,34.1298,0,0,23,66,0,70.097333034191095,0
5,1856.9232,2.2352,-1,0,67,0,65.174364282645996,0
5,34.1298,1.3411,-2,1,67,0,60.56053603547852,0
3,34.1298,4.0234,-2,2,67,0,69.687768711565994,0
3,34.1298,4.4704,-2,3,67,0,69.687768711565994,0
2,34.1298,5.8115,-3,4,67,0,69.480096758186903,0
1,34.1298,3.5763,-3,5,67,0,74.639707050276655,0
1,34.1298,3.1293,-4,6,67,0,69.270470217066517,0
1,34.1298,3.1293,-4,7,67,58.2,69.270470217066517,58.2
2,1856.9232,2.6822,-5,8,67,278.08,59.805954669926152,278.08
3,1856.9232,5.8115,-5,9,67,484.26,55.70418152761755,484.26
5,1856.9232,6.7056,-5,10,67,654.47,48.408424535627695,654.47
6,34.1298,11.176,-5,11,67,797.84,45.165282960846739,797.84
7,34.1298,10.282,-5,12,67,855.22,42.16279699548847,855.22
8,34.1298,11.623,-5,13,67,860.77,39.381486383910357,860.77
9,34.1298,12.517,-5,14,67,794.74,36.80357217572994,794.74
9,34.1298,14.305,-5,15,67,677.97,36.80357217572994,677.97
