16,34.1298,1.3411,11,14,54,667.98,72.218947621294333,567.98
17,34.1298,0,11,15,54,545.21,67.769403902782983,475.31
17,34.1298,2.6822,11,16,54,391.02,67.769403902782983,343.8
16,34.1298,3.1293,11,17,54,197.41,72.218947621294333,175.03
16,1856.9232,3.5763,10,18,54,0,67.563332617800626,0
15,1856.9232,3.5763,10,19,54,0,72.034842210105538,0
14,1856.9232,4.0234,10,20,54,0,76.840593259432197,0
13,34.1298,4.0234,10,21,54,0,82.008317294977047,0
13,34.1298,3.5763,11,22,54,0,87.659298938667845,0
13,34.1298,2.2352,11,23,54,0,87.659298938667845,0
13,1856.9232,3.1293,11,0,55,0,87.659298938667845,0
13,34.1298,1.3411,11,1,55,0,87.659298938667845,0
14,34.1298,2.6822,11,2,55,0,82.135480367498232,0
14,34.1298,3.1293,11,3,55,0,82.135480367498232,0
14,34.1298,4.0234,12,4,55,0,87.749358083506806,0
14,34.1298,4.0234,12,5,55,0,87.749358083506806,0
14,34.1298,3.5763,12,6,55,0,87.749358083506806,0
14,34.1298,3.5763,12,7,55,0,87.749358083506806,0
15,1856.9232,4.4704,12,8,55,211.44,82.261352957573052,17.525
16,1856.9232,6.2586,13,9,55,415.69,82.385951628273233,415.69
17,1856.9232,6.2586,13,10,55,579.59,77.309999878277452,467.75
17,34.1298,4.9174,13,11,55,693.19,77.309999878277452,541.44
18,34.1298,8.9408,13,12,55,768.22,72.582141630914492,599.55
18,34.1298,5.8115,12,13,55,752.27,67.973701215250202,556.03
19,34.1298,6.2586,12,14,55,690.33,63.847544203512655,284.08
20,34.1298,6.2586,12,15,55,575.56,60.000416407887755,366.46
20,34.1298,6.2586,11,16,55,408.56,56.161812821717625,132.22
18,34.1298,6.2586,11,17,55,205.75,63.624996508330625,120.04
17,1856.9232,4.4704,10,18,55,0,63.400630000924139,0
15,1856.9232,10.729,8,19,55,0,62.946377213895722,0
13,1856.9232,8.0467,7,20,55,0,66.934299400772474,0
12,34.1298,9.3878,6,21,55,0,66.720955975372661,0
10,34.1298,4.4704,5,22,55,0,71.088489426375332,0
8,34.1298,3.5763,4,23,55,0,75.859700794653989,0
7,1856.9232,6.2586,3,0,56,0,75.690542144640617,0
6,34.1298,7.5997,2,1,56,0,75.519709049236894,0
5,34.1298,8.0467,1,2,56,0,75.347181209710627,0
4,34.1298,6.2586,0,3,56,0,75.172938060956724,0
3,34.1298,6.7056,-2,4,56,0,69.687768711565994,0
2,34.1298,6.7056,-3,5,56,0,69.480096758186903,0
1,34.1298,4.9174,-3,6,56,0,74.639707050276655,0
1,34.1298,6.7056,-4,7,56,0,69.270470217066517,0
0,1856.9232,9.8349,-4,8,56,230.42,74.458391582192704,171.53
0,1856.9232,12.964,-4,9,56,451.8,74.458391582192704,391.59
0,1856.9232,9.8349,-4,10,56,616.44,74.458391582192704,423
0,34.1298,7.1526,-4,11,56,712.98,74.458391582192704,463.96
-1,34.1298,9.3878,-5,12,56,780.71,74.275253880025062,513.48
-1,34.1298,7.1526,-5,13,56,764.1,74.275253880025062,508.07
0,34.1298,8.0467,-5,14,56,707.12,69.058867777488345,501.5
1,34.1298,6.2586,-5,15,56,581.1,64.247160621569336,442.98
1,34.1298,7.5997,-5,16,56,413.03,64.247160621569336,260.47
1,34.1298,10.729,-6,17,56,214.27,59.550291042628565,137.15
0,1856.9232,6.2586,-7,18,56,0,59.292531471931667,0
-2,1856.9232,7.1526,-7,19,56,0,68.629648895336288,0
-2,1856.9232,6.7056,-7,20,56,0,68.629648895336288,0
-2,34.1298,4.4704,-7,21,56,0,68.629648895336288,0
-2,34.1298,3.5763,-7,22,56,0,68.629648895336288,0
-2,34.1298,2.6822,-7,23,56,0,68.629648895336288,0
-3,1856.9232,2.6822,-7,0,57,0,73.90342258501218,0
-3,34.1298,2.2352,-8,1,57,0,68.41198876664923,0
-4,34.1298,2.2352,-8,2,57,0,73.714683677886498,0
-4,34.1298,0,-7,3,57,0,79.631765086518371,0
-4,34.1298,0,-7,4,57,0,79.631765086518371,0
-5,34.1298,0,-8,5,57,0,79.478232981322179,0
-5,34.1298,0,-8,6,57,0,79.478232981322179,0
-5,34.1298,0,-8,7,57,0.58309,79.478232981322179,0.58309
-5,1856.9232,2.6822,-8,8,57,220.05,79.478232981322179,220.05
-4,1856.9232,3.5763,-8,9,57,418.89,73.714683677886498,418.89
-2,1856.9232,3.1293,-8,10,57,570.74,63.530085685625657,570.74
0,34.1298,4.4704,-7,11,57,701.48,59.292531471931667,701.48
1,34.1298,4.9174,-7,12,57,764.24,55.161298117581083,764.24
3,34.1298,6.2586,-7,13,57,773.52,47.82647098974175,773.52
