-5,34.1298,4.0234,-13,22,70,0,53.48272176266731,0
-5,34.1298,3.5763,-13,23,70,0,53.48272176266731,0
-6,1856.9232,4.0234,-13,0,71,0,57.701028079024439,0
-7,34.1298,4.0234,-13,1,71,0,62.292098497037117,0
-7,34.1298,2.6822,-13,2,71,0,62.292098497037117,0
-7,34.1298,1.3411,-13,3,71,0,62.292098497037117,0
-7,34.1298,2.2352,-12,4,71,0,67.520490748189346,0
-7,34.1298,1.3411,-12,5,71,0,67.520490748189346,0
-7,34.1298,0,-13,6,71,0,62.292098497037117,0
-8,34.1298,0,-13,7,71,81.146,67.292288412144302,81.146
-7,1856.9232,0,-13,8,71,295.63,62.292098497037117,295.63
-5,1856.9232,2.6822,-13,9,71,497.73,53.48272176266731,497.73
-3,1856.9232,0,-13,10,71,653.82,46.035992789337357,465.29
-2,34.1298,2.2352,-13,11,71,784.97,42.75084848805362,515.9
-1,34.1298,0,-13,12,71,823.58,39.724427371168566,521.68
0,34.1298,2.2352,-13,13,71,827.94,36.934562105882399,827.94
1,34.1298,0,-13,14,71,749.95,34.361130155647885,749.95
1,34.1298,2.6822,-14,15,71,642.18,31.678102859839907,642.18
2,34.1298,2.6822,-14,16,71,472.89,29.488294351623079,472.89
1,34.1298,2.2352,-12,17,71,270.23,37.24517919206248,270.23
1,1856.9232,4.0234,-12,18,71,45.945,37.24517919206248,45.945
0,1856.9232,3.5763,-11,19,71,0,43.364717012800988,0
-1,1856.9232,3.5763,-10,20,71,0,50.485228998075804,0
-3,34.1298,3.5763,-10,21,71,0,58.506510777554723,0
-3,34.1298,4.4704,-9,22,71,0,63.286827800671929,0
-3,34.1298,3.5763,-9,23,71,0,63.286827800671929,0
-3,1856.9232,3.5763,-9,0,72,0,63.286827800671929,0
-3,34.1298,4.4704,-9,1,72,0,63.286827800671929,0
-3,34.1298,4.4704,-9,2,72,0,63.286827800671929,0
-3,34.1298,4.0234,-9,3,72,0,63.286827800671929,0
-4,34.1298,4.4704,-8,4,72,0,73.714683677886498,0
-4,34.1298,3.5763,-8,5,72,0,73.714683677886498,0
-4,34.1298,3.5763,-8,6,72,0,73.714683677886498,0
-4,34.1298,4.9174,-7,7,72,87.338,79.631765086518371,74.884
-3,1856.9232,4.4704,-7,8,72,313.2,73.90342258501218,286.6
-2,1856.9232,4.4704,-6,9,72,513.98,74.090271718389829,481.78
-2,1856.9232,4.9174,-5,10,72,679.25,79.933943298104751,619.78
-1,34.1298,5.8115,-5,11,72,796.59,74.275253880025062,724.41
0,34.1298,5.8115,-4,12,72,852.58,74.458391582192704,767.55
0,34.1298,3.5763,-3,13,72,835.84,80.22975039312503,751.74
1,34.1298,3.5763,-3,14,72,770.41,74.639707050276655,453.08
2,34.1298,3.5763,-2,15,72,649.38,74.819222225640118,582.55
2,34.1298,4.4704,-2,16,72,483.46,74.819222225640118,436.35
2,34.1298,4.9174,-2,17,72,279.39,74.819222225640118,252.03
1,1856.9232,3.5763,-3,18,72,49.542,74.639707050276655,44.82
1,1856.9232,3.5763,-3,19,72,0,74.639707050276655,0
0,1856.9232,6.2586,-3,20,72,0,80.22975039312503,0
-1,34.1298,4.9174,-3,21,72,0,86.28993308116371,0
-1,34.1298,3.1293,-3,22,72,0,86.28993308116371,0
-2,34.1298,4.4704,-3,23,72,0,92.863965557739348,0
-2,1856.9232,5.8115,-4,0,73,0,86.18375948438603,0
-3,34.1298,6.7056,-4,1,73,0,92.806460468027481,0
-3,34.1298,4.9174,-5,2,73,0,86.076383684481797,0
-3,34.1298,3.1293,-5,3,73,0,86.076383684481797,0
-4,34.1298,3.5763,-5,4,73,0,92.748266931412331,0
-4,34.1298,3.1293,-6,5,73,0,85.967788086353806,0
-4,34.1298,3.1293,-7,6,73,0,79.631765086518371,0
-5,34.1298,2.2352,-7,7,73,96.242,85.857954785728069,96.242
-5,1856.9232,2.2352,-8,8,73,318.36,79.478232981322179,318.36
-5,1856.9232,5.8115,-8,9,73,524.65,79.478232981322179,524.65
-4,1856.9232,4.4704,-8,10,73,679.94,73.714683677886498,679.94
-3,34.1298,3.1293,-8,11,73,787.69,68.41198876664923,345.71
-3,34.1298,4.0234,-8,12,73,853.12,68.41198876664923,201.41
-2,34.1298,3.5763,-8,13,73,845.19,63.530085685625657,241.84
-2,34.1298,4.9174,-8,14,73,777.7,63.530085685625657,537.7
-1,34.1298,5.8115,-8,15,73,654.88,59.032659326234857,358.82
-1,34.1298,4.4704,-8,16,73,481.84,59.032659326234857,219.12
-2,34.1298,8.0467,-9,17,73,289.37,58.770657971401796,166.23
-3,1856.9232,6.7056,-9,18,73,55.461,63.286827800671929,26.338
-4,1856.9232,4.9174,-9,19,73,0,68.192265367640786,0
-4,1856.9232,6.2586,-9,20,73,0,68.192265367640786,0
-5,34.1298,4.0234,-10,21,73,0,67.970456324017832,0
