1,34.1298,2.6822,1,4,24,0,100.0,0
1,34.1298,2.6822,1,5,24,0,100.0,0
1,34.1298,2.2352,1,6,24,0,100.0,0
1,34.1298,3.1293,1,7,24,0,100.0,0
1,1856.9232,3.1293,1,8,24,85.867,100.0,73.072
2,1856.9232,2.2352,1,9,24,274.43,93.087311705799863,242.7
3,1856.9232,3.1293,1,10,24,427.15,86.702946851967639,386.96
3,34.1298,2.2352,1,11,24,533.19,86.702946851967639,476.92
5,34.1298,3.1293,1,12,24,588.01,75.347181209710627,524.97
6,34.1298,2.6822,1,13,24,585.18,70.299266961976286,522.53
6,34.1298,1.3411,1,14,24,518.89,70.299266961976286,464.27
6,34.1298,2.2352,1,15,24,411.1,70.299266961976286,366.33
6,34.1298,0,1,16,24,250.37,70.299266961976286,222.67
6,34.1298,0,1,17,24,61.471,70.299266961976286,55.525
5,1856.9232,3.1293,1,18,24,0,75.347181209710627,0
4,1856.9232,3.5763,1,19,24,0,80.80291704368436,0
3,1856.9232,2.6822,1,20,24,0,86.702946851967639,0
2,34.1298,4.0234,1,21,24,0,93.087311705799863,0
2,34.1298,5.8115,1,22,24,0,93.087311705799863,0
2,34.1298,2.6822,1,23,24,0,93.087311705799863,0
3,1856.9232,2.6822,1,0,25,0,86.702946851967639,0
3,34.1298,2.6822,1,1,25,0,86.702946851967639,0
3,34.1298,3.5763,1,2,25,0,86.702946851967639,0
3,34.1298,4.4704,2,3,25,0,93.141530529950373,0
3,34.1298,4.0234,2,4,25,0,93.141530529950373,0
3,34.1298,3.1293,2,5,25,0,93.141530529950373,0
4,34.1298,2.2352,2,6,25,0,86.803362953546198,0
5,34.1298,2.6822,2,7,25,0,80.942482739047733,0
6,1856.9232,3.1293,3,8,25,87.801,81.080597043606616,87.801
7,1856.9232,1.3411,4,9,25,272.22,81.21727894075245,0
8,1856.9232,2.6822,5,10,25,422.61,81.35254712725947,0
8,34.1298,3.5763,5,11,25,530.74,81.35254712725947,530.74
9,34.1298,5.8115,5,12,25,590.53,76.027205034617879,478.04
9,34.1298,10.729,5,13,25,612.67,76.027205034617879,460.63
10,34.1298,8.0467,4,14,25,547.05,66.288662472889712,461.52
10,34.1298,9.8349,3,15,25,441.74,61.77779982356094,366.3
9,34.1298,10.282,2,16,25,277.01,61.538307312126015,231.38
8,34.1298,5.8115,1,17,25,68.905,61.296851102691427,51.133
7,1856.9232,6.2586,1,18,25,0,65.625930527633926,0
6,1856.9232,10.282,1,19,25,0,70.299266961976286,0
5,1856.9232,8.0467,0,20,25,0,70.097333034191095,0
4,34.1298,6.2586,0,21,25,0,75.172938060956724,0
3,34.1298,7.1526,0,22,25,0,80.661880682868471,0
3,34.1298,7.1526,0,23,25,0,80.661880682868471,0
3,1856.9232,6.7056,-1,0,26,0,74.996958768522148,0
2,34.1298,8.0467,-1,1,26,0,80.519354085990997,0
2,34.1298,9.8349,-1,2,26,0,80.519354085990997,0
1,34.1298,8.0467,-1,3,26,0,86.498742535900504,0
1,34.1298,6.7056,-1,4,26,0,86.498742535900504,0
0,34.1298,5.8115,-2,5,26,0,86.394921766765563,0
0,34.1298,6.2586,-2,6,26,0,86.394921766765563,0
1,34.1298,8.0467,-2,7,26,0,80.375317381711923,0
0,1856.9232,6.2586,-2,8,26,92.281,86.394921766765563,85.19
1,1856.9232,6.2586,-3,9,26,286.14,74.639707050276655,269.88
1,1856.9232,7.1526,-3,10,26,447.13,74.639707050276655,369.33
1,34.1298,8.0467,-3,11,26,564.77,74.639707050276655,485.87
1,34.1298,7.5997,-3,12,26,619.78,74.639707050276655,544.6
1,34.1298,5.8115,-3,13,26,610.31,74.639707050276655,531.37
1,34.1298,7.5997,-3,14,26,551.45,74.639707050276655,435
0,34.1298,8.0467,-4,15,26,434.77,74.458391582192704,362.49
0,34.1298,6.7056,-4,16,26,269.82,74.458391582192704,185.84
0,34.1298,5.8115,-4,17,26,72.035,74.458391582192704,47.381
-1,1856.9232,4.9174,-4,18,26,0,80.082632632857582,0
-1,1856.9232,5.8115,-4,19,26,0,80.082632632857582,0
-2,1856.9232,4.9174,-4,20,26,0,86.18375948438603,0
-2,34.1298,6.2586,-5,21,26,0,79.933943298104751,0
-2,34.1298,5.8115,-5,22,26,0,79.933943298104751,0
-2,34.1298,4.9174,-5,23,26,0,79.933943298104751,0
-3,1856.9232,6.2586,-5,0,27,0,86.076383684481797,0
-3,34.1298,5.8115,-5,1,27,0,86.076383684481797,0
-3,34.1298,3.5763,-5,2,27,0,86.076383684481797,0
-4,34.1298,6.2586,-5,3,27,0,92.748266931412331,0
