5,1856.9232,3.5763,3,18,23,0,86.902676258921971,0
4,1856.9232,4.9174,3,19,23,0,93.195121939330733,0
3,1856.9232,3.5763,2,20,23,0,93.141530529950373,0
3,34.1298,2.6822,2,21,23,0,93.141530529950373,0
3,34.1298,3.5763,2,22,23,0,93.141530529950373,0
2,34.1298,2.6822,2,23,23,0,100.0,0
2,1856.9232,3.1293,2,0,24,0,100.0,0
2,34.1298,4.0234,2,1,24,0,100.0,0
2,34.1298,2.6822,2,2,24,0,100.0,0
1,34.1298,3.5763,1,3,24,0,100.0,0
1,34.1298,2.6822,1,4,24,0,100.0,0
1,34.1298,2.6822,1,5,24,0,100.0,0
1,34.1298,2.2352,1,6,24,0,100.0,0
1,34.1298,3.1293,0,7,24,0,93.032455771758947,0
1,1856.9232,3.1293,0,8,24,85.867,93.032455771758947,73.072
1,1856.9232,2.2352,0,9,24,274.43,93.032455771758947,242.7
2,1856.9232,3.1293,0,10,24,427.15,86.60141209181765,386.96
3,34.1298,2.2352,1,11,24,533.19,86.702946851967639,476.92
4,34.1298,3.1293,1,12,24,588.01,80.80291704368436,524.97
5,34.1298,2.6822,1,13,24,585.18,75.347181209710627,522.53
6,34.1298,1.3411,1,14,24,518.89,70.299266961976286,464.27
7,34.1298,2.2352,2,15,24,411.1,70.499329419935393,366.33
7,34.1298,0,2,16,24,250.37,70.499329419935393,222.67
6,34.1298,0,2,17,24,61.471,75.519709049236894,55.525
5,1856.9232,3.1293,2,18,24,0,80.942482739047733,0
5,1856.9232,3.5763,2,19,24,0,80.942482739047733,0
3,1856.9232,2.6822,2,20,24,0,93.141530529950373,0
3,34.1298,4.0234,2,21,24,0,93.141530529950373,0
3,34.1298,5.8115,2,22,24,0,93.141530529950373,0
3,34.1298,2.6822,2,23,24,0,93.141530529950373,0
3,1856.9232,2.6822,2,0,25,0,93.141530529950373,0
3,34.1298,2.6822,2,1,25,0,93.141530529950373,0
3,34.1298,3.5763,2,2,25,0,93.141530529950373,0
3,34.1298,4.4704,2,3,25,0,93.141530529950373,0
4,34.1298,4.0234,2,4,25,0,86.803362953546198,0
4,34.1298,3.1293,3,5,25,0,93.195121939330733,0
5,34.1298,2.2352,3,6,25,0,86.902676258921971,0
5,34.1298,2.6822,3,7,25,0,86.902676258921971,0
5,1856.9232,3.1293,4,8,25,87.801,93.248095448058876,87.801
6,1856.9232,1.3411,4,9,25,272.22,87.000902360951287,0
6,1856.9232,2.6822,4,10,25,422.61,87.000902360951287,0
7,34.1298,3.5763,4,11,25,530.74,81.21727894075245,530.74
8,34.1298,5.8115,4,12,25,590.53,75.859700794653989,478.04
9,34.1298,10.729,3,13,25,612.67,66.069675859940816,460.63
8,34.1298,8.0467,3,14,25,547.05,70.697540658389229,461.52
8,34.1298,9.8349,2,15,25,441.74,65.848771416257676,366.3
7,34.1298,10.282,1,16,25,277.01,65.625930527633926,231.38
6,34.1298,5.8115,1,17,25,68.905,70.299266961976286,51.133
6,1856.9232,6.2586,1,18,25,0,70.299266961976286,0
5,1856.9232,10.282,1,19,25,0,75.347181209710627,0
4,1856.9232,8.0467,1,20,25,0,80.80291704368436,0
3,34.1298,6.2586,0,21,25,0,80.661880682868471,0
3,34.1298,7.1526,0,22,25,0,80.661880682868471,0
2,34.1298,7.1526,0,23,25,0,86.60141209181765,0
2,1856.9232,6.7056,0,0,26,0,86.60141209181765,0
1,34.1298,8.0467,0,1,26,0,93.032455771758947,0
1,34.1298,9.8349,-1,2,26,0,86.498742535900504,0
1,34.1298,8.0467,-1,3,26,0,86.498742535900504,0
1,34.1298,6.7056,-2,4,26,0,80.375317381711923,0
0,34.1298,5.8115,-2,5,26,0,86.394921766765563,0
0,34.1298,6.2586,-2,6,26,0,86.394921766765563,0
0,34.1298,8.0467,-2,7,26,0,86.394921766765563,0
-1,1856.9232,6.2586,-3,8,26,92.281,86.28993308116371,85.19
-1,1856.9232,6.2586,-3,9,26,286.14,86.28993308116371,269.88
-1,1856.9232,7.1526,-3,10,26,447.13,86.28993308116371,369.33
-1,34.1298,8.0467,-3,11,26,564.77,86.28993308116371,485.87
-1,34.1298,7.5997,-3,12,26,619.78,86.28993308116371,544.6
0,34.1298,5.8115,-3,13,26,610.31,80.22975039312503,531.37
0,34.1298,7.5997,-3,14,26,551.45,80.22975039312503,435
1,34.1298,8.0467,-4,15,26,434.77,69.270470217066517,362.49
1,34.1298,6.7056,-4,16,26,269.82,69.270470217066517,185.84
0,34.1298,5.8115,-4,17,26,72.035,74.458391582192704,47.381
