1,34.1298,4.4704,-2,1,46,0,80.375317381711923,0
1,34.1298,3.5763,-2,2,46,0,80.375317381711923,0
0,34.1298,3.5763,-3,3,46,0,80.22975039312503,0
-2,34.1298,2.2352,-4,4,46,0,86.18375948438603,0
-2,34.1298,3.1293,-5,5,46,0,79.933943298104751,0
-3,34.1298,2.6822,-5,6,46,0,86.076383684481797,0
-3,34.1298,3.1293,-6,7,46,0,79.783661265599576,0
-3,1856.9232,3.5763,-6,8,46,167.88,79.783661265599576,167.88
-3,1856.9232,6.7056,-6,9,46,372.27,79.783661265599576,372.27
-2,1856.9232,8.0467,-7,10,46,541.7,68.629648895336288,541.7
-1,34.1298,6.7056,-7,11,46,650.12,63.77121389329664,650.12
0,34.1298,5.8115,-7,12,46,703.41,59.292531471931667,703.41
1,34.1298,5.8115,-7,13,46,700.74,55.161298117581083,700.74
2,34.1298,7.1526,-7,14,46,645.16,51.348169519678208,645.16
2,34.1298,7.5997,-7,15,46,530.13,51.348169519678208,530.13
2,34.1298,6.7056,-7,16,46,361.78,51.348169519678208,361.78
1,34.1298,6.2586,-7,17,46,162.18,55.161298117581083,162.18
0,1856.9232,4.9174,-7,18,46,0,59.292531471931667,0
-2,1856.9232,4.0234,-7,19,46,0,68.629648895336288,0
-2,1856.9232,4.0234,-7,20,46,0,68.629648895336288,0
-3,34.1298,2.6822,-7,21,46,0,73.90342258501218,0
-4,34.1298,0,-7,22,46,0,79.631765086518371,0
-4,34.1298,0,-7,23,46,0,79.631765086518371,0
-4,1856.9232,2.2352,-7,0,47,0,79.631765086518371,0
-5,34.1298,2.2352,-7,1,47,0,85.857954785728069,0
-4,34.1298,2.2352,-7,2,47,0,79.631765086518371,0
-4,34.1298,1.3411,-7,3,47,0,79.631765086518371,0
-5,34.1298,3.1293,-7,4,47,0,85.857954785728069,0
-5,34.1298,1.3411,-7,5,47,0,85.857954785728069,0
-5,34.1298,0,-7,6,47,0,85.857954785728069,0
-5,34.1298,2.2352,-7,7,47,0,85.857954785728069,0
-5,1856.9232,0,-7,8,47,168.49,85.857954785728069,70.504
-4,1856.9232,0,-7,9,47,364.9,79.631765086518371,130.77
-2,1856.9232,0,-6,10,47,522.72,74.090271718389829,183.35
0,34.1298,2.2352,-5,11,47,637.9,69.058867777488345,220.73
2,34.1298,2.6822,-5,12,47,690.92,59.805954669926152,202.61
4,34.1298,3.1293,-5,13,47,692.19,51.913579899969307,692.19
5,34.1298,2.6822,-4,14,47,633.03,52.193346719271737,633.03
6,34.1298,4.4704,-4,15,47,528.84,48.696632783711877,528.84
6,34.1298,3.1293,-4,16,47,363.54,48.696632783711877,363.54
5,34.1298,5.8115,-4,17,47,167.5,52.193346719271737,167.5
5,1856.9232,4.0234,-3,18,47,0,56.238915325569103,0
4,1856.9232,1.3411,-3,19,47,0,60.311060569484063,0
3,1856.9232,1.3411,-3,20,47,0,64.714825534265714,0
2,34.1298,1.3411,-2,21,47,0,74.819222225640118,0
1,34.1298,3.1293,-2,22,47,0,80.375317381711923,0
1,34.1298,2.6822,-2,23,47,0,80.375317381711923,0
1,1856.9232,2.2352,-3,0,48,0,74.639707050276655,0
1,34.1298,2.6822,-3,1,48,0,74.639707050276655,0
0,34.1298,2.6822,-3,2,48,0,80.22975039312503,0
0,34.1298,2.2352,-2,3,48,0,86.394921766765563,0
0,34.1298,2.6822,-2,4,48,0,86.394921766765563,0
0,34.1298,3.5763,-2,5,48,0,86.394921766765563,0
0,34.1298,3.1293,-1,6,48,0,92.97695284762996,0
0,34.1298,3.1293,-1,7,48,0,92.97695284762996,0
1,1856.9232,3.5763,0,8,48,174.93,93.032455771758947,174.93
2,1856.9232,2.6822,0,9,48,368.79,86.60141209181765,368.79
4,1856.9232,4.0234,1,10,48,531.14,80.80291704368436,531.14
7,34.1298,4.4704,2,11,48,646.08,70.499329419935393,646.08
9,34.1298,3.5763,3,12,48,698.48,66.069675859940816,698.48
11,34.1298,4.0234,4,13,48,701.66,62.015344988555213,701.66
13,34.1298,4.9174,5,14,48,641.38,58.298473968988098,641.38
13,34.1298,4.4704,5,15,48,528.84,58.298473968988098,528.84
13,34.1298,6.2586,5,16,48,369.53,58.298473968988098,369.53
13,34.1298,6.2586,5,17,48,170.97,58.298473968988098,170.97
12,1856.9232,3.5763,5,18,48,0,62.250959103782563,0
11,1856.9232,2.6822,5,19,48,0,66.505749732013612,0
10,1856.9232,3.1293,5,20,48,0,71.088489426375332,0
9,34.1298,2.6822,5,21,48,0,76.027205034617879,0
8,34.1298,3.1293,5,22,48,0,81.35254712725947,0
8,34.1298,2.6822,5,23,48,0,81.35254712725947,0
7,1856.9232,1.3411,4,0,49,0,81.21727894075245,0
