12,34.1298,12.517,-4,14,67,794.74,32.490858921109286,794.74
13,34.1298,14.305,-5,15,67,677.97,28.221372776700161,677.97
13,34.1298,12.517,-5,16,67,488.65,28.221372776700161,488.65
11,34.1298,13.411,-5,17,67,272.15,32.194385670875228,272.15
10,1856.9232,8.9408,-5,18,67,29.712,34.412817757484575,29.712
8,1856.9232,4.9174,-4,19,67,0,42.46061698708948,0
8,1856.9232,2.2352,-3,20,67,0,45.751790094093153,0
7,34.1298,2.2352,-1,21,67,0,56.765604683887005,0
6,34.1298,2.2352,0,22,67,0,65.401134444271349,0
5,34.1298,2.2352,0,23,67,0,70.097333034191095,0
4,1856.9232,0,0,0,68,0,75.172938060956724,0
4,34.1298,1.3411,0,1,68,0,75.172938060956724,0
3,34.1298,0,-1,2,68,0,74.996958768522148,0
3,34.1298,0,-1,3,68,0,74.996958768522148,0
2,34.1298,0,-1,4,68,0,80.519354085990997,0
1,34.1298,0,-2,5,68,0,80.375317381711923,0
0,34.1298,2.2352,-2,6,68,0,86.394921766765563,0
0,34.1298,2.6822,-2,7,68,64.896,86.394921766765563,64.896
1,1856.9232,3.1293,-2,8,68,291.8,80.375317381711923,291.8
3,1856.9232,5.8115,-2,9,68,500.1,69.687768711565994,500.1
6,1856.9232,4.4704,-1,10,68,660.49,60.807981934065246,660.49
7,34.1298,3.1293,0,11,68,763.7,61.053414792926283,763.7
9,34.1298,3.5763,1,12,68,817.61,57.284355946111774,817.61
11,34.1298,4.0234,1,13,68,821.07,50.110207765456927,821.07
12,34.1298,2.6822,2,14,68,747.46,50.387471827470875,0
12,34.1298,4.9174,2,15,68,636.54,50.387471827470875,636.54
12,34.1298,3.1293,2,16,68,456.05,50.387471827470875,456.05
11,34.1298,4.0234,2,17,68,259.41,53.831404997309406,0
10,1856.9232,4.4704,1,18,68,33.091,53.563172947337002,1.2066
8,1856.9232,6.2586,1,19,68,0,61.296851102691427,0
7,1856.9232,6.2586,1,20,68,0,65.625930527633926,0
6,34.1298,6.7056,1,21,68,0,70.299266961976286,0
5,34.1298,5.8115,0,22,68,0,70.097333034191095,0
4,34.1298,4.4704,-1,23,68,0,69.893507175113811,0
3,1856.9232,6.7056,-2,0,69,0,69.687768711565994,0
2,34.1298,4.4704,-3,1,69,0,69.480096758186903,0
2,34.1298,4.9174,-3,2,69,0,69.480096758186903,0
1,34.1298,4.4704,-3,3,69,0,74.639707050276655,0
0,34.1298,4.4704,-3,4,69,0,80.22975039312503,0
-1,34.1298,3.5763,-4,5,69,0,80.082632632857582,0
-2,34.1298,6.2586,-5,6,69,0,79.933943298104751,0
-2,34.1298,5.8115,-5,7,69,73.405,79.933943298104751,73.405
-2,1856.9232,4.9174,-6,8,69,303.09,74.090271718389829,303.09
-2,1856.9232,6.2586,-7,9,69,512.32,68.629648895336288,512.32
0,1856.9232,8.0467,-8,10,69,678.82,54.886767826455419,678.82
1,34.1298,4.9174,-8,11,69,780.61,51.062508002695161,780.61
2,34.1298,7.5997,-8,12,69,848.82,47.532715989267842,848.82
2,34.1298,6.2586,-9,13,69,842.85,43.971749191093984,842.85
2,34.1298,5.8115,-9,14,69,774.48,43.971749191093984,774.48
2,34.1298,6.7056,-10,15,69,666.89,40.650380298084066,666.89
1,34.1298,7.5997,-10,16,69,488.66,43.669088249705375,488.66
1,34.1298,7.5997,-10,17,69,278.02,43.669088249705375,278.02
-1,1856.9232,7.1526,-11,18,69,38.758,46.640286312530385,38.758
-2,1856.9232,4.9174,-11,19,69,0,50.193594861825019,0
-3,1856.9232,3.1293,-12,20,69,0,49.899953609108429,0
-4,34.1298,4.4704,-12,21,69,0,53.767758577862509,0
-5,34.1298,3.5763,-12,22,69,0,57.971712417682106,0
-5,34.1298,3.5763,-13,23,69,0,53.48272176266731,0
-6,1856.9232,2.2352,-13,0,70,0,57.701028079024439,0
-7,34.1298,0,-13,1,70,0,62.292098497037117,0
-7,34.1298,0,-13,2,70,0,62.292098497037117,0
-7,34.1298,0,-13,3,70,0,62.292098497037117,0
-7,34.1298,2.2352,-13,4,70,0,62.292098497037117,0
-7,34.1298,2.2352,-13,5,70,0,62.292098497037117,0
-7,34.1298,3.1293,-13,6,70,0,62.292098497037117,0
-7,34.1298,3.1293,-13,7,70,79.074,62.292098497037117,79.074
-5,1856.9232,3.5763,-13,8,70,307.15,53.48272176266731,307.15
-4,1856.9232,4.4704,-12,9,70,502.45,53.767758577862509,502.45
-3,1856.9232,4.4704,-12,10,70,666.56,49.899953609108429,666.56
-2,34.1298,3.1293,-11,11,70,770.64,50.193594861825019,770.64
-2,34.1298,3.1293,-11,12,70,834.42,50.193594861825019,834.42
-2,34.1298,4.4704,-10,13,70,828.43,54.331466017503473,828.43
