15,34.1298,4.0234,1,13,48,701.66,38.584147115340144,701.66
16,34.1298,4.9174,1,14,48,641.38,36.189064699057099,641.38
17,34.1298,4.4704,2,15,48,528.84,36.481222279169508,528.84
17,34.1298,6.2586,2,16,48,369.53,36.481222279169508,369.53
16,34.1298,6.2586,3,17,48,170.97,41.739140378751529,170.97
13,1856.9232,3.5763,4,18,48,0,54.362216651363781,0
12,1856.9232,2.6822,5,19,48,0,62.250959103782563,0
11,1856.9232,3.1293,5,20,48,0,66.505749732013612,0
11,34.1298,2.6822,5,21,48,0,66.505749732013612,0
10,34.1298,3.1293,5,22,48,0,71.088489426375332,0
10,34.1298,2.6822,5,23,48,0,71.088489426375332,0
9,1856.9232,1.3411,5,0,49,0,76.027205034617879,0
8,34.1298,2.6822,5,1,49,0,81.35254712725947,0
8,34.1298,2.6822,5,2,49,0,81.35254712725947,0
7,34.1298,2.2352,5,3,49,0,87.098056588182175,0
7,34.1298,2.2352,5,4,49,0,87.098056588182175,0
7,34.1298,2.2352,4,5,49,0,81.21727894075245,0
6,34.1298,2.6822,4,6,49,0,87.000902360951287,0
6,34.1298,2.2352,4,7,49,0,87.000902360951287,0
7,1856.9232,2.2352,5,8,49,177.94,87.098056588182175,177.94
8,1856.9232,1.3411,5,9,49,372.11,81.35254712725947,372.11
10,1856.9232,4.0234,6,10,49,534.91,76.193074639467341,534.91
11,34.1298,4.4704,6,11,49,651.44,71.281266407174215,651.44
13,34.1298,4.4704,7,12,49,709.74,66.934299400772474,709.74
15,34.1298,4.4704,7,13,49,713.41,58.794057173929204,713.41
16,34.1298,6.2586,8,14,49,657.9,59.0390273693327,657.9
16,34.1298,4.0234,8,15,49,532.01,59.0390273693327,532.01
16,34.1298,4.9174,8,16,49,373.68,59.0390273693327,373.68
15,34.1298,4.9174,8,17,49,174.15,62.946377213895722,174.15
13,1856.9232,3.5763,7,18,49,0,66.934299400772474,0
12,1856.9232,1.3411,7,19,49,0,71.472271072726826,0
11,1856.9232,1.3411,7,20,49,0,76.357329126718284,0
11,34.1298,2.6822,7,21,49,0,76.357329126718284,0
10,34.1298,2.6822,7,22,49,0,81.618915749746961,0
8,34.1298,3.1293,7,23,49,0,93.403401079212742,0
7,1856.9232,4.0234,6,0,50,0,93.352225938756803,0
7,34.1298,4.0234,5,1,50,0,87.098056588182175,0
6,34.1298,4.0234,5,2,50,0,93.300460393223361,0
6,34.1298,3.1293,5,3,50,0,93.300460393223361,0
5,34.1298,3.1293,5,4,50,0,100.0,0
4,34.1298,2.6822,3,5,50,0,93.195121939330733,0
3,34.1298,2.2352,3,6,50,0,100.0,0
3,34.1298,1.3411,2,7,50,0,93.141530529950373,0
4,1856.9232,1.3411,3,8,50,182.27,93.195121939330733,175.82
6,1856.9232,0,5,9,50,375.15,93.300460393223361,360.69
8,1856.9232,2.2352,6,10,50,540.6,87.194154009949884,515.03
11,34.1298,2.2352,7,11,50,651.25,76.357329126718284,610.1
13,34.1298,1.3411,7,12,50,700.64,66.934299400772474,639.97
15,34.1298,2.6822,8,13,50,703.3,62.946377213895722,703.3
16,34.1298,0,8,14,50,635.59,59.0390273693327,635.59
17,34.1298,1.3411,8,15,50,531.65,55.401523057364912,531.65
17,34.1298,2.6822,7,16,50,376.89,51.746906785263072,376.89
16,34.1298,0,7,17,50,176.83,55.144459527043999,176.83
14,1856.9232,0,7,18,50,0,62.716459074021699,0
12,1856.9232,0,7,19,50,0,71.472271072726826,0
11,1856.9232,0,7,20,50,0,76.357329126718284,0
10,34.1298,0,8,21,50,0,87.383237448204156,0
10,34.1298,2.6822,8,22,50,0,87.383237448204156,0
9,34.1298,0,8,23,50,0,93.453994643448382,0
9,1856.9232,0,7,0,51,0,87.289209441366083,0
8,34.1298,0,7,1,51,0,93.403401079212742,0
8,34.1298,1.3411,7,2,51,0,93.403401079212742,0
8,34.1298,2.2352,7,3,51,0,93.403401079212742,0
8,34.1298,1.3411,7,4,51,0,93.403401079212742,0
7,34.1298,2.2352,6,5,51,0,93.352225938756803,0
6,34.1298,2.2352,6,6,51,0,100.0,0
6,34.1298,1.3411,6,7,51,0,100.0,0
7,1856.9232,2.2352,7,8,51,185.35,100.0,185.35
9,1856.9232,2.2352,7,9,51,380.75,87.289209441366083,380.75
11,1856.9232,2.6822,8,10,51,535.29,81.750052187031002,535.29
14,34.1298,4.9174,9,11,51,655.57,71.849040076539609,655.57
16,34.1298,5.8115,10,12,51,726.54,67.563332617800626,726.54
