2,34.1298,2.6822,2,15,18,385.3,100.0,367.42
2,34.1298,4.0234,2,16,18,230.76,100.0,217.77
3,34.1298,3.1293,1,17,18,39.375,86.702946851967639,37.298
3,1856.9232,3.1293,1,18,18,0,86.702946851967639,0
2,1856.9232,4.0234,0,19,18,0,86.60141209181765,0
2,1856.9232,3.1293,0,20,18,0,86.60141209181765,0
1,34.1298,2.6822,0,21,18,0,93.032455771758947,0
1,34.1298,4.0234,0,22,18,0,93.032455771758947,0
1,34.1298,2.2352,0,23,18,0,93.032455771758947,0
0,1856.9232,2.6822,-1,0,19,0,92.97695284762996,0
0,34.1298,2.6822,-1,1,19,0,92.97695284762996,0
0,34.1298,2.6822,-1,2,19,0,92.97695284762996,0
0,34.1298,1.3411,-1,3,19,0,92.97695284762996,0
-1,34.1298,1.3411,-1,4,19,0,100.0,0
-1,34.1298,1.3411,-1,5,19,0,100.0,0
-1,34.1298,2.2352,-1,6,19,0,100.0,0
-1,34.1298,2.6822,-1,7,19,0,100.0,0
0,1856.9232,2.2352,0,8,19,74.638,100.0,0
1,1856.9232,2.6822,0,9,19,259.45,93.032455771758947,9.5142
2,1856.9232,3.1293,1,10,19,410.26,93.087311705799863,13.593
3,34.1298,3.1293,2,11,19,511.39,93.141530529950373,82.818
5,34.1298,3.5763,2,12,19,564.43,80.942482739047733,564.43
7,34.1298,3.1293,3,13,19,560.46,75.690542144640617,201.13
8,34.1298,4.4704,3,14,19,507.54,70.697540658389229,0
9,34.1298,3.5763,3,15,19,391.47,66.069675859940816,163.52
9,34.1298,3.5763,4,16,19,234.03,70.893920717171909,29.379
8,34.1298,5.8115,4,17,19,43.454,75.859700794653989,21.112
7,1856.9232,3.1293,5,18,19,0,87.098056588182175,0
6,1856.9232,4.4704,5,19,19,0,93.300460393223361,0
6,1856.9232,6.2586,5,20,19,0,93.300460393223361,0
5,34.1298,6.7056,5,21,19,0,100.0,0
5,34.1298,4.9174,5,22,19,0,100.0,0
5,34.1298,4.0234,5,23,19,0,100.0,0
5,1856.9232,4.0234,5,0,20,0,100.0,0
5,34.1298,4.0234,5,1,20,0,100.0,0
6,34.1298,3.5763,5,2,20,0,93.300460393223361,0
6,34.1298,2.6822,6,3,20,0,100.0,0
6,34.1298,2.6822,6,4,20,0,100.0,0
6,34.1298,2.6822,6,5,20,0,100.0,0
6,34.1298,0,6,6,20,0,100.0,0
6,34.1298,0,6,7,20,0,100.0,0
6,1856.9232,0,6,8,20,75.64,100.0,73.886
6,1856.9232,0,6,9,20,258.16,100.0,251.75
7,1856.9232,3.5763,6,10,20,413.89,93.352225938756803,405.87
8,34.1298,4.4704,7,11,20,518.59,93.403401079212742,459.73
9,34.1298,3.5763,7,12,20,565.67,87.289209441366083,500.14
10,34.1298,4.9174,7,13,20,571.75,81.618915749746961,544.62
11,34.1298,2.2352,8,14,20,504.13,81.750052187031002,436.84
11,34.1298,3.1293,8,15,20,398.09,81.750052187031002,339.07
11,34.1298,0,8,16,20,231.93,81.750052187031002,205.11
10,34.1298,0,8,17,20,45.78,87.383237448204156,40.848
10,1856.9232,0,7,18,20,0,81.618915749746961,0
9,1856.9232,2.2352,7,19,20,0,87.289209441366083,0
8,1856.9232,2.2352,7,20,20,0,93.403401079212742,0
8,34.1298,2.6822,7,21,20,0,93.403401079212742,0
8,34.1298,2.6822,7,22,20,0,93.403401079212742,0
7,34.1298,4.4704,7,23,20,0,100.0,0
7,1856.9232,3.5763,7,0,21,0,100.0,0
7,34.1298,3.5763,7,1,21,0,100.0,0
7,34.1298,3.1293,7,2,21,0,100.0,0
8,34.1298,3.1293,7,3,21,0,93.403401079212742,0
8,34.1298,2.2352,7,4,21,0,93.403401079212742,0
7,34.1298,2.2352,7,5,21,0,100.0,0
7,34.1298,1.3411,7,6,21,0,100.0,0
7,34.1298,2.6822,7,7,21,0,100.0,0
7,1856.9232,1.3411,7,8,21,78.694,100.0,78.694
8,1856.9232,1.3411,8,9,21,265.11,100.0,265.11
10,1856.9232,2.2352,8,10,21,414.41,87.383237448204156,414.41
12,34.1298,3.1293,9,11,21,517.18,81.879846925107273,517.18
13,34.1298,2.2352,10,12,21,564.52,82.008317294977047,564.52
14,34.1298,6.2586,10,13,21,580.68,76.840593259432197,580.68
15,34.1298,4.4704,10,14,21,515.59,72.034842210105538,415.55
