12,1856.9232,3.1293,12,0,55,0,100.0,0
13,34.1298,1.3411,12,1,55,0,93.650724114619621,0
13,34.1298,2.6822,12,2,55,0,93.650724114619621,0
13,34.1298,3.1293,12,3,55,0,93.650724114619621,0
13,34.1298,4.0234,12,4,55,0,93.650724114619621,0
13,34.1298,4.0234,12,5,55,0,93.650724114619621,0
13,34.1298,3.5763,12,6,55,0,93.650724114619621,0
13,34.1298,3.5763,12,7,55,0,93.650724114619621,0
15,1856.9232,4.4704,13,8,55,211.44,87.838459056539648,17.525
16,1856.9232,6.2586,13,9,55,415.69,82.385951628273233,415.69
17,1856.9232,6.2586,13,10,55,579.59,77.309999878277452,467.75
18,34.1298,4.9174,13,11,55,693.19,72.582141630914492,541.44
19,34.1298,8.9408,13,12,55,768.22,68.176241889351857,599.55
20,34.1298,5.8115,13,13,55,752.27,64.068288820119463,556.03
20,34.1298,6.2586,13,14,55,690.33,64.068288820119463,284.08
20,34.1298,6.2586,12,15,55,575.56,60.000416407887755,366.46
18,34.1298,6.2586,11,16,55,408.56,63.624996508330625,132.22
17,34.1298,6.2586,10,17,55,205.75,63.400630000924139,120.04
16,1856.9232,4.4704,9,18,55,0,63.17442886693302,0
14,1856.9232,10.729,7,19,55,0,62.716459074021699,0
12,1856.9232,8.0467,6,20,55,0,66.720955975372661,0
10,34.1298,9.3878,4,21,55,0,66.288662472889712,0
8,34.1298,4.4704,2,22,55,0,65.848771416257676,0
7,34.1298,3.5763,2,23,55,0,70.499329419935393,0
6,1856.9232,6.2586,1,0,56,0,70.299266961976286,0
5,34.1298,7.5997,0,1,56,0,70.097333034191095,0
3,34.1298,8.0467,0,2,56,0,80.661880682868471,0
2,34.1298,6.2586,-2,3,56,0,74.819222225640118,0
1,34.1298,6.7056,-2,4,56,0,80.375317381711923,0
0,34.1298,6.7056,-3,5,56,0,80.22975039312503,0
0,34.1298,4.9174,-4,6,56,0,74.458391582192704,0
0,34.1298,6.7056,-5,7,56,0,69.058867777488345,0
-1,1856.9232,9.8349,-5,8,56,230.42,74.275253880025062,171.53
-2,1856.9232,12.964,-6,9,56,451.8,74.090271718389829,391.59
-2,1856.9232,9.8349,-6,10,56,616.44,74.090271718389829,423
-2,34.1298,7.1526,-6,11,56,712.98,74.090271718389829,463.96
-1,34.1298,9.3878,-7,12,56,780.71,63.77121389329664,513.48
0,34.1298,7.1526,-7,13,56,764.1,59.292531471931667,508.07
1,34.1298,8.0467,-7,14,56,707.12,55.161298117581083,501.5
1,34.1298,6.2586,-7,15,56,581.1,55.161298117581083,442.98
1,34.1298,7.5997,-7,16,56,413.03,55.161298117581083,260.47
1,34.1298,10.729,-7,17,56,214.27,55.161298117581083,137.15
0,1856.9232,6.2586,-7,18,56,0,59.292531471931667,0
0,1856.9232,7.1526,-8,19,56,0,54.886767826455419,0
-2,1856.9232,6.7056,-8,20,56,0,63.530085685625657,0
-3,34.1298,4.4704,-7,21,56,0,73.90342258501218,0
-3,34.1298,3.5763,-7,22,56,0,73.90342258501218,0
-4,34.1298,2.6822,-7,23,56,0,79.631765086518371,0
-4,1856.9232,2.6822,-8,0,57,0,73.714683677886498,0
-4,34.1298,2.2352,-8,1,57,0,73.714683677886498,0
-4,34.1298,2.2352,-8,2,57,0,73.714683677886498,0
-5,34.1298,0,-7,3,57,0,85.857954785728069,0
-5,34.1298,0,-7,4,57,0,85.857954785728069,0
-5,34.1298,0,-8,5,57,0,79.478232981322179,0
-5,34.1298,0,-8,6,57,0,79.478232981322179,0
-5,34.1298,0,-8,7,57,0.58309,79.478232981322179,0.58309
-4,1856.9232,2.6822,-8,8,57,220.05,73.714683677886498,220.05
-3,1856.9232,3.5763,-7,9,57,418.89,73.90342258501218,418.89
-2,1856.9232,3.1293,-7,10,57,570.74,68.629648895336288,570.74
0,34.1298,4.4704,-7,11,57,701.48,59.292531471931667,701.48
2,34.1298,4.9174,-6,12,57,764.24,55.433765044562676,764.24
4,34.1298,6.2586,-6,13,57,773.52,48.118372270447765,773.52
6,34.1298,6.7056,-5,14,57,706.03,45.165282960846739,706.03
6,34.1298,8.0467,-5,15,57,593.54,45.165282960846739,593.54
6,34.1298,8.9408,-5,16,57,427.25,45.165282960846739,427.25
6,34.1298,6.7056,-5,17,57,214.82,45.165282960846739,214.82
5,1856.9232,4.4704,-4,18,57,0,52.193346719271737,0
4,1856.9232,3.1293,-4,19,57,0,55.972560585266336,0
3,1856.9232,2.6822,-4,20,57,0,60.059538976411261,0
2,34.1298,2.6822,-4,21,57,0,64.482018531033972,0
1,34.1298,3.1293,-3,22,57,0,74.639707050276655,0
1,34.1298,0,-3,23,57,0,74.639707050276655,0
