10,34.1298,0,9,6,53,0,93.504015298216231,0
9,34.1298,0,9,7,53,0,100.0,0
10,1856.9232,0,10,8,53,198.09,100.0,194.58
11,1856.9232,0,11,9,53,388.31,100.0,383.39
12,1856.9232,3.1293,11,10,53,550.75,93.602371756764171,543.48
14,34.1298,2.6822,11,11,53,654.38,82.135480367498232,636.4
15,34.1298,3.1293,11,12,53,717.7,76.998577407491453,687.59
17,34.1298,3.5763,11,13,53,723.74,67.769403902782983,662.92
18,34.1298,4.4704,11,14,53,669.57,63.624996508330625,576.91
19,34.1298,5.8115,12,15,53,561.9,63.847544203512655,470.29
20,34.1298,5.8115,12,16,53,397.44,60.000416407887755,335.75
19,34.1298,3.5763,12,17,53,192.69,63.847544203512655,154.54
18,1856.9232,3.1293,12,18,53,0,67.973701215250202,0
17,1856.9232,2.6822,12,19,53,0,72.401374699018376,0
16,1856.9232,4.0234,12,20,53,0,77.155040268598128,0
16,34.1298,4.0234,12,21,53,0,77.155040268598128,0
15,34.1298,3.5763,12,22,53,0,82.261352957573052,0
15,34.1298,3.1293,12,23,53,0,82.261352957573052,0
14,1856.9232,2.6822,12,0,54,0,87.749358083506806,0
14,34.1298,3.1293,12,1,54,0,87.749358083506806,0
13,34.1298,2.6822,12,2,54,0,93.650724114619621,0
13,34.1298,2.6822,11,3,54,0,87.659298938667845,0
12,34.1298,2.6822,11,4,54,0,93.602371756764171,0
12,34.1298,2.6822,11,5,54,0,93.602371756764171,0
11,34.1298,2.2352,10,6,54,0,93.553471551666661,0
11,34.1298,2.2352,10,7,54,0,93.553471551666661,0
11,1856.9232,0,10,8,54,203.43,93.553471551666661,192.63
11,1856.9232,0,9,9,54,395.14,87.47625235168276,380.18
12,1856.9232,1.3411,9,10,54,554.01,81.879846925107273,546.65
13,34.1298,0,9,11,54,651.31,76.681069549305064,642.2
15,34.1298,3.1293,10,12,54,731.03,72.034842210105538,731.03
16,34.1298,1.3411,10,13,54,726.23,67.563332617800626,498.29
17,34.1298,1.3411,10,14,54,667.98,63.400630000924139,567.98
18,34.1298,0,10,15,54,545.21,59.52339300816999,475.31
18,34.1298,2.6822,10,16,54,391.02,59.52339300816999,343.8
17,34.1298,3.1293,10,17,54,197.41,63.400630000924139,175.03
15,1856.9232,3.5763,10,18,54,0,72.034842210105538,0
14,1856.9232,3.5763,10,19,54,0,76.840593259432197,0
13,1856.9232,4.0234,11,20,54,0,87.659298938667845,0
13,34.1298,4.0234,11,21,54,0,87.659298938667845,0
13,34.1298,3.5763,11,22,54,0,87.659298938667845,0
13,34.1298,2.2352,11,23,54,0,87.659298938667845,0
12,1856.9232,3.1293,12,0,55,0,100.0,0
12,34.1298,1.3411,12,1,55,0,100.0,0
12,34.1298,2.6822,12,2,55,0,100.0,0
13,34.1298,3.1293,12,3,55,0,93.650724114619621,0
13,34.1298,4.0234,12,4,55,0,93.650724114619621,0
13,34.1298,4.0234,12,5,55,0,93.650724114619621,0
14,34.1298,3.5763,12,6,55,0,87.749358083506806,0
14,34.1298,3.5763,12,7,55,0,87.749358083506806,0
15,1856.9232,4.4704,12,8,55,211.44,82.261352957573052,17.525
16,1856.9232,6.2586,13,9,55,415.69,82.385951628273233,415.69
17,1856.9232,6.2586,13,10,55,579.59,77.309999878277452,467.75
18,34.1298,4.9174,13,11,55,693.19,72.582141630914492,541.44
18,34.1298,8.9408,13,12,55,768.22,72.582141630914492,599.55
19,34.1298,5.8115,13,13,55,752.27,68.176241889351857,556.03
20,34.1298,6.2586,13,14,55,690.33,64.068288820119463,284.08
20,34.1298,6.2586,12,15,55,575.56,60.000416407887755,366.46
19,34.1298,6.2586,12,16,55,408.56,63.847544203512655,132.22
18,34.1298,6.2586,11,17,55,205.75,63.624996508330625,120.04
17,1856.9232,4.4704,11,18,55,0,67.769403902782983,0
16,1856.9232,10.729,10,19,55,0,67.563332617800626,0
15,1856.9232,8.0467,9,20,55,0,67.355469880183023,0
13,34.1298,9.3878,8,21,55,0,71.661522629146475,0
12,34.1298,4.4704,7,22,55,0,71.472271072726826,0
11,34.1298,3.5763,6,23,55,0,71.281266407174215,0
9,1856.9232,6.2586,4,0,56,0,70.893920717171909,0
8,34.1298,7.5997,3,1,56,0,70.697540658389229,0
7,34.1298,8.0467,2,2,56,0,70.499329419935393,0
5,34.1298,6.2586,1,3,56,0,75.347181209710627,0
4,34.1298,6.7056,0,4,56,0,75.172938060956724,0
3,34.1298,6.7056,-1,5,56,0,74.996958768522148,0
