-1,34.1298,3.1293,-3,7,61,22.775,86.28993308116371,10.949
0,1856.9232,3.5763,-3,8,61,242.76,80.22975039312503,114.39
0,1856.9232,4.4704,-3,9,61,443.14,80.22975039312503,346.73
2,1856.9232,8.0467,-3,10,61,625.6,69.480096758186903,428.91
3,34.1298,6.7056,-3,11,61,741.68,64.714825534265714,526.34
3,34.1298,6.7056,-4,12,61,800.86,60.059538976411261,670.19
4,34.1298,6.2586,-4,13,61,791.17,55.972560585266336,535.07
4,34.1298,8.9408,-5,14,61,746.32,51.913579899969307,505.4
4,34.1298,6.2586,-5,15,61,615.16,51.913579899969307,15.474
4,34.1298,7.1526,-5,16,61,447.67,51.913579899969307,70.662
3,34.1298,6.7056,-5,17,61,233.86,55.70418152761755,38.871
3,1856.9232,7.1526,-4,18,61,3.6351,60.059538976411261,3.6351
2,1856.9232,4.0234,-4,19,61,0,64.482018531033972,0
2,1856.9232,4.0234,-4,20,61,0,64.482018531033972,0
1,34.1298,3.5763,-4,21,61,0,69.270470217066517,0
0,34.1298,2.2352,-4,22,61,0,74.458391582192704,0
0,34.1298,1.3411,-4,23,61,0,74.458391582192704,0
-1,1856.9232,2.2352,-5,0,62,0,74.275253880025062,0
-2,34.1298,2.2352,-5,1,62,0,79.933943298104751,0
-3,34.1298,4.0234,-6,2,62,0,79.783661265599576,0
-3,34.1298,4.4704,-7,3,62,0,73.90342258501218,0
-4,34.1298,5.8115,-7,4,62,0,79.631765086518371,0
-5,34.1298,4.0234,-8,5,62,0,79.478232981322179,0
-7,34.1298,4.4704,-9,6,62,0,85.634501876922116,0
-7,34.1298,4.4704,-9,7,62,29.197,85.634501876922116,29.197
-5,1856.9232,4.4704,-10,8,62,255.9,67.970456324017832,255.9
-4,1856.9232,5.8115,-10,9,62,460.63,63.041420265899106,460.63
-4,1856.9232,4.4704,-10,10,62,628.89,63.041420265899106,628.89
-3,34.1298,6.2586,-11,11,62,750.84,54.050669234684477,750.84
-1,34.1298,2.6822,-11,12,62,785.52,46.640286312530385,785.52
0,34.1298,3.5763,-11,13,62,774.92,43.364717012800988,414.33
1,34.1298,4.9174,-11,14,62,718.8,40.343261175482503,718.8
1,34.1298,4.4704,-10,15,62,602.62,43.669088249705375,602.62
1,34.1298,3.5763,-10,16,62,433.5,43.669088249705375,433.5
1,34.1298,4.4704,-10,17,62,233.93,43.669088249705375,233.93
0,1856.9232,3.1293,-10,18,62,7.7255,46.939627560558947,7.7255
-1,1856.9232,0,-10,19,62,0,50.485228998075804,0
-2,1856.9232,0,-10,20,62,0,54.331466017503473,0
-3,34.1298,0,-9,21,62,0,63.286827800671929,0
-3,34.1298,0,-9,22,62,0,63.286827800671929,0
-3,34.1298,0,-9,23,62,0,63.286827800671929,0
-3,1856.9232,1.3411,-8,0,63,0,68.41198876664923,0
-3,34.1298,0,-8,1,63,0,68.41198876664923,0
-3,34.1298,1.3411,-8,2,63,0,68.41198876664923,0
-3,34.1298,2.6822,-7,3,63,0,73.90342258501218,0
-3,34.1298,4.4704,-7,4,63,0,73.90342258501218,0
-3,34.1298,2.6822,-7,5,63,0,73.90342258501218,0
-3,34.1298,2.6822,-7,6,63,0,73.90342258501218,0
-3,34.1298,4.9174,-6,7,63,34.308,79.783661265599576,9.6651
-2,1856.9232,4.9174,-5,8,63,255.74,79.933943298104751,43.76
0,1856.9232,3.5763,-5,9,63,451.18,69.058867777488345,185.88
1,1856.9232,4.4704,-5,10,63,620.26,64.247160621569336,620.26
3,34.1298,7.1526,-4,11,63,751.05,60.059538976411261,751.05
5,34.1298,7.1526,-3,12,63,815.02,56.238915325569103,815.02
7,34.1298,7.1526,-2,13,63,814.85,52.74704994628754,814.85
8,34.1298,6.2586,-2,14,63,741.23,49.267538618783618,741.23
9,34.1298,6.2586,-1,15,63,618.16,49.550247563176043,618.16
10,34.1298,6.7056,0,16,63,444.08,49.831135182182052,444.08
9,34.1298,8.0467,0,17,63,238.3,53.293043109703412,238.3
8,1856.9232,7.5997,0,18,63,12.055,57.025965891592342,12.055
6,1856.9232,7.1526,0,19,63,0,65.401134444271349,0
5,1856.9232,6.7056,0,20,63,0,70.097333034191095,0
3,34.1298,6.7056,1,21,63,0,86.702946851967639,0
2,34.1298,6.2586,1,22,63,0,93.087311705799863,0
2,34.1298,6.7056,1,23,63,0,93.087311705799863,0
2,1856.9232,4.9174,0,0,64,0,86.60141209181765,0
2,34.1298,5.8115,0,1,64,0,86.60141209181765,0
2,34.1298,4.4704,0,2,64,0,86.60141209181765,0
2,34.1298,4.0234,1,3,64,0,93.087311705799863,0
2,34.1298,4.0234,1,4,64,0,93.087311705799863,0
3,34.1298,3.5763,1,5,64,0,86.702946851967639,0
3,34.1298,3.1293,1,6,64,0,86.702946851967639,0
