8,34.1298,6.7056,5,16,17,232.24,81.35254712725947,222.44
7,34.1298,5.8115,4,17,17,36.333,81.21727894075245,35.109
6,1856.9232,5.8115,3,18,17,0,81.080597043606616,0
6,1856.9232,5.8115,3,19,17,0,81.080597043606616,0
5,1856.9232,4.9174,3,20,17,0,86.902676258921971,0
5,34.1298,4.9174,2,21,17,0,80.942482739047733,0
5,34.1298,5.8115,2,22,17,0,80.942482739047733,0
3,34.1298,4.9174,1,23,17,0,86.702946851967639,0
3,1856.9232,4.0234,1,0,18,0,86.702946851967639,0
2,34.1298,4.0234,1,1,18,0,93.087311705799863,0
2,34.1298,4.9174,1,2,18,0,93.087311705799863,0
1,34.1298,5.8115,0,3,18,0,93.032455771758947,0
1,34.1298,5.8115,0,4,18,0,93.032455771758947,0
1,34.1298,7.1526,0,5,18,0,93.032455771758947,0
0,34.1298,4.0234,0,6,18,0,100.0,0
0,34.1298,4.9174,0,7,18,0,100.0,0
0,1856.9232,3.5763,0,8,18,73.829,100.0,68.595
1,1856.9232,3.1293,0,9,18,259.78,93.032455771758947,240.03
1,1856.9232,3.5763,0,10,18,411.46,93.032455771758947,392.28
2,34.1298,3.5763,0,11,18,516.42,86.60141209181765,491.51
3,34.1298,3.5763,1,12,18,566.52,86.702946851967639,546.76
5,34.1298,4.0234,1,13,18,563.31,75.347181209710627,543.64
5,34.1298,2.6822,1,14,18,496.17,75.347181209710627,475.75
6,34.1298,2.6822,1,15,18,385.3,70.299266961976286,367.42
6,34.1298,4.0234,1,16,18,230.76,70.299266961976286,217.77
5,34.1298,3.1293,1,17,18,39.375,75.347181209710627,37.298
4,1856.9232,3.1293,1,18,18,0,80.80291704368436,0
3,1856.9232,4.0234,1,19,18,0,86.702946851967639,0
2,1856.9232,3.1293,1,20,18,0,93.087311705799863,0
2,34.1298,2.6822,0,21,18,0,86.60141209181765,0
2,34.1298,4.0234,0,22,18,0,86.60141209181765,0
1,34.1298,2.2352,0,23,18,0,93.032455771758947,0
1,1856.9232,2.6822,0,0,19,0,93.032455771758947,0
1,34.1298,2.6822,0,1,19,0,93.032455771758947,0
1,34.1298,2.6822,0,2,19,0,93.032455771758947,0
1,34.1298,1.3411,0,3,19,0,93.032455771758947,0
0,34.1298,1.3411,0,4,19,0,100.0,0
0,34.1298,1.3411,-1,5,19,0,92.97695284762996,0
0,34.1298,2.2352,-1,6,19,0,92.97695284762996,0
0,34.1298,2.6822,-1,7,19,0,92.97695284762996,0
0,1856.9232,2.2352,0,8,19,74.638,100.0,0
1,1856.9232,2.6822,1,9,19,259.45,100.0,9.5142
2,1856.9232,3.1293,1,10,19,410.26,93.087311705799863,13.593
3,34.1298,3.1293,2,11,19,511.39,93.141530529950373,82.818
5,34.1298,3.5763,2,12,19,564.43,80.942482739047733,564.43
6,34.1298,3.1293,3,13,19,560.46,81.080597043606616,201.13
7,34.1298,4.4704,3,14,19,507.54,75.690542144640617,0
8,34.1298,3.5763,3,15,19,391.47,70.697540658389229,163.52
8,34.1298,3.5763,3,16,19,234.03,70.697540658389229,29.379
8,34.1298,5.8115,3,17,19,43.454,70.697540658389229,21.112
7,1856.9232,3.1293,4,18,19,0,81.21727894075245,0
6,1856.9232,4.4704,4,19,19,0,87.000902360951287,0
5,1856.9232,6.2586,4,20,19,0,93.248095448058876,0
5,34.1298,6.7056,3,21,19,0,86.902676258921971,0
5,34.1298,4.9174,3,22,19,0,86.902676258921971,0
5,34.1298,4.0234,3,23,19,0,86.902676258921971,0
5,1856.9232,4.0234,3,0,20,0,86.902676258921971,0
5,34.1298,4.0234,3,1,20,0,86.902676258921971,0
5,34.1298,3.5763,3,2,20,0,86.902676258921971,0
5,34.1298,2.6822,3,3,20,0,86.902676258921971,0
5,34.1298,2.6822,3,4,20,0,86.902676258921971,0
5,34.1298,2.6822,3,5,20,0,86.902676258921971,0
5,34.1298,0,4,6,20,0,93.248095448058876,0
4,34.1298,0,4,7,20,0,100.0,0
4,1856.9232,0,4,8,20,75.64,100.0,73.886
4,1856.9232,0,4,9,20,258.16,100.0,251.75
4,1856.9232,3.5763,4,10,20,413.89,100.0,405.87
5,34.1298,4.4704,5,11,20,518.59,100.0,459.73
6,34.1298,3.5763,5,12,20,565.67,93.300460393223361,500.14
7,34.1298,4.9174,6,13,20,571.75,93.352225938756803,544.62
8,34.1298,2.2352,6,14,20,504.13,87.194154009949884,436.84
9,34.1298,3.1293,6,15,20,398.09,81.486420017858691,339.07
