13,34.1298,4.0234,12,4,55,0,93.650724114619621,0
13,34.1298,4.0234,12,5,55,0,93.650724114619621,0
13,34.1298,3.5763,12,6,55,0,93.650724114619621,0
13,34.1298,3.5763,13,7,55,0,100.0,0
15,1856.9232,4.4704,13,8,55,211.44,87.838459056539648,17.525
17,1856.9232,6.2586,13,9,55,415.69,77.309999878277452,415.69
18,1856.9232,6.2586,13,10,55,579.59,72.582141630914492,467.75
20,34.1298,4.9174,13,11,55,693.19,64.068288820119463,541.44
20,34.1298,8.9408,13,12,55,768.22,64.068288820119463,599.55
21,34.1298,5.8115,13,13,55,752.27,60.236208780511127,556.03
21,34.1298,6.2586,12,14,55,690.33,56.411645702142742,284.08
21,34.1298,6.2586,12,15,55,575.56,56.411645702142742,366.46
20,34.1298,6.2586,12,16,55,408.56,60.000416407887755,132.22
18,34.1298,6.2586,11,17,55,205.75,63.624996508330625,120.04
17,1856.9232,4.4704,11,18,55,0,67.769403902782983,0
15,1856.9232,10.729,10,19,55,0,72.034842210105538,0
12,1856.9232,8.0467,8,20,55,0,76.519987759453471,0
10,34.1298,9.3878,6,21,55,0,76.193074639467341,0
8,34.1298,4.4704,5,22,55,0,81.35254712725947,0
7,34.1298,3.5763,4,23,55,0,81.21727894075245,0
6,1856.9232,6.2586,3,0,56,0,81.080597043606616,0
5,34.1298,7.5997,2,1,56,0,80.942482739047733,0
4,34.1298,8.0467,1,2,56,0,80.80291704368436,0
3,34.1298,6.2586,-1,3,56,0,74.996958768522148,0
1,34.1298,6.7056,-2,4,56,0,80.375317381711923,0
0,34.1298,6.7056,-3,5,56,0,80.22975039312503,0
0,34.1298,4.9174,-4,6,56,0,74.458391582192704,0
-1,34.1298,6.7056,-5,7,56,0,74.275253880025062,0
-2,1856.9232,9.8349,-5,8,56,230.42,79.933943298104751,171.53
-2,1856.9232,12.964,-6,9,56,451.8,74.090271718389829,391.59
-2,1856.9232,9.8349,-7,10,56,616.44,68.629648895336288,423
-2,34.1298,7.1526,-7,11,56,712.98,68.629648895336288,463.96
-1,34.1298,9.3878,-7,12,56,780.71,63.77121389329664,513.48
0,34.1298,7.1526,-7,13,56,764.1,59.292531471931667,508.07
0,34.1298,8.0467,-7,14,56,707.12,59.292531471931667,501.5
0,34.1298,6.2586,-7,15,56,581.1,59.292531471931667,442.98
0,34.1298,7.5997,-7,16,56,413.03,59.292531471931667,260.47
0,34.1298,10.729,-8,17,56,214.27,54.886767826455419,137.15
-1,1856.9232,6.2586,-8,18,56,0,59.032659326234857,0
-2,1856.9232,7.1526,-8,19,56,0,63.530085685625657,0
-3,1856.9232,6.7056,-8,20,56,0,68.41198876664923,0
-3,34.1298,4.4704,-8,21,56,0,68.41198876664923,0
-4,34.1298,3.5763,-8,22,56,0,73.714683677886498,0
-4,34.1298,2.6822,-8,23,56,0,73.714683677886498,0
-4,1856.9232,2.6822,-8,0,57,0,73.714683677886498,0
-4,34.1298,2.2352,-8,1,57,0,73.714683677886498,0
-4,34.1298,2.2352,-8,2,57,0,73.714683677886498,0
-4,34.1298,0,-8,3,57,0,73.714683677886498,0
-4,34.1298,0,-8,4,57,0,73.714683677886498,0
-5,34.1298,0,-8,5,57,0,79.478232981322179,0
-5,34.1298,0,-8,6,57,0,79.478232981322179,0
-5,34.1298,0,-8,7,57,0.58309,79.478232981322179,0.58309
-4,1856.9232,2.6822,-8,8,57,220.05,73.714683677886498,220.05
-3,1856.9232,3.5763,-8,9,57,418.89,68.41198876664923,418.89
-1,1856.9232,3.1293,-7,10,57,570.74,63.77121389329664,570.74
1,34.1298,4.4704,-7,11,57,701.48,55.161298117581083,701.48
3,34.1298,4.9174,-7,12,57,764.24,47.82647098974175,764.24
5,34.1298,6.2586,-6,13,57,773.52,44.869465702799424,773.52
6,34.1298,6.7056,-5,14,57,706.03,45.165282960846739,706.03
6,34.1298,8.0467,-5,15,57,593.54,45.165282960846739,593.54
6,34.1298,8.9408,-5,16,57,427.25,45.165282960846739,427.25
6,34.1298,6.7056,-5,17,57,214.82,45.165282960846739,214.82
5,1856.9232,4.4704,-5,18,57,0,48.408424535627695,0
3,1856.9232,3.1293,-4,19,57,0,60.059538976411261,0
2,1856.9232,2.6822,-4,20,57,0,64.482018531033972,0
2,34.1298,2.6822,-3,21,57,0,69.480096758186903,0
1,34.1298,3.1293,-2,22,57,0,80.375317381711923,0
1,34.1298,0,-2,23,57,0,80.375317381711923,0
1,1856.9232,0,-2,0,58,0,80.375317381711923,0
1,34.1298,0,-2,1,58,0,80.375317381711923,0
0,34.1298,0,-2,2,58,0,86.394921766765563,0
0,34.1298,1.3411,-2,3,58,0,86.394921766765563,0
