10,1856.9232,4.0234,3,10,49,534.91,61.77779982356094,534.91
12,34.1298,4.4704,5,11,49,651.44,62.250959103782563,651.44
14,34.1298,4.4704,6,12,49,709.74,58.547210575568684,709.74
16,34.1298,4.4704,7,13,49,713.41,55.144459527043999,713.41
17,34.1298,6.2586,7,14,49,657.9,51.746906785263072,657.9
17,34.1298,4.0234,7,15,49,532.01,51.746906785263072,532.01
17,34.1298,4.9174,7,16,49,373.68,51.746906785263072,373.68
16,34.1298,4.9174,7,17,49,174.15,55.144459527043999,174.15
15,1856.9232,3.5763,7,18,49,0,58.794057173929204,0
13,1856.9232,1.3411,7,19,49,0,66.934299400772474,0
12,1856.9232,1.3411,7,20,49,0,71.472271072726826,0
11,34.1298,2.6822,7,21,49,0,76.357329126718284,0
10,34.1298,2.6822,7,22,49,0,81.618915749746961,0
8,34.1298,3.1293,6,23,49,0,87.194154009949884,0
8,1856.9232,4.0234,6,0,50,0,87.194154009949884,0
7,34.1298,4.0234,6,1,50,0,93.352225938756803,0
6,34.1298,4.0234,5,2,50,0,93.300460393223361,0
6,34.1298,3.1293,5,3,50,0,93.300460393223361,0
5,34.1298,3.1293,5,4,50,0,100.0,0
5,34.1298,2.6822,4,5,50,0,93.248095448058876,0
4,34.1298,2.2352,4,6,50,0,100.0,0
4,34.1298,1.3411,3,7,50,0,93.195121939330733,0
5,1856.9232,1.3411,4,8,50,182.27,93.248095448058876,175.82
6,1856.9232,0,5,9,50,375.15,93.300460393223361,360.69
8,1856.9232,2.2352,6,10,50,540.6,87.194154009949884,515.03
10,34.1298,2.2352,6,11,50,651.25,76.193074639467341,610.1
13,34.1298,1.3411,7,12,50,700.64,66.934299400772474,639.97
15,34.1298,2.6822,8,13,50,703.3,62.946377213895722,703.3
17,34.1298,0,8,14,50,635.59,55.401523057364912,635.59
18,34.1298,1.3411,8,15,50,531.65,52.013467849556939,531.65
18,34.1298,2.6822,8,16,50,376.89,52.013467849556939,376.89
17,34.1298,0,8,17,50,176.83,55.401523057364912,176.83
16,1856.9232,0,7,18,50,0,55.144459527043999,0
14,1856.9232,0,7,19,50,0,62.716459074021699,0
12,1856.9232,0,7,20,50,0,71.472271072726826,0
11,34.1298,0,8,21,50,0,81.750052187031002,0
11,34.1298,2.6822,8,22,50,0,81.750052187031002,0
10,34.1298,0,8,23,50,0,87.383237448204156,0
9,1856.9232,0,7,0,51,0,87.289209441366083,0
8,34.1298,0,7,1,51,0,93.403401079212742,0
8,34.1298,1.3411,7,2,51,0,93.403401079212742,0
8,34.1298,2.2352,7,3,51,0,93.403401079212742,0
8,34.1298,1.3411,7,4,51,0,93.403401079212742,0
7,34.1298,2.2352,7,5,51,0,100.0,0
7,34.1298,2.2352,7,6,51,0,100.0,0
7,34.1298,1.3411,7,7,51,0,100.0,0
8,1856.9232,2.2352,7,8,51,185.35,93.403401079212742,185.35
10,1856.9232,2.2352,8,9,51,380.75,87.383237448204156,380.75
12,1856.9232,2.6822,10,10,51,535.29,87.568268233149638,535.29
14,34.1298,4.9174,10,11,51,655.57,76.840593259432197,655.57
16,34.1298,5.8115,11,12,51,726.54,72.218947621294333,726.54
17,34.1298,3.5763,11,13,51,724.83,67.769403902782983,724.83
19,34.1298,5.8115,12,14,51,677.48,63.847544203512655,677.48
20,34.1298,4.0234,12,15,51,551.04,60.000416407887755,551.04
20,34.1298,6.2586,12,16,51,390.34,60.000416407887755,390.34
18,34.1298,4.0234,11,17,51,182.48,63.624996508330625,182.48
17,1856.9232,3.1293,11,18,51,0,67.769403902782983,0
15,1856.9232,4.0234,10,19,51,0,72.034842210105538,0
15,1856.9232,3.5763,10,20,51,0,72.034842210105538,0
14,34.1298,4.4704,11,21,51,0,82.135480367498232,0
13,34.1298,3.5763,11,22,51,0,87.659298938667845,0
13,34.1298,3.5763,11,23,51,0,87.659298938667845,0
13,1856.9232,4.4704,11,0,52,0,87.659298938667845,0
12,34.1298,3.5763,10,1,52,0,87.568268233149638,0
12,34.1298,2.2352,11,2,52,0,93.602371756764171,0
12,34.1298,2.2352,11,3,52,0,93.602371756764171,0
12,34.1298,1.3411,11,4,52,0,93.602371756764171,0
12,34.1298,0,11,5,52,0,93.602371756764171,0
11,34.1298,0,10,6,52,0,93.553471551666661,0
10,34.1298,0,10,7,52,0,100.0,0
10,1856.9232,0,10,8,52,191.05,100.0,7.5402
11,1856.9232,0,10,9,52,383.16,93.553471551666661,0
