8,34.1298,4.9174,7,13,20,571.75,93.403401079212742,544.62
9,34.1298,2.2352,8,14,20,504.13,93.453994643448382,436.84
10,34.1298,3.1293,8,15,20,398.09,87.383237448204156,339.07
11,34.1298,0,8,16,20,231.93,81.750052187031002,205.11
11,34.1298,0,8,17,20,45.78,81.750052187031002,40.848
11,1856.9232,0,8,18,20,0,81.750052187031002,0
10,1856.9232,2.2352,8,19,20,0,87.383237448204156,0
10,1856.9232,2.2352,8,20,20,0,87.383237448204156,0
10,34.1298,2.6822,8,21,20,0,87.383237448204156,0
10,34.1298,2.6822,8,22,20,0,87.383237448204156,0
10,34.1298,4.4704,8,23,20,0,87.383237448204156,0
10,1856.9232,3.5763,8,0,21,0,87.383237448204156,0
10,34.1298,3.5763,9,1,21,0,93.504015298216231,0
10,34.1298,3.1293,10,2,21,0,100.0,0
10,34.1298,3.1293,10,3,21,0,100.0,0
9,34.1298,2.2352,9,4,21,0,100.0,0
9,34.1298,2.2352,9,5,21,0,100.0,0
9,34.1298,1.3411,9,6,21,0,100.0,0
9,34.1298,2.6822,9,7,21,0,100.0,0
10,1856.9232,1.3411,9,8,21,78.694,93.504015298216231,78.694
11,1856.9232,1.3411,10,9,21,265.11,93.553471551666661,265.11
11,1856.9232,2.2352,10,10,21,414.41,93.553471551666661,414.41
12,34.1298,3.1293,10,11,21,517.18,87.568268233149638,517.18
13,34.1298,2.2352,10,12,21,564.52,82.008317294977047,564.52
14,34.1298,6.2586,10,13,21,580.68,76.840593259432197,580.68
15,34.1298,4.4704,11,14,21,515.59,76.998577407491453,415.55
15,34.1298,4.4704,11,15,21,404.43,76.998577407491453,404.43
15,34.1298,4.0234,11,16,21,244.41,76.998577407491453,244.41
14,34.1298,4.4704,11,17,21,51.525,82.135480367498232,51.525
13,1856.9232,2.6822,11,18,21,0,87.659298938667845,0
12,1856.9232,1.3411,10,19,21,0,87.568268233149638,0
11,1856.9232,0,10,20,21,0,93.553471551666661,0
11,34.1298,0,10,21,21,0,93.553471551666661,0
10,34.1298,0,9,22,21,0,93.504015298216231,0
10,34.1298,1.3411,9,23,21,0,93.504015298216231,0
8,1856.9232,2.2352,8,0,22,0,100.0,0
8,34.1298,2.2352,8,1,22,0,100.0,0
8,34.1298,2.2352,8,2,22,0,100.0,0
8,34.1298,0,8,3,22,0,100.0,0
7,34.1298,2.2352,7,4,22,0,100.0,0
7,34.1298,0,7,5,22,0,100.0,0
6,34.1298,1.3411,6,6,22,0,100.0,0
6,34.1298,0,6,7,22,0,100.0,0
6,1856.9232,0,6,8,22,79.831,100.0,78.9
7,1856.9232,1.3411,7,9,22,266.61,100.0,266.61
8,1856.9232,0,7,10,22,408.65,93.403401079212742,13.98
9,34.1298,1.3411,8,11,22,506.08,93.453994643448382,33.037
10,34.1298,2.6822,8,12,22,560.48,87.383237448204156,348.23
11,34.1298,2.6822,9,13,22,565.78,87.47625235168276,352.28
12,34.1298,4.9174,9,14,22,523.68,81.879846925107273,523.68
12,34.1298,4.0234,9,15,22,405.96,81.879846925107273,390.36
12,34.1298,4.4704,8,16,22,247.52,76.519987759453471,247.52
12,34.1298,4.4704,8,17,22,54.96,76.519987759453471,54.96
11,1856.9232,4.9174,8,18,22,0,81.750052187031002,0
10,1856.9232,4.4704,7,19,22,0,81.618915749746961,0
8,1856.9232,5.8115,7,20,22,0,93.403401079212742,0
7,34.1298,4.9174,7,21,22,0,100.0,0
7,34.1298,3.5763,7,22,22,0,100.0,0
6,34.1298,3.5763,6,23,22,0,100.0,0
6,1856.9232,3.5763,6,0,23,0,100.0,0
6,34.1298,3.5763,5,1,23,0,93.300460393223361,0
5,34.1298,4.9174,5,2,23,0,100.0,0
5,34.1298,4.9174,5,3,23,0,100.0,0
5,34.1298,2.6822,5,4,23,0,100.0,0
4,34.1298,4.0234,4,5,23,0,100.0,0
4,34.1298,6.2586,4,6,23,0,100.0,0
4,34.1298,7.5997,4,7,23,0,100.0,0
4,1856.9232,7.1526,4,8,23,86.193,100.0,83.23
5,1856.9232,6.7056,4,9,23,278.37,93.248095448058876,268.04
5,1856.9232,6.2586,4,10,23,433.65,93.248095448058876,413.83
5,34.1298,4.4704,4,11,23,534.97,93.248095448058876,509.45
6,34.1298,6.2586,4,12,23,595.32,87.000902360951287,562.39
