3,34.1298,3.1293,2,6,42,0,93.141530529950373,0
3,34.1298,2.2352,2,7,42,0,93.141530529950373,0
3,1856.9232,2.6822,2,8,42,146.08,93.141530529950373,146.08
3,1856.9232,2.2352,2,9,42,338.5,93.141530529950373,338.5
5,1856.9232,1.3411,3,10,42,489.87,86.902676258921971,489.87
6,34.1298,2.6822,4,11,42,600.93,87.000902360951287,600.93
8,34.1298,3.1293,5,12,42,659.43,81.35254712725947,659.43
10,34.1298,2.6822,6,13,42,656.83,76.193074639467341,656.83
11,34.1298,3.5763,6,14,42,604.36,71.281266407174215,604.36
11,34.1298,3.1293,7,15,42,491.96,76.357329126718284,491.96
11,34.1298,0,7,16,42,327.01,76.357329126718284,327.01
11,34.1298,1.3411,7,17,42,137.35,76.357329126718284,137.35
10,1856.9232,1.3411,7,18,42,0,81.618915749746961,0
9,1856.9232,3.1293,6,19,42,0,81.486420017858691,0
8,1856.9232,3.5763,6,20,42,0,87.194154009949884,0
7,34.1298,6.2586,6,21,42,0,93.352225938756803,0
7,34.1298,4.0234,5,22,42,0,87.098056588182175,0
6,34.1298,4.4704,5,23,42,0,93.300460393223361,0
6,1856.9232,3.1293,5,0,43,0,93.300460393223361,0
6,34.1298,4.9174,5,1,43,0,93.300460393223361,0
5,34.1298,4.0234,4,2,43,0,93.248095448058876,0
5,34.1298,5.8115,3,3,43,0,86.902676258921971,0
4,34.1298,5.8115,2,4,43,0,86.803362953546198,0
3,34.1298,4.0234,2,5,43,0,93.141530529950373,0
3,34.1298,3.5763,2,6,43,0,93.141530529950373,0
2,34.1298,3.5763,2,7,43,0,100.0,0
2,1856.9232,7.1526,1,8,43,156.5,93.087311705799863,12.872
2,1856.9232,5.8115,1,9,43,357.07,93.087311705799863,25.864
3,1856.9232,3.5763,1,10,43,509.74,86.702946851967639,509.74
5,34.1298,7.1526,1,11,43,631.12,75.347181209710627,390.56
6,34.1298,6.7056,1,12,43,684.14,70.299266961976286,684.14
7,34.1298,9.3878,1,13,43,696.61,65.625930527633926,560.9
7,34.1298,11.623,1,14,43,651.92,65.625930527633926,461.49
6,34.1298,10.282,0,15,43,533.84,65.401134444271349,533.84
5,34.1298,9.8349,-1,16,43,372.34,65.174364282645996,372.34
5,34.1298,8.0467,-2,17,43,156.85,60.56053603547852,156.85
3,1856.9232,7.1526,-3,18,43,0,64.714825534265714,0
2,1856.9232,5.8115,-3,19,43,0,69.480096758186903,0
1,1856.9232,6.2586,-4,20,43,0,69.270470217066517,0
0,34.1298,4.9174,-4,21,43,0,74.458391582192704,0
-1,34.1298,6.2586,-4,22,43,0,80.082632632857582,0
-2,34.1298,6.7056,-5,23,43,0,79.933943298104751,0
-2,1856.9232,4.9174,-5,0,44,0,79.933943298104751,0
-3,34.1298,3.5763,-5,1,44,0,86.076383684481797,0
-3,34.1298,4.0234,-5,2,44,0,86.076383684481797,0
-3,34.1298,2.6822,-5,3,44,0,86.076383684481797,0
-4,34.1298,2.2352,-5,4,44,0,92.748266931412331,0
-4,34.1298,1.3411,-6,5,44,0,85.967788086353806,0
-4,34.1298,2.6822,-7,6,44,0,79.631765086518371,0
-4,34.1298,0,-7,7,44,0,79.631765086518371,0
-4,1856.9232,0,-6,8,44,152.31,85.967788086353806,152.31
-3,1856.9232,1.3411,-5,9,44,342.13,86.076383684481797,342.13
-2,1856.9232,1.3411,-5,10,44,498.04,79.933943298104751,498.04
0,34.1298,2.2352,-5,11,44,609.37,69.058867777488345,609.37
1,34.1298,2.6822,-5,12,44,681.47,64.247160621569336,681.47
3,34.1298,3.5763,-5,13,44,691.02,55.70418152761755,691.02
4,34.1298,2.6822,-4,14,44,629.58,55.972560585266336,629.58
5,34.1298,5.8115,-4,15,44,520.7,52.193346719271737,520.7
5,34.1298,3.5763,-4,16,44,348.76,52.193346719271737,348.76
3,34.1298,4.9174,-4,17,44,152.11,60.059538976411261,152.11
2,1856.9232,3.1293,-4,18,44,0,64.482018531033972,0
1,1856.9232,2.2352,-4,19,44,0,69.270470217066517,0
0,1856.9232,0,-4,20,44,0,74.458391582192704,0
0,34.1298,0,-4,21,44,0,74.458391582192704,0
-1,34.1298,1.3411,-4,22,44,0,80.082632632857582,0
-2,34.1298,2.2352,-4,23,44,0,86.18375948438603,0
-2,1856.9232,1.3411,-4,0,45,0,86.18375948438603,0
-2,34.1298,2.2352,-4,1,45,0,86.18375948438603,0
-2,34.1298,3.1293,-4,2,45,0,86.18375948438603,0
-2,34.1298,3.1293,-5,3,45,0,79.933943298104751,0
-2,34.1298,3.1293,-5,4,45,0,79.933943298104751,0
-2,34.1298,3.1293,-5,5,45,0,79.933943298104751,0
