12,34.1298,3.1293,10,1,53,0,87.568268233149638,0
11,34.1298,2.2352,10,2,53,0,93.553471551666661,0
11,34.1298,2.2352,10,3,53,0,93.553471551666661,0
10,34.1298,1.3411,10,4,53,0,100.0,0
10,34.1298,0,10,5,53,0,100.0,0
10,34.1298,0,10,6,53,0,100.0,0
10,34.1298,0,10,7,53,0,100.0,0
11,1856.9232,0,11,8,53,198.09,100.0,194.58
12,1856.9232,0,11,9,53,388.31,93.602371756764171,383.39
14,1856.9232,3.1293,11,10,53,550.75,82.135480367498232,543.48
16,34.1298,2.6822,12,11,53,654.38,77.155040268598128,636.4
17,34.1298,3.1293,12,12,53,717.7,72.401374699018376,687.59
18,34.1298,3.5763,12,13,53,723.74,67.973701215250202,662.92
19,34.1298,4.4704,12,14,53,669.57,63.847544203512655,576.91
20,34.1298,5.8115,12,15,53,561.9,60.000416407887755,470.29
20,34.1298,5.8115,12,16,53,397.44,60.000416407887755,335.75
19,34.1298,3.5763,12,17,53,192.69,63.847544203512655,154.54
18,1856.9232,3.1293,12,18,53,0,67.973701215250202,0
17,1856.9232,2.6822,12,19,53,0,72.401374699018376,0
16,1856.9232,4.0234,11,20,53,0,72.218947621294333,0
15,34.1298,4.0234,11,21,53,0,76.998577407491453,0
15,34.1298,3.5763,11,22,53,0,76.998577407491453,0
14,34.1298,3.1293,11,23,53,0,82.135480367498232,0
14,1856.9232,2.6822,12,0,54,0,87.749358083506806,0
13,34.1298,3.1293,12,1,54,0,93.650724114619621,0
13,34.1298,2.6822,11,2,54,0,87.659298938667845,0
13,34.1298,2.6822,11,3,54,0,87.659298938667845,0
12,34.1298,2.6822,11,4,54,0,93.602371756764171,0
12,34.1298,2.6822,10,5,54,0,87.568268233149638,0
11,34.1298,2.2352,10,6,54,0,93.553471551666661,0
11,34.1298,2.2352,10,7,54,0,93.553471551666661,0
12,1856.9232,0,10,8,54,203.43,87.568268233149638,192.63
13,1856.9232,0,10,9,54,395.14,82.008317294977047,380.18
15,1856.9232,1.3411,11,10,54,554.01,76.998577407491453,546.65
16,34.1298,0,11,11,54,651.31,72.218947621294333,642.2
17,34.1298,3.1293,11,12,54,731.03,67.769403902782983,731.03
18,34.1298,1.3411,11,13,54,726.23,63.624996508330625,498.29
18,34.1298,1.3411,11,14,54,667.98,63.624996508330625,567.98
19,34.1298,0,11,15,54,545.21,59.762815682936242,475.31
19,34.1298,2.6822,11,16,54,391.02,59.762815682936242,343.8
18,34.1298,3.1293,11,17,54,197.41,63.624996508330625,175.03
17,1856.9232,3.5763,11,18,54,0,67.769403902782983,0
16,1856.9232,3.5763,11,19,54,0,72.218947621294333,0
16,1856.9232,4.0234,11,20,54,0,72.218947621294333,0
15,34.1298,4.0234,11,21,54,0,76.998577407491453,0
15,34.1298,3.5763,11,22,54,0,76.998577407491453,0
14,34.1298,2.2352,11,23,54,0,82.135480367498232,0
14,1856.9232,3.1293,12,0,55,0,87.749358083506806,0
14,34.1298,1.3411,12,1,55,0,87.749358083506806,0
13,34.1298,2.6822,12,2,55,0,93.650724114619621,0
13,34.1298,3.1293,12,3,55,0,93.650724114619621,0
13,34.1298,4.0234,12,4,55,0,93.650724114619621,0
12,34.1298,4.0234,12,5,55,0,100.0,0
12,34.1298,3.5763,12,6,55,0,100.0,0
13,34.1298,3.5763,12,7,55,0,93.650724114619621,0
14,1856.9232,4.4704,12,8,55,211.44,87.749358083506806,17.525
16,1856.9232,6.2586,12,9,55,415.69,77.155040268598128,415.69
17,1856.9232,6.2586,12,10,55,579.59,72.401374699018376,467.75
18,34.1298,4.9174,12,11,55,693.19,67.973701215250202,541.44
18,34.1298,8.9408,12,12,55,768.22,67.973701215250202,599.55
17,34.1298,5.8115,11,13,55,752.27,67.769403902782983,556.03
17,34.1298,6.2586,11,14,55,690.33,67.769403902782983,284.08
17,34.1298,6.2586,10,15,55,575.56,63.400630000924139,366.46
17,34.1298,6.2586,9,16,55,408.56,59.282134775229586,132.22
16,34.1298,6.2586,8,17,55,205.75,59.0390273693327,120.04
16,1856.9232,4.4704,8,18,55,0,59.0390273693327,0
15,1856.9232,10.729,7,19,55,0,58.794057173929204,0
13,1856.9232,8.0467,7,20,55,0,66.934299400772474,0
11,34.1298,9.3878,6,21,55,0,71.281266407174215,0
10,34.1298,4.4704,6,22,55,0,76.193074639467341,0
9,34.1298,3.5763,5,23,55,0,76.027205034617879,0
8,1856.9232,6.2586,4,0,56,0,75.859700794653989,0
