-8,34.1298,1.3411,-13,23,34,0,67.292288412144302,0
-9,1856.9232,1.3411,-14,0,35,0,67.061908825759474,0
-9,34.1298,2.2352,-14,1,35,0,67.061908825759474,0
-10,34.1298,0,-15,2,35,0,66.829328565369394,0
-10,34.1298,0,-15,3,35,0,66.829328565369394,0
-11,34.1298,0,-15,4,35,0,72.338620174891417,0
-12,34.1298,0,-15,5,35,0,78.355800941122155,0
-12,34.1298,0,-15,6,35,0,78.355800941122155,0
-12,34.1298,0,-15,7,35,0,78.355800941122155,0
-10,1856.9232,0,-15,8,35,116.18,66.829328565369394,116.18
-8,1856.9232,0,-15,9,35,300.21,57.153006402185255,300.21
-6,1856.9232,2.2352,-14,10,35,452.02,53.195546663514051,452.02
-4,34.1298,3.5763,-15,11,35,571.42,42.130157881773087,571.42
-3,34.1298,6.7056,-15,12,35,658.27,39.099508319665297,658.27
-1,34.1298,5.8115,-14,13,35,663.79,36.622616619764386,663.79
0,34.1298,4.0234,-14,14,35,589.97,34.050592986126624,0
0,34.1298,4.9174,-14,15,35,471.01,34.050592986126624,11.027
0,34.1298,4.0234,-14,16,35,306.66,34.050592986126624,8.12
0,34.1298,4.0234,-13,17,35,110.88,36.934562105882399,110.88
0,1856.9232,3.5763,-13,18,35,0,36.934562105882399,0
-1,1856.9232,3.1293,-12,19,35,0,43.058636576831397,0
-2,1856.9232,2.2352,-12,20,35,0,46.339075732890365,0
-3,34.1298,2.6822,-11,21,35,0,54.050669234684477,0
-3,34.1298,3.5763,-10,22,35,0,58.506510777554723,0
-3,34.1298,3.5763,-10,23,35,0,58.506510777554723,0
-2,1856.9232,3.5763,-9,0,36,0,58.770657971401796,0
-2,34.1298,4.0234,-9,1,36,0,58.770657971401796,0
-2,34.1298,3.5763,-8,2,36,0,63.530085685625657,0
-2,34.1298,3.1293,-7,3,36,0,68.629648895336288,0
-2,34.1298,3.5763,-6,4,36,0,74.090271718389829,0
-1,34.1298,3.5763,-5,5,36,0,74.275253880025062,0
-1,34.1298,3.1293,-5,6,36,0,74.275253880025062,0
0,34.1298,3.5763,-4,7,36,0,74.458391582192704,0
0,1856.9232,4.4704,-4,8,36,122.51,74.458391582192704,122.51
1,1856.9232,3.5763,-3,9,36,313.12,74.639707050276655,313.12
1,1856.9232,6.2586,-2,10,36,479,80.375317381711923,479
2,34.1298,6.7056,-2,11,36,590.92,74.819222225640118,590.92
3,34.1298,5.8115,-1,12,36,647.16,74.996958768522148,647.16
5,34.1298,4.9174,-1,13,36,640.31,65.174364282645996,640.31
5,34.1298,6.2586,-1,14,36,587.98,65.174364282645996,587.98
5,34.1298,4.9174,-2,15,36,469.68,60.56053603547852,469.68
5,34.1298,4.4704,-2,16,36,310.03,60.56053603547852,310.03
3,34.1298,4.4704,-2,17,36,114.52,69.687768711565994,114.52
2,1856.9232,2.6822,-2,18,36,0,74.819222225640118,0
1,1856.9232,1.3411,-2,19,36,0,80.375317381711923,0
0,1856.9232,1.3411,-3,20,36,0,80.22975039312503,0
-2,34.1298,0,-3,21,36,0,92.863965557739348,0
-3,34.1298,0,-4,22,36,0,92.806460468027481,0
-3,34.1298,0,-4,23,36,0,92.806460468027481,0
-3,1856.9232,3.1293,-4,0,37,0,92.806460468027481,0
-3,34.1298,2.6822,-4,1,37,0,92.806460468027481,0
-3,34.1298,2.2352,-4,2,37,0,92.806460468027481,0
-3,34.1298,2.6822,-4,3,37,0,92.806460468027481,0
-3,34.1298,2.6822,-4,4,37,0,92.806460468027481,0
-3,34.1298,2.2352,-4,5,37,0,92.806460468027481,0
-3,34.1298,2.2352,-4,6,37,0,92.806460468027481,0
-3,34.1298,1.3411,-3,7,37,0,100.0,0
-2,1856.9232,2.2352,-3,8,37,125.25,92.863965557739348,125.25
0,1856.9232,1.3411,-2,9,37,311.66,86.394921766765563,311.66
2,1856.9232,1.3411,-1,10,37,459.25,80.519354085990997,459.25
4,34.1298,3.5763,0,11,37,567.34,75.172938060956724,567.34
6,34.1298,3.5763,1,12,37,626.15,70.299266961976286,626.15
8,34.1298,4.4704,2,13,37,635.07,65.848771416257676,561.43
9,34.1298,4.0234,3,14,37,578.53,66.069675859940816,517.23
10,34.1298,3.1293,3,15,37,465.61,61.77779982356094,431.31
10,34.1298,4.0234,3,16,37,311.18,61.77779982356094,295.52
8,34.1298,3.5763,3,17,37,117.33,70.697540658389229,112.54
7,1856.9232,3.5763,4,18,37,0,81.21727894075245,0
6,1856.9232,2.2352,5,19,37,0,93.300460393223361,0
6,1856.9232,3.1293,5,20,37,0,93.300460393223361,0
7,34.1298,2.2352,6,21,37,0,93.352225938756803,0
7,34.1298,1.3411,6,22,37,0,93.352225938756803,0
