-5,1856.9232,3.5763,-12,20,33,0,57.971712417682106,0
-6,34.1298,3.1293,-12,21,33,0,62.54407583902627,0
-7,34.1298,3.1293,-12,22,33,0,67.520490748189346,0
-7,34.1298,2.6822,-13,23,33,0,62.292098497037117,0
-8,1856.9232,3.1293,-13,0,34,0,67.292288412144302,0
-8,34.1298,2.2352,-13,1,34,0,67.292288412144302,0
-8,34.1298,2.2352,-13,2,34,0,67.292288412144302,0
-8,34.1298,4.4704,-14,3,34,0,62.037890614710676,0
-9,34.1298,4.0234,-14,4,34,0,67.061908825759474,0
-9,34.1298,6.2586,-14,5,34,0,67.061908825759474,0
-9,34.1298,6.2586,-14,6,34,0,67.061908825759474,0
-9,34.1298,3.1293,-14,7,34,0,67.061908825759474,0
-9,1856.9232,3.1293,-14,8,34,115.43,67.061908825759474,7.6487
-9,1856.9232,4.4704,-14,9,34,308.95,67.061908825759474,8.9477
-8,1856.9232,4.0234,-13,10,34,465.18,67.292288412144302,23.434
-7,34.1298,4.9174,-14,11,34,581.06,57.428131572094784,54.953
-6,34.1298,5.8115,-14,12,34,641.65,53.195546663514051,641.65
-5,34.1298,6.2586,-15,13,34,642.08,45.424199584158785,642.08
-4,34.1298,5.8115,-15,14,34,580.32,42.130157881773087,580.32
-4,34.1298,6.2586,-14,15,34,469.83,45.731034827067205,469.83
-4,34.1298,4.9174,-14,16,34,305.48,45.731034827067205,305.48
-4,34.1298,5.8115,-15,17,34,107.19,42.130157881773087,107.19
-5,1856.9232,4.4704,-15,18,34,0,45.424199584158785,0
-7,1856.9232,2.6822,-14,19,34,0,57.428131572094784,0
-7,1856.9232,0,-14,20,34,0,57.428131572094784,0
-8,34.1298,1.3411,-13,21,34,0,67.292288412144302,0
-8,34.1298,1.3411,-13,22,34,0,67.292288412144302,0
-8,34.1298,1.3411,-13,23,34,0,67.292288412144302,0
-9,1856.9232,1.3411,-14,0,35,0,67.061908825759474,0
-9,34.1298,2.2352,-14,1,35,0,67.061908825759474,0
-9,34.1298,0,-14,2,35,0,67.061908825759474,0
-9,34.1298,0,-14,3,35,0,67.061908825759474,0
-10,34.1298,0,-14,4,35,0,72.541250869952918,0
-10,34.1298,0,-15,5,35,0,66.829328565369394,0
-11,34.1298,0,-15,6,35,0,72.338620174891417,0
-11,34.1298,0,-15,7,35,0,72.338620174891417,0
-10,1856.9232,0,-15,8,35,116.18,66.829328565369394,116.18
-8,1856.9232,0,-14,9,35,300.21,62.037890614710676,300.21
-6,1856.9232,2.2352,-13,10,35,452.02,57.701028079024439,452.02
-4,34.1298,3.5763,-14,11,35,571.42,45.731034827067205,571.42
-2,34.1298,6.7056,-14,12,35,658.27,39.412725065080416,658.27
-1,34.1298,5.8115,-15,13,35,663.79,33.738939564103227,663.79
0,34.1298,4.0234,-14,14,35,589.97,34.050592986126624,0
0,34.1298,4.9174,-14,15,35,471.01,34.050592986126624,11.027
0,34.1298,4.0234,-13,16,35,306.66,36.934562105882399,8.12
0,34.1298,4.0234,-13,17,35,110.88,36.934562105882399,110.88
-1,1856.9232,3.5763,-13,18,35,0,39.724427371168566,0
-2,1856.9232,3.1293,-13,19,35,0,42.75084848805362,0
-3,1856.9232,2.2352,-12,20,35,0,49.899953609108429,0
-3,34.1298,2.6822,-11,21,35,0,54.050669234684477,0
-3,34.1298,3.5763,-10,22,35,0,58.506510777554723,0
-3,34.1298,3.5763,-10,23,35,0,58.506510777554723,0
-3,1856.9232,3.5763,-10,0,36,0,58.506510777554723,0
-3,34.1298,4.0234,-9,1,36,0,63.286827800671929,0
-3,34.1298,3.5763,-8,2,36,0,68.41198876664923,0
-3,34.1298,3.1293,-8,3,36,0,68.41198876664923,0
-3,34.1298,3.5763,-7,4,36,0,73.90342258501218,0
-2,34.1298,3.5763,-6,5,36,0,74.090271718389829,0
-2,34.1298,3.1293,-5,6,36,0,79.933943298104751,0
-2,34.1298,3.5763,-5,7,36,0,79.933943298104751,0
-2,1856.9232,4.4704,-4,8,36,122.51,86.18375948438603,122.51
0,1856.9232,3.5763,-3,9,36,313.12,80.22975039312503,313.12
1,1856.9232,6.2586,-3,10,36,479,74.639707050276655,479
2,34.1298,6.7056,-2,11,36,590.92,74.819222225640118,590.92
3,34.1298,5.8115,0,12,36,647.16,80.661880682868471,647.16
5,34.1298,4.9174,0,13,36,640.31,70.097333034191095,640.31
6,34.1298,6.2586,0,14,36,587.98,65.401134444271349,587.98
6,34.1298,4.9174,0,15,36,469.68,65.401134444271349,469.68
5,34.1298,4.4704,0,16,36,310.03,70.097333034191095,310.03
5,34.1298,4.4704,-1,17,36,114.52,65.174364282645996,114.52
3,1856.9232,2.6822,-1,18,36,0,74.996958768522148,0
2,1856.9232,1.3411,-2,19,36,0,74.819222225640118,0
