-1,34.1298,3.1293,-8,6,36,0,59.032659326234857,0
0,34.1298,3.5763,-7,7,36,0,59.292531471931667,0
0,1856.9232,4.4704,-7,8,36,122.51,59.292531471931667,122.51
0,1856.9232,3.5763,-7,9,36,313.12,59.292531471931667,313.12
1,1856.9232,6.2586,-6,10,36,479,59.550291042628565,479
2,34.1298,6.7056,-5,11,36,590.92,59.805954669926152,590.92
3,34.1298,5.8115,-4,12,36,647.16,60.059538976411261,647.16
5,34.1298,4.9174,-4,13,36,640.31,52.193346719271737,640.31
5,34.1298,6.2586,-3,14,36,587.98,56.238915325569103,587.98
5,34.1298,4.9174,-4,15,36,469.68,52.193346719271737,469.68
5,34.1298,4.4704,-4,16,36,310.03,52.193346719271737,310.03
3,34.1298,4.4704,-4,17,36,114.52,60.059538976411261,114.52
2,1856.9232,2.6822,-4,18,36,0,64.482018531033972,0
1,1856.9232,1.3411,-4,19,36,0,69.270470217066517,0
0,1856.9232,1.3411,-4,20,36,0,74.458391582192704,0
-2,34.1298,0,-5,21,36,0,79.933943298104751,0
-2,34.1298,0,-5,22,36,0,79.933943298104751,0
-2,34.1298,0,-5,23,36,0,79.933943298104751,0
-3,1856.9232,3.1293,-5,0,37,0,86.076383684481797,0
-3,34.1298,2.6822,-5,1,37,0,86.076383684481797,0
-3,34.1298,2.2352,-5,2,37,0,86.076383684481797,0
-3,34.1298,2.6822,-5,3,37,0,86.076383684481797,0
-3,34.1298,2.6822,-5,4,37,0,86.076383684481797,0
-4,34.1298,2.2352,-5,5,37,0,92.748266931412331,0
-4,34.1298,2.2352,-4,6,37,0,100.0,0
-3,34.1298,1.3411,-4,7,37,0,92.806460468027481,0
-2,1856.9232,2.2352,-3,8,37,125.25,92.863965557739348,125.25
1,1856.9232,1.3411,-2,9,37,311.66,80.375317381711923,311.66
3,1856.9232,1.3411,0,10,37,459.25,80.661880682868471,459.25
6,34.1298,3.5763,1,11,37,567.34,70.299266961976286,567.34
8,34.1298,3.5763,3,12,37,626.15,70.697540658389229,626.15
9,34.1298,4.4704,4,13,37,635.07,70.893920717171909,561.43
10,34.1298,4.0234,5,14,37,578.53,71.088489426375332,517.23
8,34.1298,3.1293,5,15,37,465.61,81.35254712725947,431.31
7,34.1298,4.0234,5,16,37,311.18,87.098056588182175,295.52
7,34.1298,3.5763,5,17,37,117.33,87.098056588182175,112.54
7,1856.9232,3.5763,6,18,37,0,93.352225938756803,0
7,1856.9232,2.2352,6,19,37,0,93.352225938756803,0
7,1856.9232,3.1293,6,20,37,0,93.352225938756803,0
7,34.1298,2.2352,6,21,37,0,93.352225938756803,0
8,34.1298,1.3411,6,22,37,0,87.194154009949884,0
8,34.1298,2.2352,6,23,37,0,87.194154009949884,0
9,1856.9232,2.6822,7,0,38,0,87.289209441366083,0
10,34.1298,2.2352,8,1,38,0,87.383237448204156,0
10,34.1298,1.3411,8,2,38,0,87.383237448204156,0
11,34.1298,2.2352,9,3,38,0,87.47625235168276,0
11,34.1298,0,9,4,38,0,87.47625235168276,0
12,34.1298,2.6822,9,5,38,0,81.879846925107273,0
12,34.1298,2.6822,10,6,38,0,87.568268233149638,0
12,34.1298,4.9174,10,7,38,0,87.568268233149638,0
12,1856.9232,7.1526,10,8,38,132.58,87.568268233149638,51.738
12,1856.9232,3.5763,10,9,38,324.29,87.568268233149638,272.18
12,1856.9232,4.9174,11,10,38,488.14,93.602371756764171,328.6
13,34.1298,6.2586,11,11,38,605.85,87.659298938667845,368.87
13,34.1298,5.8115,11,12,38,660.13,87.659298938667845,432.98
13,34.1298,7.1526,11,13,38,666.52,87.659298938667845,476.9
13,34.1298,7.5997,11,14,38,609.64,87.659298938667845,498.42
13,34.1298,5.8115,10,15,38,487.54,82.008317294977047,230.01
12,34.1298,9.3878,8,16,38,333.66,76.519987759453471,176.78
12,34.1298,11.176,8,17,38,130.73,76.519987759453471,116.99
11,1856.9232,8.0467,8,18,38,0,81.750052187031002,0
10,1856.9232,6.7056,7,19,38,0,81.618915749746961,0
9,1856.9232,7.1526,6,20,38,0,81.486420017858691,0
8,34.1298,7.1526,5,21,38,0,81.35254712725947,0
7,34.1298,7.1526,4,22,38,0,81.21727894075245,0
5,34.1298,7.5997,2,23,38,0,80.942482739047733,0
4,1856.9232,6.2586,1,0,39,0,80.80291704368436,0
3,34.1298,7.1526,0,1,39,0,80.661880682868471,0
1,34.1298,4.9174,-2,2,39,0,80.375317381711923,0
0,34.1298,4.0234,-3,3,39,0,80.22975039312503,0
-1,34.1298,3.5763,-4,4,39,0,80.082632632857582,0
-3,34.1298,3.1293,-5,5,39,0,86.076383684481797,0
