13,34.1298,2.6822,12,2,54,0,93.650724114619621,0
13,34.1298,2.6822,12,3,54,0,93.650724114619621,0
13,34.1298,2.6822,12,4,54,0,93.650724114619621,0
12,34.1298,2.6822,11,5,54,0,93.602371756764171,0
11,34.1298,2.2352,11,6,54,0,100.0,0
11,34.1298,2.2352,10,7,54,0,93.553471551666661,0
11,1856.9232,0,10,8,54,203.43,93.553471551666661,192.63
11,1856.9232,0,10,9,54,395.14,93.553471551666661,380.18
12,1856.9232,1.3411,10,10,54,554.01,87.568268233149638,546.65
13,34.1298,0,9,11,54,651.31,76.681069549305064,642.2
15,34.1298,3.1293,10,12,54,731.03,72.034842210105538,731.03
17,34.1298,1.3411,10,13,54,726.23,63.400630000924139,498.29
18,34.1298,1.3411,10,14,54,667.98,59.52339300816999,567.98
18,34.1298,0,10,15,54,545.21,59.52339300816999,475.31
18,34.1298,2.6822,10,16,54,391.02,59.52339300816999,343.8
17,34.1298,3.1293,10,17,54,197.41,63.400630000924139,175.03
16,1856.9232,3.5763,10,18,54,0,67.563332617800626,0
15,1856.9232,3.5763,10,19,54,0,72.034842210105538,0
14,1856.9232,4.0234,10,20,54,0,76.840593259432197,0
13,34.1298,4.0234,11,21,54,0,87.659298938667845,0
13,34.1298,3.5763,11,22,54,0,87.659298938667845,0
13,34.1298,2.2352,11,23,54,0,87.659298938667845,0
12,1856.9232,3.1293,11,0,55,0,93.602371756764171,0
12,34.1298,1.3411,11,1,55,0,93.602371756764171,0
12,34.1298,2.6822,11,2,55,0,93.602371756764171,0
13,34.1298,3.1293,11,3,55,0,87.659298938667845,0
13,34.1298,4.0234,11,4,55,0,87.659298938667845,0
13,34.1298,4.0234,11,5,55,0,87.659298938667845,0
13,34.1298,3.5763,12,6,55,0,93.650724114619621,0
14,34.1298,3.5763,12,7,55,0,87.749358083506806,0
15,1856.9232,4.4704,12,8,55,211.44,82.261352957573052,17.525
16,1856.9232,6.2586,12,9,55,415.69,77.155040268598128,415.69
17,1856.9232,6.2586,13,10,55,579.59,77.309999878277452,467.75
18,34.1298,4.9174,13,11,55,693.19,72.582141630914492,541.44
18,34.1298,8.9408,13,12,55,768.22,72.582141630914492,599.55
19,34.1298,5.8115,13,13,55,752.27,68.176241889351857,556.03
20,34.1298,6.2586,13,14,55,690.33,64.068288820119463,284.08
20,34.1298,6.2586,13,15,55,575.56,64.068288820119463,366.46
19,34.1298,6.2586,12,16,55,408.56,63.847544203512655,132.22
18,34.1298,6.2586,11,17,55,205.75,63.624996508330625,120.04
17,1856.9232,4.4704,11,18,55,0,67.769403902782983,0
16,1856.9232,10.729,10,19,55,0,67.563332617800626,0
16,1856.9232,8.0467,9,20,55,0,63.17442886693302,0
15,34.1298,9.3878,9,21,55,0,67.355469880183023,0
14,34.1298,4.4704,8,22,55,0,67.145798064498393,0
12,34.1298,3.5763,7,23,55,0,71.472271072726826,0
10,1856.9232,6.2586,6,0,56,0,76.193074639467341,0
8,34.1298,7.5997,4,1,56,0,75.859700794653989,0
7,34.1298,8.0467,3,2,56,0,75.690542144640617,0
6,34.1298,6.2586,2,3,56,0,75.519709049236894,0
5,34.1298,6.7056,1,4,56,0,75.347181209710627,0
3,34.1298,6.7056,0,5,56,0,80.661880682868471,0
2,34.1298,4.9174,-2,6,56,0,74.819222225640118,0
3,34.1298,6.7056,-3,7,56,0,64.714825534265714,0
1,1856.9232,9.8349,-3,8,56,230.42,74.639707050276655,171.53
3,1856.9232,12.964,-3,9,56,451.8,64.714825534265714,391.59
3,1856.9232,9.8349,-3,10,56,616.44,64.714825534265714,423
1,34.1298,7.1526,-3,11,56,712.98,74.639707050276655,463.96
1,34.1298,9.3878,-4,12,56,780.71,69.270470217066517,513.48
0,34.1298,7.1526,-4,13,56,764.1,74.458391582192704,508.07
1,34.1298,8.0467,-4,14,56,707.12,69.270470217066517,501.5
1,34.1298,6.2586,-4,15,56,581.1,69.270470217066517,442.98
3,34.1298,7.5997,-4,16,56,413.03,60.059538976411261,260.47
3,34.1298,10.729,-4,17,56,214.27,60.059538976411261,137.15
2,1856.9232,6.2586,-5,18,56,0,59.805954669926152,0
1,1856.9232,7.1526,-6,19,56,0,59.550291042628565,0
1,1856.9232,6.7056,-7,20,56,0,55.161298117581083,0
0,34.1298,4.4704,-7,21,56,0,59.292531471931667,0
0,34.1298,3.5763,-7,22,56,0,59.292531471931667,0
-1,34.1298,2.6822,-7,23,56,0,63.77121389329664,0
-2,1856.9232,2.6822,-7,0,57,0,68.629648895336288,0
-2,34.1298,2.2352,-7,1,57,0,68.629648895336288,0
