-5,1856.9232,2.2352,-13,0,70,0,53.48272176266731,0
-6,34.1298,0,-13,1,70,0,57.701028079024439,0
-7,34.1298,0,-14,2,70,0,57.428131572094784,0
-7,34.1298,0,-14,3,70,0,57.428131572094784,0
-7,34.1298,2.2352,-14,4,70,0,57.428131572094784,0
-7,34.1298,2.2352,-14,5,70,0,57.428131572094784,0
-7,34.1298,3.1293,-14,6,70,0,57.428131572094784,0
-7,34.1298,3.1293,-15,7,70,79.074,52.90622132512005,79.074
-7,1856.9232,3.5763,-15,8,70,307.15,52.90622132512005,307.15
-5,1856.9232,4.4704,-15,9,70,502.45,45.424199584158785,502.45
-4,1856.9232,4.4704,-15,10,70,666.56,42.130157881773087,666.56
-3,34.1298,3.1293,-15,11,70,770.64,39.099508319665297,770.64
-2,34.1298,3.1293,-15,12,70,834.42,36.30935393921942,834.42
-1,34.1298,4.4704,-15,13,70,828.43,33.738939564103227,828.43
-1,34.1298,4.4704,-16,14,70,771.4,31.059876662552565,771.4
0,34.1298,4.0234,-17,15,70,649.19,26.565953663514769,649.19
0,34.1298,3.1293,-17,16,70,476.07,26.565953663514769,476.07
-1,34.1298,2.2352,-16,17,70,266,31.059876662552565,266
-2,1856.9232,4.0234,-15,18,70,41.361,36.30935393921942,41.361
-3,1856.9232,3.1293,-14,19,70,0,42.441354758402014,0
-5,1856.9232,3.5763,-14,20,70,0,49.306619239457561,0
-5,34.1298,4.4704,-13,21,70,0,53.48272176266731,0
-6,34.1298,4.0234,-13,22,70,0,57.701028079024439,0
-7,34.1298,3.5763,-13,23,70,0,62.292098497037117,0
-7,1856.9232,4.0234,-13,0,71,0,62.292098497037117,0
-7,34.1298,4.0234,-13,1,71,0,62.292098497037117,0
-8,34.1298,2.6822,-13,2,71,0,67.292288412144302,0
-8,34.1298,1.3411,-12,3,71,0,72.940363975260709,0
-8,34.1298,2.2352,-12,4,71,0,72.940363975260709,0
-8,34.1298,1.3411,-12,5,71,0,72.940363975260709,0
-9,34.1298,0,-13,6,71,0,72.741823834704164,0
-9,34.1298,0,-13,7,71,81.146,72.741823834704164,81.146
-8,1856.9232,0,-13,8,71,295.63,67.292288412144302,295.63
-7,1856.9232,2.6822,-13,9,71,497.73,62.292098497037117,497.73
-4,1856.9232,0,-13,10,71,653.82,49.604297542623229,465.29
-3,34.1298,2.2352,-13,11,71,784.97,46.035992789337357,515.9
-1,34.1298,0,-14,12,71,823.58,36.622616619764386,521.68
0,34.1298,2.2352,-14,13,71,827.94,34.050592986126624,827.94
1,34.1298,0,-14,14,71,749.95,31.678102859839907,749.95
2,34.1298,2.6822,-13,15,71,642.18,31.985852333623544,642.18
2,34.1298,2.6822,-13,16,71,472.89,31.985852333623544,472.89
1,34.1298,2.2352,-12,17,71,270.23,37.24517919206248,270.23
0,1856.9232,4.0234,-12,18,71,45.945,40.034608226872876,45.945
-2,1856.9232,3.5763,-12,19,71,0,46.339075732890365,0
-2,1856.9232,3.5763,-11,20,71,0,50.193594861825019,0
-3,34.1298,3.5763,-11,21,71,0,54.050669234684477,0
-3,34.1298,4.4704,-10,22,71,0,58.506510777554723,0
-3,34.1298,3.5763,-10,23,71,0,58.506510777554723,0
-3,1856.9232,3.5763,-10,0,72,0,58.506510777554723,0
-3,34.1298,4.4704,-10,1,72,0,58.506510777554723,0
-4,34.1298,4.4704,-9,2,72,0,68.192265367640786,0
-4,34.1298,4.0234,-9,3,72,0,68.192265367640786,0
-4,34.1298,4.4704,-8,4,72,0,73.714683677886498,0
-4,34.1298,3.5763,-8,5,72,0,73.714683677886498,0
-4,34.1298,3.5763,-9,6,72,0,68.192265367640786,0
-4,34.1298,4.9174,-9,7,72,87.338,68.192265367640786,74.884
-3,1856.9232,4.4704,-8,8,72,313.2,68.41198876664923,286.6
-2,1856.9232,4.4704,-8,9,72,513.98,63.530085685625657,481.78
-1,1856.9232,4.9174,-7,10,72,679.25,63.77121389329664,619.78
0,34.1298,5.8115,-6,11,72,796.59,64.010232287886922,724.41
1,34.1298,5.8115,-5,12,72,852.58,64.247160621569336,767.55
1,34.1298,3.5763,-5,13,72,835.84,64.247160621569336,751.74
2,34.1298,3.5763,-4,14,72,770.41,64.482018531033972,453.08
2,34.1298,3.5763,-4,15,72,649.38,64.482018531033972,582.55
2,34.1298,4.4704,-4,16,72,483.46,64.482018531033972,436.35
1,34.1298,4.9174,-4,17,72,279.39,69.270470217066517,252.03
1,1856.9232,3.5763,-4,18,72,49.542,69.270470217066517,44.82
1,1856.9232,3.5763,-4,19,72,0,69.270470217066517,0
1,1856.9232,6.2586,-4,20,72,0,69.270470217066517,0
0,34.1298,4.9174,-4,21,72,0,74.458391582192704,0
0,34.1298,3.1293,-4,22,72,0,74.458391582192704,0
-1,34.1298,4.4704,-5,23,72,0,74.275253880025062,0
