0,34.1298,0,-2,23,15,0,86.394921766765563,0
0,1856.9232,2.2352,-2,0,16,0,86.394921766765563,0
0,34.1298,2.2352,-2,1,16,0,86.394921766765563,0
0,34.1298,2.2352,-2,2,16,0,86.394921766765563,0
0,34.1298,2.2352,-2,3,16,0,86.394921766765563,0
0,34.1298,2.6822,-2,4,16,0,86.394921766765563,0
0,34.1298,2.6822,-1,5,16,0,92.97695284762996,0
1,34.1298,2.6822,-1,6,16,0,86.498742535900504,0
1,34.1298,2.6822,0,7,16,0,93.032455771758947,0
1,1856.9232,2.2352,0,8,16,69.494,93.032455771758947,62.905
1,1856.9232,2.2352,0,9,16,252.93,93.032455771758947,238.45
1,1856.9232,2.6822,1,10,16,400.76,100.0,379.52
2,34.1298,2.6822,1,11,16,503.13,93.087311705799863,482.43
3,34.1298,2.6822,2,12,16,553.35,93.141530529950373,537.97
5,34.1298,3.5763,3,13,16,551.02,86.902676258921971,539.65
5,34.1298,3.1293,4,14,16,488.87,93.248095448058876,482.29
6,34.1298,4.0234,5,15,16,377.37,93.300460393223361,370.07
6,34.1298,3.1293,5,16,16,220.47,93.300460393223361,215.09
6,34.1298,3.1293,5,17,16,31.516,93.300460393223361,30.806
6,1856.9232,3.5763,5,18,16,0,93.300460393223361,0
6,1856.9232,3.1293,5,19,16,0,93.300460393223361,0
6,1856.9232,2.6822,5,20,16,0,93.300460393223361,0
7,34.1298,2.6822,6,21,16,0,93.352225938756803,0
8,34.1298,3.5763,6,22,16,0,87.194154009949884,0
9,34.1298,2.2352,6,23,16,0,81.486420017858691,0
10,1856.9232,2.6822,7,0,17,0,81.618915749746961,0
10,34.1298,4.0234,7,1,17,0,81.618915749746961,0
10,34.1298,4.9174,8,2,17,0,87.383237448204156,0
10,34.1298,4.4704,8,3,17,0,87.383237448204156,0
10,34.1298,6.2586,8,4,17,0,87.383237448204156,0
9,34.1298,4.9174,8,5,17,0,93.453994643448382,0
9,34.1298,9.3878,8,6,17,0,93.453994643448382,0
8,34.1298,7.5997,8,7,17,0,100.0,0
9,1856.9232,6.2586,8,8,17,75.512,93.453994643448382,44.562
9,1856.9232,6.2586,7,9,17,269.59,87.289209441366083,191.2
10,1856.9232,5.8115,7,10,17,421.33,81.618915749746961,359.27
10,34.1298,4.0234,6,11,17,520.16,76.193074639467341,492.37
10,34.1298,5.8115,6,12,17,574.6,76.193074639467341,543.37
10,34.1298,5.8115,6,13,17,569.24,76.193074639467341,546.17
9,34.1298,4.0234,6,14,17,501.26,81.486420017858691,474.57
9,34.1298,4.9174,5,15,17,389.51,76.027205034617879,369.45
8,34.1298,6.7056,5,16,17,232.24,81.35254712725947,222.44
8,34.1298,5.8115,5,17,17,36.333,81.35254712725947,35.109
8,1856.9232,5.8115,4,18,17,0,75.859700794653989,0
7,1856.9232,5.8115,3,19,17,0,75.690542144640617,0
6,1856.9232,4.9174,3,20,17,0,81.080597043606616,0
5,34.1298,4.9174,2,21,17,0,80.942482739047733,0
3,34.1298,5.8115,2,22,17,0,93.141530529950373,0
3,34.1298,4.9174,1,23,17,0,86.702946851967639,0
2,1856.9232,4.0234,1,0,18,0,93.087311705799863,0
2,34.1298,4.0234,1,1,18,0,93.087311705799863,0
1,34.1298,4.9174,1,2,18,0,100.0,0
1,34.1298,5.8115,0,3,18,0,93.032455771758947,0
0,34.1298,5.8115,0,4,18,0,100.0,0
0,34.1298,7.1526,0,5,18,0,100.0,0
0,34.1298,4.0234,0,6,18,0,100.0,0
0,34.1298,4.9174,0,7,18,0,100.0,0
0,1856.9232,3.5763,0,8,18,73.829,100.0,68.595
0,1856.9232,3.1293,0,9,18,259.78,100.0,240.03
1,1856.9232,3.5763,0,10,18,411.46,93.032455771758947,392.28
2,34.1298,3.5763,0,11,18,516.42,86.60141209181765,491.51
3,34.1298,3.5763,0,12,18,566.52,80.661880682868471,546.76
5,34.1298,4.0234,1,13,18,563.31,75.347181209710627,543.64
5,34.1298,2.6822,1,14,18,496.17,75.347181209710627,475.75
6,34.1298,2.6822,1,15,18,385.3,70.299266961976286,367.42
6,34.1298,4.0234,1,16,18,230.76,70.299266961976286,217.77
5,34.1298,3.1293,1,17,18,39.375,75.347181209710627,37.298
4,1856.9232,3.1293,1,18,18,0,80.80291704368436,0
4,1856.9232,4.0234,1,19,18,0,80.80291704368436,0
3,1856.9232,3.1293,1,20,18,0,86.702946851967639,0
3,34.1298,2.6822,1,21,18,0,86.702946851967639,0
3,34.1298,4.0234,1,22,18,0,86.702946851967639,0
