3,34.1298,5.8115,-3,22,68,0,64.714825534265714,0
2,34.1298,4.4704,-3,23,68,0,69.480096758186903,0
2,1856.9232,6.7056,-3,0,69,0,69.480096758186903,0
1,34.1298,4.4704,-3,1,69,0,74.639707050276655,0
1,34.1298,4.9174,-4,2,69,0,69.270470217066517,0
0,34.1298,4.4704,-5,3,69,0,69.058867777488345,0
0,34.1298,4.4704,-5,4,69,0,69.058867777488345,0
-1,34.1298,3.5763,-5,5,69,0,74.275253880025062,0
-2,34.1298,6.2586,-7,6,69,0,68.629648895336288,0
-2,34.1298,5.8115,-7,7,69,73.405,68.629648895336288,73.405
-2,1856.9232,4.9174,-8,8,69,303.09,63.530085685625657,303.09
-2,1856.9232,6.2586,-9,9,69,512.32,58.770657971401796,512.32
-1,1856.9232,8.0467,-9,10,69,678.82,54.610161358391132,678.82
0,34.1298,4.9174,-10,11,69,780.61,46.939627560558947,780.61
0,34.1298,7.5997,-11,12,69,848.82,43.364717012800988,848.82
0,34.1298,6.2586,-12,13,69,842.85,40.034608226872876,842.85
0,34.1298,5.8115,-13,14,69,774.48,36.934562105882399,774.48
0,34.1298,6.7056,-13,15,69,666.89,36.934562105882399,666.89
0,34.1298,7.5997,-14,16,69,488.66,34.050592986126624,488.66
-1,34.1298,7.5997,-14,17,69,278.02,36.622616619764386,278.02
-2,1856.9232,7.1526,-14,18,69,38.758,39.412725065080416,38.758
-3,1856.9232,4.9174,-14,19,69,0,42.441354758402014,0
-4,1856.9232,3.1293,-14,20,69,0,45.731034827067205,0
-5,34.1298,4.4704,-14,21,69,0,49.306619239457561,0
-6,34.1298,3.5763,-14,22,69,0,53.195546663514051,0
-7,34.1298,3.5763,-14,23,69,0,57.428131572094784,0
-7,1856.9232,2.2352,-14,0,70,0,57.428131572094784,0
-7,34.1298,0,-14,1,70,0,57.428131572094784,0
-7,34.1298,0,-14,2,70,0,57.428131572094784,0
-7,34.1298,0,-14,3,70,0,57.428131572094784,0
-7,34.1298,2.2352,-14,4,70,0,57.428131572094784,0
-8,34.1298,2.2352,-14,5,70,0,62.037890614710676,0
-8,34.1298,3.1293,-15,6,70,0,57.153006402185255,0
-8,34.1298,3.1293,-15,7,70,79.074,57.153006402185255,79.074
-7,1856.9232,3.5763,-15,8,70,307.15,52.90622132512005,307.15
-6,1856.9232,4.4704,-14,9,70,502.45,53.195546663514051,502.45
-4,1856.9232,4.4704,-14,10,70,666.56,45.731034827067205,666.56
-4,34.1298,3.1293,-14,11,70,770.64,45.731034827067205,770.64
-3,34.1298,3.1293,-14,12,70,834.42,42.441354758402014,834.42
-2,34.1298,4.4704,-14,13,70,828.43,39.412725065080416,828.43
-2,34.1298,4.4704,-14,14,70,771.4,39.412725065080416,771.4
-1,34.1298,4.0234,-14,15,70,649.19,36.622616619764386,649.19
-1,34.1298,3.1293,-14,16,70,476.07,36.622616619764386,476.07
-2,34.1298,2.2352,-13,17,70,266,42.75084848805362,266
-3,1856.9232,4.0234,-13,18,70,41.361,46.035992789337357,41.361
-3,1856.9232,3.1293,-13,19,70,0,46.035992789337357,0
-4,1856.9232,3.5763,-12,20,70,0,53.767758577862509,0
-5,34.1298,4.4704,-12,21,70,0,57.971712417682106,0
-5,34.1298,4.0234,-12,22,70,0,57.971712417682106,0
-6,34.1298,3.5763,-13,23,70,0,57.701028079024439,0
-7,1856.9232,4.0234,-13,0,71,0,62.292098497037117,0
-7,34.1298,4.0234,-13,1,71,0,62.292098497037117,0
-7,34.1298,2.6822,-13,2,71,0,62.292098497037117,0
-7,34.1298,1.3411,-13,3,71,0,62.292098497037117,0
-7,34.1298,2.2352,-12,4,71,0,67.520490748189346,0
-8,34.1298,1.3411,-12,5,71,0,72.940363975260709,0
-8,34.1298,0,-13,6,71,0,67.292288412144302,0
-8,34.1298,0,-13,7,71,81.146,67.292288412144302,81.146
-7,1856.9232,0,-13,8,71,295.63,62.292098497037117,295.63
-5,1856.9232,2.6822,-13,9,71,497.73,53.48272176266731,497.73
-3,1856.9232,0,-13,10,71,653.82,46.035992789337357,465.29
-2,34.1298,2.2352,-13,11,71,784.97,42.75084848805362,515.9
-1,34.1298,0,-14,12,71,823.58,36.622616619764386,521.68
0,34.1298,2.2352,-14,13,71,827.94,34.050592986126624,827.94
1,34.1298,0,-14,14,71,749.95,31.678102859839907,749.95
1,34.1298,2.6822,-13,15,71,642.18,34.361130155647885,642.18
1,34.1298,2.6822,-13,16,71,472.89,34.361130155647885,472.89
1,34.1298,2.2352,-12,17,71,270.23,37.24517919206248,270.23
-1,1856.9232,4.0234,-12,18,71,45.945,43.058636576831397,45.945
-2,1856.9232,3.5763,-12,19,71,0,46.339075732890365,0
-2,1856.9232,3.5763,-12,20,71,0,46.339075732890365,0
-2,34.1298,3.5763,-11,21,71,0,50.193594861825019,0
