13,34.1298,4.4704,10,21,51,0,82.008317294977047,0
12,34.1298,3.5763,10,22,51,0,87.568268233149638,0
12,34.1298,3.5763,10,23,51,0,87.568268233149638,0
12,1856.9232,4.4704,10,0,52,0,87.568268233149638,0
12,34.1298,3.5763,10,1,52,0,87.568268233149638,0
12,34.1298,2.2352,10,2,52,0,87.568268233149638,0
12,34.1298,2.2352,9,3,52,0,81.879846925107273,0
12,34.1298,1.3411,9,4,52,0,81.879846925107273,0
12,34.1298,0,10,5,52,0,87.568268233149638,0
12,34.1298,0,10,6,52,0,87.568268233149638,0
12,34.1298,0,10,7,52,0,87.568268233149638,0
12,1856.9232,0,11,8,52,191.05,93.602371756764171,7.5402
12,1856.9232,0,11,9,52,383.16,93.602371756764171,0
13,1856.9232,2.6822,11,10,52,548.02,87.659298938667845,548.02
14,34.1298,1.3411,12,11,52,656.78,87.749358083506806,70.457
15,34.1298,0,12,12,52,708.36,82.261352957573052,109.46
16,34.1298,2.2352,13,13,52,714.68,82.385951628273233,111.3
17,34.1298,2.6822,12,14,52,652.51,72.401374699018376,104.25
18,34.1298,1.3411,12,15,52,537.69,67.973701215250202,114.78
18,34.1298,0,12,16,52,376.24,67.973701215250202,63.963
17,34.1298,2.2352,12,17,52,185.89,72.401374699018376,24.209
16,1856.9232,0,12,18,52,0,77.155040268598128,0
15,1856.9232,0,12,19,52,0,82.261352957573052,0
14,1856.9232,0,11,20,52,0,82.135480367498232,0
13,34.1298,0,11,21,52,0,87.659298938667845,0
13,34.1298,0,11,22,52,0,87.659298938667845,0
12,34.1298,0,10,23,52,0,87.568268233149638,0
12,1856.9232,1.3411,10,0,53,0,87.568268233149638,0
12,34.1298,3.1293,10,1,53,0,87.568268233149638,0
11,34.1298,2.2352,10,2,53,0,93.553471551666661,0
10,34.1298,2.2352,9,3,53,0,93.504015298216231,0
10,34.1298,1.3411,9,4,53,0,93.504015298216231,0
9,34.1298,0,9,5,53,0,100.0,0
9,34.1298,0,8,6,53,0,93.453994643448382,0
9,34.1298,0,8,7,53,0,93.453994643448382,0
10,1856.9232,0,8,8,53,198.09,87.383237448204156,194.58
11,1856.9232,0,9,9,53,388.31,87.47625235168276,383.39
13,1856.9232,3.1293,10,10,53,550.75,82.008317294977047,543.48
15,34.1298,2.6822,10,11,53,654.38,72.034842210105538,636.4
17,34.1298,3.1293,10,12,53,717.7,63.400630000924139,687.59
18,34.1298,3.5763,10,13,53,723.74,59.52339300816999,662.92
20,34.1298,4.4704,10,14,53,669.57,52.541325581065877,576.91
21,34.1298,5.8115,10,15,53,561.9,49.398701223186386,470.29
21,34.1298,5.8115,10,16,53,397.44,49.398701223186386,335.75
20,34.1298,3.5763,10,17,53,192.69,52.541325581065877,154.54
18,1856.9232,3.1293,10,18,53,0,59.52339300816999,0
17,1856.9232,2.6822,10,19,53,0,63.400630000924139,0
15,1856.9232,4.0234,10,20,53,0,72.034842210105538,0
14,34.1298,4.0234,10,21,53,0,76.840593259432197,0
13,34.1298,3.5763,10,22,53,0,82.008317294977047,0
13,34.1298,3.1293,10,23,53,0,82.008317294977047,0
13,1856.9232,2.6822,10,0,54,0,82.008317294977047,0
13,34.1298,3.1293,10,1,54,0,82.008317294977047,0
12,34.1298,2.6822,10,2,54,0,87.568268233149638,0
12,34.1298,2.6822,10,3,54,0,87.568268233149638,0
11,34.1298,2.6822,10,4,54,0,93.553471551666661,0
11,34.1298,2.6822,10,5,54,0,93.553471551666661,0
10,34.1298,2.2352,9,6,54,0,93.504015298216231,0
10,34.1298,2.2352,9,7,54,0,93.504015298216231,0
10,1856.9232,0,9,8,54,203.43,93.504015298216231,192.63
11,1856.9232,0,10,9,54,395.14,93.553471551666661,380.18
12,1856.9232,1.3411,10,10,54,554.01,87.568268233149638,546.65
13,34.1298,0,10,11,54,651.31,82.008317294977047,642.2
15,34.1298,3.1293,10,12,54,731.03,72.034842210105538,731.03
16,34.1298,1.3411,10,13,54,726.23,67.563332617800626,498.29
17,34.1298,1.3411,10,14,54,667.98,63.400630000924139,567.98
18,34.1298,0,10,15,54,545.21,59.52339300816999,475.31
18,34.1298,2.6822,10,16,54,391.02,59.52339300816999,343.8
17,34.1298,3.1293,10,17,54,197.41,63.400630000924139,175.03
16,1856.9232,3.5763,9,18,54,0,63.17442886693302,0
14,1856.9232,3.5763,9,19,54,0,71.849040076539609,0
13,1856.9232,4.0234,9,20,54,0,76.681069549305064,0
