1,34.1298,2.6822,0,7,19,0,93.032455771758947,0
1,1856.9232,2.2352,0,8,19,74.638,93.032455771758947,0
1,1856.9232,2.6822,0,9,19,259.45,93.032455771758947,9.5142
2,1856.9232,3.1293,1,10,19,410.26,93.087311705799863,13.593
3,34.1298,3.1293,1,11,19,511.39,86.702946851967639,82.818
5,34.1298,3.5763,2,12,19,564.43,80.942482739047733,564.43
6,34.1298,3.1293,2,13,19,560.46,75.519709049236894,201.13
7,34.1298,4.4704,3,14,19,507.54,75.690542144640617,0
7,34.1298,3.5763,3,15,19,391.47,75.690542144640617,163.52
7,34.1298,3.5763,3,16,19,234.03,75.690542144640617,29.379
7,34.1298,5.8115,4,17,19,43.454,81.21727894075245,21.112
7,1856.9232,3.1293,5,18,19,0,87.098056588182175,0
7,1856.9232,4.4704,5,19,19,0,87.098056588182175,0
7,1856.9232,6.2586,5,20,19,0,87.098056588182175,0
7,34.1298,6.7056,5,21,19,0,87.098056588182175,0
7,34.1298,4.9174,5,22,19,0,87.098056588182175,0
7,34.1298,4.0234,5,23,19,0,87.098056588182175,0
7,1856.9232,4.0234,6,0,20,0,93.352225938756803,0
7,34.1298,4.0234,6,1,20,0,93.352225938756803,0
7,34.1298,3.5763,6,2,20,0,93.352225938756803,0
6,34.1298,2.6822,6,3,20,0,100.0,0
6,34.1298,2.6822,6,4,20,0,100.0,0
6,34.1298,2.6822,6,5,20,0,100.0,0
7,34.1298,0,6,6,20,0,93.352225938756803,0
7,34.1298,0,6,7,20,0,93.352225938756803,0
7,1856.9232,0,6,8,20,75.64,93.352225938756803,73.886
7,1856.9232,0,6,9,20,258.16,93.352225938756803,251.75
7,1856.9232,3.5763,6,10,20,413.89,93.352225938756803,405.87
8,34.1298,4.4704,7,11,20,518.59,93.403401079212742,459.73
8,34.1298,3.5763,7,12,20,565.67,93.403401079212742,500.14
10,34.1298,4.9174,8,13,20,571.75,87.383237448204156,544.62
10,34.1298,2.2352,8,14,20,504.13,87.383237448204156,436.84
11,34.1298,3.1293,8,15,20,398.09,81.750052187031002,339.07
11,34.1298,0,8,16,20,231.93,81.750052187031002,205.11
11,34.1298,0,8,17,20,45.78,81.750052187031002,40.848
10,1856.9232,0,8,18,20,0,87.383237448204156,0
10,1856.9232,2.2352,8,19,20,0,87.383237448204156,0
9,1856.9232,2.2352,8,20,20,0,93.453994643448382,0
8,34.1298,2.6822,8,21,20,0,100.0,0
8,34.1298,2.6822,8,22,20,0,100.0,0
8,34.1298,4.4704,8,23,20,0,100.0,0
8,1856.9232,3.5763,7,0,21,0,93.403401079212742,0
8,34.1298,3.5763,7,1,21,0,93.403401079212742,0
8,34.1298,3.1293,7,2,21,0,93.403401079212742,0
8,34.1298,3.1293,8,3,21,0,100.0,0
8,34.1298,2.2352,8,4,21,0,100.0,0
8,34.1298,2.2352,8,5,21,0,100.0,0
7,34.1298,1.3411,7,6,21,0,100.0,0
7,34.1298,2.6822,7,7,21,0,100.0,0
8,1856.9232,1.3411,7,8,21,78.694,93.403401079212742,78.694
8,1856.9232,1.3411,8,9,21,265.11,100.0,265.11
10,1856.9232,2.2352,8,10,21,414.41,87.383237448204156,414.41
11,34.1298,3.1293,9,11,21,517.18,87.47625235168276,517.18
13,34.1298,2.2352,10,12,21,564.52,82.008317294977047,564.52
14,34.1298,6.2586,10,13,21,580.68,76.840593259432197,580.68
15,34.1298,4.4704,11,14,21,515.59,76.998577407491453,415.55
16,34.1298,4.4704,11,15,21,404.43,72.218947621294333,404.43
16,34.1298,4.0234,11,16,21,244.41,72.218947621294333,244.41
15,34.1298,4.4704,11,17,21,51.525,76.998577407491453,51.525
15,1856.9232,2.6822,10,18,21,0,72.034842210105538,0
13,1856.9232,1.3411,10,19,21,0,82.008317294977047,0
12,1856.9232,0,10,20,21,0,87.568268233149638,0
11,34.1298,0,9,21,21,0,87.47625235168276,0
11,34.1298,0,9,22,21,0,87.47625235168276,0
10,34.1298,1.3411,9,23,21,0,93.504015298216231,0
10,1856.9232,2.2352,8,0,22,0,87.383237448204156,0
9,34.1298,2.2352,8,1,22,0,93.453994643448382,0
8,34.1298,2.2352,8,2,22,0,100.0,0
8,34.1298,0,8,3,22,0,100.0,0
7,34.1298,2.2352,7,4,22,0,100.0,0
7,34.1298,0,7,5,22,0,100.0,0
7,34.1298,1.3411,7,6,22,0,100.0,0
