10,1856.9232,3.5763,3,18,58,0,61.77779982356094,0
9,1856.9232,3.5763,3,19,58,0,66.069675859940816,0
8,1856.9232,2.6822,4,20,58,0,75.859700794653989,0
7,34.1298,3.1293,5,21,58,0,87.098056588182175,0
6,34.1298,4.0234,5,22,58,0,93.300460393223361,0
6,34.1298,4.0234,5,23,58,0,93.300460393223361,0
7,1856.9232,2.2352,5,0,59,0,87.098056588182175,0
7,34.1298,6.2586,5,1,59,0,87.098056588182175,0
7,34.1298,3.5763,5,2,59,0,87.098056588182175,0
7,34.1298,3.5763,5,3,59,0,87.098056588182175,0
8,34.1298,4.4704,6,4,59,0,87.194154009949884,0
8,34.1298,0,6,5,59,0,87.194154009949884,0
8,34.1298,3.1293,7,6,59,0,93.403401079212742,0
9,34.1298,2.2352,7,7,59,11.461,87.289209441366083,10.583
10,1856.9232,3.1293,8,8,59,230.45,87.383237448204156,219.46
11,1856.9232,2.2352,8,9,59,426.6,81.750052187031002,401.95
12,1856.9232,2.6822,10,10,59,583.73,87.568268233149638,564.09
13,34.1298,3.5763,10,11,59,701.13,82.008317294977047,681.7
14,34.1298,4.0234,11,12,59,758.1,82.135480367498232,736.77
16,34.1298,3.5763,11,13,59,756.02,72.218947621294333,729.53
17,34.1298,4.9174,12,14,59,698.65,72.401374699018376,636.55
17,34.1298,4.0234,12,15,59,580.29,72.401374699018376,545.88
18,34.1298,4.9174,12,16,59,417.77,67.973701215250202,397.12
18,34.1298,4.9174,13,17,59,219.05,72.582141630914492,205.22
18,1856.9232,4.4704,13,18,59,0,72.582141630914492,0
18,1856.9232,4.0234,13,19,59,0,72.582141630914492,0
18,1856.9232,7.1526,13,20,59,0,72.582141630914492,0
18,34.1298,9.8349,13,21,59,0,72.582141630914492,0
18,34.1298,6.2586,13,22,59,0,72.582141630914492,0
18,34.1298,5.8115,13,23,59,0,72.582141630914492,0
18,1856.9232,4.9174,13,0,60,0,72.582141630914492,0
18,34.1298,7.5997,13,1,60,0,72.582141630914492,0
18,34.1298,6.2586,13,2,60,0,72.582141630914492,0
17,34.1298,3.1293,13,3,60,0,77.309999878277452,0
16,34.1298,2.6822,12,4,60,0,77.155040268598128,0
14,34.1298,3.5763,12,5,60,0,87.749358083506806,0
12,34.1298,5.8115,11,6,60,0,93.602371756764171,0
12,34.1298,2.6822,10,7,60,17.225,87.568268233149638,0.79384
10,1856.9232,4.0234,8,8,60,241.44,87.383237448204156,241.44
11,1856.9232,6.7056,8,9,60,449.03,81.750052187031002,320.34
10,1856.9232,13.411,7,10,60,641.41,81.618915749746961,499.88
9,34.1298,9.3878,6,11,60,753.76,81.486420017858691,557.98
8,34.1298,10.282,6,12,60,823.31,87.194154009949884,753.79
8,34.1298,10.282,5,13,60,823.66,81.35254712725947,729.93
7,34.1298,14.752,5,14,60,770.2,87.098056588182175,632.25
7,34.1298,12.964,3,15,60,635.74,75.690542144640617,472.77
7,34.1298,9.3878,3,16,60,448.09,75.690542144640617,263.71
6,34.1298,13.411,2,17,60,240.31,75.519709049236894,167.91
5,1856.9232,9.8349,1,18,60,0,75.347181209710627,0
4,1856.9232,10.282,1,19,60,0,80.80291704368436,0
3,1856.9232,8.9408,0,20,60,0,80.661880682868471,0
2,34.1298,9.8349,-1,21,60,0,80.519354085990997,0
1,34.1298,9.3878,-2,22,60,0,80.375317381711923,0
1,34.1298,8.0467,-2,23,60,0,80.375317381711923,0
0,1856.9232,6.2586,-3,0,61,0,80.22975039312503,0
0,34.1298,4.9174,-3,1,61,0,80.22975039312503,0
0,34.1298,4.0234,-3,2,61,0,80.22975039312503,0
-1,34.1298,4.0234,-3,3,61,0,86.28993308116371,0
-2,34.1298,4.0234,-3,4,61,0,92.863965557739348,0
-2,34.1298,3.5763,-3,5,61,0,92.863965557739348,0
-2,34.1298,3.1293,-4,6,61,0,86.18375948438603,0
-2,34.1298,3.1293,-4,7,61,22.775,86.18375948438603,10.949
-2,1856.9232,3.5763,-3,8,61,242.76,92.863965557739348,114.39
0,1856.9232,4.4704,-3,9,61,443.14,80.22975039312503,346.73
1,1856.9232,8.0467,-3,10,61,625.6,74.639707050276655,428.91
2,34.1298,6.7056,-3,11,61,741.68,69.480096758186903,526.34
3,34.1298,6.7056,-3,12,61,800.86,64.714825534265714,670.19
5,34.1298,6.2586,-4,13,61,791.17,52.193346719271737,535.07
6,34.1298,8.9408,-4,14,61,746.32,48.696632783711877,505.4
6,34.1298,6.2586,-3,15,61,615.16,52.471166918911017,15.474
6,34.1298,7.1526,-3,16,61,447.67,52.471166918911017,70.662
6,34.1298,6.7056,-3,17,61,233.86,52.471166918911017,38.871
