-7,1856.9232,2.2352,-10,9,30,287.11,79.166172189459587,287.11
-6,1856.9232,2.6822,-9,10,30,441.08,79.323042834535087,441.08
-5,34.1298,3.1293,-9,11,30,551.89,73.524031902471236,551.89
-4,34.1298,4.4704,-9,12,30,622.45,68.192265367640786,622.45
-3,34.1298,4.0234,-8,13,30,618.39,68.41198876664923,618.39
-2,34.1298,5.8115,-8,14,30,557.34,63.530085685625657,27.587
-1,34.1298,5.8115,-7,15,30,442.08,63.77121389329664,23.657
0,34.1298,3.5763,-7,16,30,279.83,59.292531471931667,72.693
0,34.1298,4.4704,-5,17,30,88.208,69.058867777488345,6.1958
-2,1856.9232,4.4704,-5,18,30,0,79.933943298104751,0
-2,1856.9232,6.2586,-4,19,30,0,86.18375948438603,0
-2,1856.9232,5.8115,-3,20,30,0,92.863965557739348,0
-1,34.1298,3.5763,-3,21,30,0,86.28993308116371,0
0,34.1298,4.4704,-2,22,30,0,86.394921766765563,0
0,34.1298,4.0234,-1,23,30,0,92.97695284762996,0
1,1856.9232,4.0234,-1,0,31,0,86.498742535900504,0
1,34.1298,4.4704,-1,1,31,0,86.498742535900504,0
1,34.1298,7.5997,-2,2,31,0,80.375317381711923,0
1,34.1298,8.9408,-2,3,31,0,80.375317381711923,0
0,34.1298,10.729,-2,4,31,0,86.394921766765563,0
1,34.1298,8.9408,-2,5,31,0,80.375317381711923,0
1,34.1298,8.9408,-2,6,31,0,80.375317381711923,0
1,34.1298,8.9408,-2,7,31,0,80.375317381711923,0
1,1856.9232,9.3878,-2,8,31,109.42,80.375317381711923,88.575
1,1856.9232,6.7056,-2,9,31,303.87,80.375317381711923,233.92
1,1856.9232,8.0467,-2,10,31,467.24,80.375317381711923,338.06
2,34.1298,8.9408,-2,11,31,581.5,74.819222225640118,418.01
3,34.1298,8.9408,-1,12,31,639.24,74.996958768522148,438.5
3,34.1298,6.7056,-1,13,31,628.82,74.996958768522148,462.23
4,34.1298,8.9408,-1,14,31,575.97,69.893507175113811,408.17
4,34.1298,8.0467,-1,15,31,456.99,69.893507175113811,302.7
4,34.1298,7.1526,-1,16,31,292.26,69.893507175113811,204.41
3,34.1298,6.7056,-1,17,31,94.013,74.996958768522148,57.146
3,1856.9232,4.4704,-2,18,31,0,69.687768711565994,0
3,1856.9232,3.5763,-2,19,31,0,69.687768711565994,0
2,1856.9232,3.1293,-2,20,31,0,74.819222225640118,0
2,34.1298,2.6822,-2,21,31,0,74.819222225640118,0
1,34.1298,3.1293,-2,22,31,0,80.375317381711923,0
1,34.1298,3.1293,-2,23,31,0,80.375317381711923,0
1,1856.9232,3.5763,-3,0,32,0,74.639707050276655,0
1,34.1298,3.1293,-3,1,32,0,74.639707050276655,0
0,34.1298,3.1293,-3,2,32,0,80.22975039312503,0
0,34.1298,4.0234,-3,3,32,0,80.22975039312503,0
-1,34.1298,3.5763,-3,4,32,0,86.28993308116371,0
-2,34.1298,4.0234,-3,5,32,0,92.863965557739348,0
-2,34.1298,3.1293,-4,6,32,0,86.18375948438603,0
-2,34.1298,2.2352,-4,7,32,0,86.18375948438603,0
-2,1856.9232,2.2352,-4,8,32,107.58,86.18375948438603,0
-2,1856.9232,2.2352,-4,9,32,297.24,86.18375948438603,297.24
-2,1856.9232,3.5763,-4,10,32,454.05,86.18375948438603,454.05
0,34.1298,3.1293,-4,11,32,561.8,74.458391582192704,561.8
0,34.1298,4.4704,-4,12,32,626.66,74.458391582192704,543.8
1,34.1298,3.1293,-4,13,32,619.82,69.270470217066517,472.91
1,34.1298,4.4704,-4,14,32,568.93,69.270470217066517,418.6
1,34.1298,4.0234,-4,15,32,450.63,69.270470217066517,351.34
1,34.1298,6.2586,-5,16,32,297.16,64.247160621569336,213.32
1,34.1298,6.7056,-5,17,32,99.685,64.247160621569336,67.269
0,1856.9232,4.4704,-5,18,32,0,69.058867777488345,0
-1,1856.9232,3.5763,-5,19,32,0,74.275253880025062,0
-2,1856.9232,3.1293,-5,20,32,0,79.933943298104751,0
-2,34.1298,4.0234,-5,21,32,0,79.933943298104751,0
-3,34.1298,4.9174,-6,22,32,0,79.783661265599576,0
-3,34.1298,6.7056,-7,23,32,0,73.90342258501218,0
-3,1856.9232,6.2586,-8,0,33,0,68.41198876664923,0
-4,34.1298,5.8115,-8,1,33,0,73.714683677886498,0
-5,34.1298,5.8115,-9,2,33,0,73.524031902471236,0
-5,34.1298,5.8115,-9,3,33,0,73.524031902471236,0
-7,34.1298,4.0234,-10,4,33,0,79.166172189459587,0
-7,34.1298,4.9174,-10,5,33,0,79.166172189459587,0
-8,34.1298,4.9174,-11,6,33,0,79.007598242830397,0
-8,34.1298,4.0234,-12,7,33,0,72.940363975260709,0
-8,1856.9232,4.9174,-12,8,33,114.96,72.940363975260709,114.96
