10,34.1298,2.6822,8,21,20,0,87.383237448204156,0
9,34.1298,2.6822,8,22,20,0,93.453994643448382,0
10,34.1298,4.4704,8,23,20,0,87.383237448204156,0
10,1856.9232,3.5763,8,0,21,0,87.383237448204156,0
10,34.1298,3.5763,8,1,21,0,87.383237448204156,0
10,34.1298,3.1293,8,2,21,0,87.383237448204156,0
10,34.1298,3.1293,8,3,21,0,87.383237448204156,0
9,34.1298,2.2352,8,4,21,0,93.453994643448382,0
9,34.1298,2.2352,8,5,21,0,93.453994643448382,0
9,34.1298,1.3411,8,6,21,0,93.453994643448382,0
9,34.1298,2.6822,8,7,21,0,93.453994643448382,0
10,1856.9232,1.3411,8,8,21,78.694,87.383237448204156,78.694
10,1856.9232,1.3411,9,9,21,265.11,93.504015298216231,265.11
11,1856.9232,2.2352,9,10,21,414.41,87.47625235168276,414.41
11,34.1298,3.1293,10,11,21,517.18,93.553471551666661,517.18
12,34.1298,2.2352,10,12,21,564.52,87.568268233149638,564.52
13,34.1298,6.2586,11,13,21,580.68,87.659298938667845,580.68
14,34.1298,4.4704,11,14,21,515.59,82.135480367498232,415.55
15,34.1298,4.4704,11,15,21,404.43,76.998577407491453,404.43
15,34.1298,4.0234,11,16,21,244.41,76.998577407491453,244.41
14,34.1298,4.4704,11,17,21,51.525,82.135480367498232,51.525
13,1856.9232,2.6822,11,18,21,0,87.659298938667845,0
12,1856.9232,1.3411,11,19,21,0,93.602371756764171,0
11,1856.9232,0,11,20,21,0,100.0,0
11,34.1298,0,11,21,21,0,100.0,0
11,34.1298,0,11,22,21,0,100.0,0
10,34.1298,1.3411,10,23,21,0,100.0,0
10,1856.9232,2.2352,10,0,22,0,100.0,0
10,34.1298,2.2352,9,1,22,0,93.504015298216231,0
9,34.1298,2.2352,9,2,22,0,100.0,0
9,34.1298,0,9,3,22,0,100.0,0
8,34.1298,2.2352,8,4,22,0,100.0,0
8,34.1298,0,8,5,22,0,100.0,0
7,34.1298,1.3411,7,6,22,0,100.0,0
7,34.1298,0,7,7,22,0,100.0,0
8,1856.9232,0,8,8,22,79.831,100.0,78.9
8,1856.9232,1.3411,8,9,22,266.61,100.0,266.61
10,1856.9232,0,9,10,22,408.65,93.504015298216231,13.98
11,34.1298,1.3411,9,11,22,506.08,87.47625235168276,33.037
12,34.1298,2.6822,9,12,22,560.48,81.879846925107273,348.23
13,34.1298,2.6822,9,13,22,565.78,76.681069549305064,352.28
13,34.1298,4.9174,9,14,22,523.68,76.681069549305064,523.68
14,34.1298,4.0234,10,15,22,405.96,76.840593259432197,390.36
14,34.1298,4.4704,10,16,22,247.52,76.840593259432197,247.52
13,34.1298,4.4704,9,17,22,54.96,76.681069549305064,54.96
12,1856.9232,4.9174,8,18,22,0,76.519987759453471,0
11,1856.9232,4.4704,8,19,22,0,81.750052187031002,0
10,1856.9232,5.8115,7,20,22,0,81.618915749746961,0
8,34.1298,4.9174,7,21,22,0,93.403401079212742,0
7,34.1298,3.5763,6,22,22,0,93.352225938756803,0
7,34.1298,3.5763,6,23,22,0,93.352225938756803,0
6,1856.9232,3.5763,5,0,23,0,93.300460393223361,0
6,34.1298,3.5763,5,1,23,0,93.300460393223361,0
5,34.1298,4.9174,4,2,23,0,93.248095448058876,0
5,34.1298,4.9174,3,3,23,0,86.902676258921971,0
4,34.1298,2.6822,3,4,23,0,93.195121939330733,0
4,34.1298,4.0234,3,5,23,0,93.195121939330733,0
4,34.1298,6.2586,3,6,23,0,93.195121939330733,0
5,34.1298,7.5997,3,7,23,0,86.902676258921971,0
4,1856.9232,7.1526,3,8,23,86.193,93.195121939330733,83.23
4,1856.9232,6.7056,3,9,23,278.37,93.195121939330733,268.04
3,1856.9232,6.2586,3,10,23,433.65,100.0,413.83
4,34.1298,4.4704,3,11,23,534.97,93.195121939330733,509.45
5,34.1298,6.2586,3,12,23,595.32,86.902676258921971,562.39
6,34.1298,5.8115,3,13,23,590.16,81.080597043606616,553.42
6,34.1298,5.8115,3,14,23,529.13,81.080597043606616,493.08
7,34.1298,7.5997,3,15,23,420.34,75.690542144640617,392.78
7,34.1298,4.9174,3,16,23,253.07,75.690542144640617,235.71
7,34.1298,4.0234,3,17,23,59.141,75.690542144640617,54.989
6,1856.9232,3.5763,3,18,23,0,81.080597043606616,0
6,1856.9232,4.9174,3,19,23,0,81.080597043606616,0
6,1856.9232,3.5763,3,20,23,0,81.080597043606616,0
