7,1856.9232,2.2352,7,10,50,540.6,100.0,515.03
9,34.1298,2.2352,7,11,50,651.25,87.289209441366083,610.1
11,34.1298,1.3411,7,12,50,700.64,76.357329126718284,639.97
13,34.1298,2.6822,7,13,50,703.3,66.934299400772474,703.3
15,34.1298,0,7,14,50,635.59,58.794057173929204,635.59
15,34.1298,1.3411,7,15,50,531.65,58.794057173929204,531.65
16,34.1298,2.6822,7,16,50,376.89,55.144459527043999,376.89
15,34.1298,0,7,17,50,176.83,58.794057173929204,176.83
14,1856.9232,0,7,18,50,0,62.716459074021699,0
12,1856.9232,0,6,19,50,0,66.720955975372661,0
11,1856.9232,0,6,20,50,0,71.281266407174215,0
10,34.1298,0,6,21,50,0,76.193074639467341,0
9,34.1298,2.6822,7,22,50,0,87.289209441366083,0
8,34.1298,0,7,23,50,0,93.403401079212742,0
10,1856.9232,0,7,0,51,0,81.618915749746961,0
9,34.1298,0,7,1,51,0,87.289209441366083,0
8,34.1298,1.3411,7,2,51,0,93.403401079212742,0
8,34.1298,2.2352,7,3,51,0,93.403401079212742,0
7,34.1298,1.3411,7,4,51,0,100.0,0
6,34.1298,2.2352,6,5,51,0,100.0,0
6,34.1298,2.2352,6,6,51,0,100.0,0
6,34.1298,1.3411,6,7,51,0,100.0,0
7,1856.9232,2.2352,7,8,51,185.35,100.0,185.35
9,1856.9232,2.2352,7,9,51,380.75,87.289209441366083,380.75
11,1856.9232,2.6822,8,10,51,535.29,81.750052187031002,535.29
14,34.1298,4.9174,9,11,51,655.57,71.849040076539609,655.57
16,34.1298,5.8115,10,12,51,726.54,67.563332617800626,726.54
18,34.1298,3.5763,11,13,51,724.83,63.624996508330625,724.83
19,34.1298,5.8115,11,14,51,677.48,59.762815682936242,677.48
20,34.1298,4.0234,11,15,51,551.04,56.161812821717625,551.04
20,34.1298,6.2586,11,16,51,390.34,56.161812821717625,390.34
18,34.1298,4.0234,11,17,51,182.48,63.624996508330625,182.48
17,1856.9232,3.1293,10,18,51,0,63.400630000924139,0
16,1856.9232,4.0234,10,19,51,0,67.563332617800626,0
14,1856.9232,3.5763,10,20,51,0,76.840593259432197,0
13,34.1298,4.4704,11,21,51,0,87.659298938667845,0
13,34.1298,3.5763,11,22,51,0,87.659298938667845,0
13,34.1298,3.5763,11,23,51,0,87.659298938667845,0
13,1856.9232,4.4704,10,0,52,0,82.008317294977047,0
13,34.1298,3.5763,10,1,52,0,82.008317294977047,0
13,34.1298,2.2352,11,2,52,0,87.659298938667845,0
12,34.1298,2.2352,11,3,52,0,93.602371756764171,0
12,34.1298,1.3411,11,4,52,0,93.602371756764171,0
12,34.1298,0,11,5,52,0,93.602371756764171,0
12,34.1298,0,11,6,52,0,93.602371756764171,0
12,34.1298,0,11,7,52,0,93.602371756764171,0
12,1856.9232,0,11,8,52,191.05,93.602371756764171,7.5402
12,1856.9232,0,11,9,52,383.16,93.602371756764171,0
12,1856.9232,2.6822,11,10,52,548.02,93.602371756764171,548.02
13,34.1298,1.3411,11,11,52,656.78,87.659298938667845,70.457
16,34.1298,0,11,12,52,708.36,72.218947621294333,109.46
17,34.1298,2.2352,11,13,52,714.68,67.769403902782983,111.3
18,34.1298,2.6822,10,14,52,652.51,59.52339300816999,104.25
19,34.1298,1.3411,10,15,52,537.69,55.910188768410727,114.78
18,34.1298,0,10,16,52,376.24,59.52339300816999,63.963
18,34.1298,2.2352,10,17,52,185.89,59.52339300816999,24.209
17,1856.9232,0,9,18,52,0,59.282134775229586,0
15,1856.9232,0,9,19,52,0,67.355469880183023,0
14,1856.9232,0,9,20,52,0,71.849040076539609,0
13,34.1298,0,8,21,52,0,71.661522629146475,0
12,34.1298,0,8,22,52,0,76.519987759453471,0
11,34.1298,0,8,23,52,0,81.750052187031002,0
11,1856.9232,1.3411,8,0,53,0,81.750052187031002,0
10,34.1298,3.1293,7,1,53,0,81.618915749746961,0
10,34.1298,2.2352,7,2,53,0,81.618915749746961,0
9,34.1298,2.2352,7,3,53,0,87.289209441366083,0
8,34.1298,1.3411,7,4,53,0,93.403401079212742,0
8,34.1298,0,7,5,53,0,93.403401079212742,0
8,34.1298,0,7,6,53,0,93.403401079212742,0
8,34.1298,0,7,7,53,0,93.403401079212742,0
9,1856.9232,0,7,8,53,198.09,87.289209441366083,194.58
11,1856.9232,0,7,9,53,388.31,76.357329126718284,383.39
