7,34.1298,0,7,5,22,0,100.0,0
7,34.1298,1.3411,7,6,22,0,100.0,0
7,34.1298,0,7,7,22,0,100.0,0
7,1856.9232,0,7,8,22,79.831,100.0,78.9
7,1856.9232,1.3411,7,9,22,266.61,100.0,266.61
8,1856.9232,0,7,10,22,408.65,93.403401079212742,13.98
10,34.1298,1.3411,8,11,22,506.08,87.383237448204156,33.037
11,34.1298,2.6822,9,12,22,560.48,87.47625235168276,348.23
11,34.1298,2.6822,9,13,22,565.78,87.47625235168276,352.28
11,34.1298,4.9174,9,14,22,523.68,87.47625235168276,523.68
11,34.1298,4.0234,9,15,22,405.96,87.47625235168276,390.36
11,34.1298,4.4704,8,16,22,247.52,81.750052187031002,247.52
11,34.1298,4.4704,8,17,22,54.96,81.750052187031002,54.96
10,1856.9232,4.9174,8,18,22,0,87.383237448204156,0
9,1856.9232,4.4704,8,19,22,0,93.453994643448382,0
9,1856.9232,5.8115,7,20,22,0,87.289209441366083,0
8,34.1298,4.9174,7,21,22,0,93.403401079212742,0
7,34.1298,3.5763,6,22,22,0,93.352225938756803,0
7,34.1298,3.5763,6,23,22,0,93.352225938756803,0
7,1856.9232,3.5763,6,0,23,0,93.352225938756803,0
6,34.1298,3.5763,5,1,23,0,93.300460393223361,0
6,34.1298,4.9174,5,2,23,0,93.300460393223361,0
5,34.1298,4.9174,4,3,23,0,93.248095448058876,0
5,34.1298,2.6822,3,4,23,0,86.902676258921971,0
5,34.1298,4.0234,3,5,23,0,86.902676258921971,0
4,34.1298,6.2586,3,6,23,0,93.195121939330733,0
4,34.1298,7.5997,3,7,23,0,93.195121939330733,0
4,1856.9232,7.1526,3,8,23,86.193,93.195121939330733,83.23
4,1856.9232,6.7056,2,9,23,278.37,86.803362953546198,268.04
3,1856.9232,6.2586,2,10,23,433.65,93.141530529950373,413.83
4,34.1298,4.4704,2,11,23,534.97,86.803362953546198,509.45
5,34.1298,6.2586,3,12,23,595.32,86.902676258921971,562.39
6,34.1298,5.8115,3,13,23,590.16,81.080597043606616,553.42
6,34.1298,5.8115,3,14,23,529.13,81.080597043606616,493.08
6,34.1298,7.5997,3,15,23,420.34,81.080597043606616,392.78
6,34.1298,4.9174,3,16,23,253.07,81.080597043606616,235.71
6,34.1298,4.0234,3,17,23,59.141,81.080597043606616,54.989
5,1856.9232,3.5763,2,18,23,0,80.942482739047733,0
5,1856.9232,4.9174,2,19,23,0,80.942482739047733,0
4,1856.9232,3.5763,2,20,23,0,86.803362953546198,0
4,34.1298,2.6822,2,21,23,0,86.803362953546198,0
3,34.1298,3.5763,2,22,23,0,93.141530529950373,0
3,34.1298,2.6822,2,23,23,0,93.141530529950373,0
3,1856.9232,3.1293,1,0,24,0,86.702946851967639,0
2,34.1298,4.0234,1,1,24,0,93.087311705799863,0
2,34.1298,2.6822,1,2,24,0,93.087311705799863,0
2,34.1298,3.5763,1,3,24,0,93.087311705799863,0
1,34.1298,2.6822,1,4,24,0,100.0,0
1,34.1298,2.6822,1,5,24,0,100.0,0
1,34.1298,2.2352,0,6,24,0,93.032455771758947,0
1,34.1298,3.1293,0,7,24,0,93.032455771758947,0
1,1856.9232,3.1293,0,8,24,85.867,93.032455771758947,73.072
1,1856.9232,2.2352,1,9,24,274.43,100.0,242.7
2,1856.9232,3.1293,1,10,24,427.15,93.087311705799863,386.96
3,34.1298,2.2352,1,11,24,533.19,86.702946851967639,476.92
4,34.1298,3.1293,1,12,24,588.01,80.80291704368436,524.97
5,34.1298,2.6822,1,13,24,585.18,75.347181209710627,522.53
6,34.1298,1.3411,2,14,24,518.89,75.519709049236894,464.27
7,34.1298,2.2352,2,15,24,411.1,70.499329419935393,366.33
7,34.1298,0,2,16,24,250.37,70.499329419935393,222.67
7,34.1298,0,2,17,24,61.471,70.499329419935393,55.525
6,1856.9232,3.1293,2,18,24,0,75.519709049236894,0
5,1856.9232,3.5763,2,19,24,0,80.942482739047733,0
4,1856.9232,2.6822,2,20,24,0,86.803362953546198,0
4,34.1298,4.0234,3,21,24,0,93.195121939330733,0
3,34.1298,5.8115,3,22,24,0,100.0,0
3,34.1298,2.6822,3,23,24,0,100.0,0
3,1856.9232,2.6822,3,0,25,0,100.0,0
3,34.1298,2.6822,3,1,25,0,100.0,0
4,34.1298,3.5763,3,2,25,0,93.195121939330733,0
5,34.1298,4.4704,3,3,25,0,86.902676258921971,0
5,34.1298,4.0234,3,4,25,0,86.902676258921971,0
