-2,34.1298,4.9174,-4,7,63,34.308,86.18375948438603,9.6651
-2,1856.9232,4.9174,-4,8,63,255.74,86.18375948438603,43.76
-1,1856.9232,3.5763,-4,9,63,451.18,80.082632632857582,185.88
0,1856.9232,4.4704,-4,10,63,620.26,74.458391582192704,620.26
2,34.1298,7.1526,-3,11,63,751.05,69.480096758186903,751.05
3,34.1298,7.1526,-3,12,63,815.02,64.714825534265714,815.02
5,34.1298,7.1526,-3,13,63,814.85,56.238915325569103,814.85
6,34.1298,6.2586,-3,14,63,741.23,52.471166918911017,741.23
6,34.1298,6.2586,-3,15,63,618.16,52.471166918911017,618.16
7,34.1298,6.7056,-2,16,63,444.08,52.74704994628754,444.08
6,34.1298,8.0467,-2,17,63,238.3,56.50325893770539,238.3
6,1856.9232,7.5997,-2,18,63,12.055,56.50325893770539,12.055
5,1856.9232,7.1526,-2,19,63,0,60.56053603547852,0
3,1856.9232,6.7056,-2,20,63,0,69.687768711565994,0
3,34.1298,6.7056,-2,21,63,0,69.687768711565994,0
2,34.1298,6.2586,-2,22,63,0,74.819222225640118,0
2,34.1298,6.7056,-3,23,63,0,69.480096758186903,0
2,1856.9232,4.9174,-3,0,64,0,69.480096758186903,0
2,34.1298,5.8115,-3,1,64,0,69.480096758186903,0
2,34.1298,4.4704,-3,2,64,0,69.480096758186903,0
2,34.1298,4.0234,-3,3,64,0,69.480096758186903,0
2,34.1298,4.0234,-3,4,64,0,69.480096758186903,0
1,34.1298,3.5763,-2,5,64,0,80.375317381711923,0
1,34.1298,3.1293,-2,6,64,0,80.375317381711923,0
1,34.1298,3.5763,-2,7,64,40.744,80.375317381711923,40.744
2,1856.9232,3.1293,-1,8,64,263.31,80.519354085990997,263.31
5,1856.9232,2.6822,0,9,64,456.75,70.097333034191095,456.75
7,1856.9232,3.5763,1,10,64,617.88,65.625930527633926,617.88
9,34.1298,4.4704,1,11,64,731.55,57.284355946111774,16.225
11,34.1298,4.0234,2,12,64,785.99,53.831404997309406,32.667
12,34.1298,4.0234,2,13,64,785.68,50.387471827470875,32.506
13,34.1298,8.0467,3,14,64,753.1,50.662934097161624,33.803
15,34.1298,6.7056,3,15,64,627.06,44.501540623776982,94.149
15,34.1298,7.1526,3,16,64,454.49,44.501540623776982,71.864
14,34.1298,4.9174,3,17,64,237.37,47.470427887048686,39.786
12,1856.9232,5.8115,4,18,64,16.09,58.047833762427267,4.5029
11,1856.9232,4.0234,4,19,64,0,62.015344988555213,0
10,1856.9232,6.2586,4,20,64,0,66.288662472889712,0
10,34.1298,5.8115,4,21,64,0,66.288662472889712,0
9,34.1298,4.4704,4,22,64,0,70.893920717171909,0
9,34.1298,4.4704,4,23,64,0,70.893920717171909,0
9,1856.9232,4.4704,5,0,65,0,76.027205034617879,0
9,34.1298,4.4704,5,1,65,0,76.027205034617879,0
9,34.1298,4.0234,5,2,65,0,76.027205034617879,0
8,34.1298,4.0234,5,3,65,0,81.35254712725947,0
8,34.1298,4.4704,5,4,65,0,81.35254712725947,0
8,34.1298,4.4704,5,5,65,0,81.35254712725947,0
9,34.1298,4.9174,6,6,65,0,81.486420017858691,0
10,34.1298,4.0234,6,7,65,46.57,76.193074639467341,6.3088
10,1856.9232,5.8115,7,8,65,272.86,81.618915749746961,214.51
10,1856.9232,4.4704,8,9,65,464.38,87.383237448204156,370.82
11,1856.9232,4.4704,8,10,65,624.63,81.750052187031002,577.45
12,34.1298,4.0234,9,11,65,731.85,81.879846925107273,685.16
13,34.1298,4.9174,10,12,65,799.48,82.008317294977047,736.7
15,34.1298,4.0234,10,13,65,793.94,72.034842210105538,737.24
16,34.1298,4.0234,11,14,65,728.58,72.218947621294333,672.92
16,34.1298,4.9174,11,15,65,616.02,72.218947621294333,554.3
16,34.1298,6.2586,11,16,65,452.92,72.218947621294333,407.23
16,34.1298,6.2586,11,17,65,248.91,72.218947621294333,231.56
16,1856.9232,7.1526,11,18,65,20.78,72.218947621294333,19.363
16,1856.9232,7.1526,11,19,65,0,72.218947621294333,0
16,1856.9232,7.5997,11,20,65,0,72.218947621294333,0
16,34.1298,9.8349,12,21,65,0,77.155040268598128,0
16,34.1298,9.3878,12,22,65,0,77.155040268598128,0
16,34.1298,10.729,12,23,65,0,77.155040268598128,0
16,1856.9232,8.0467,11,0,66,0,72.218947621294333,0
16,34.1298,5.8115,11,1,66,0,72.218947621294333,0
16,34.1298,9.8349,10,2,66,0,67.563332617800626,0
14,34.1298,8.9408,10,3,66,0,76.840593259432197,0
12,34.1298,16.988,9,4,66,0,81.879846925107273,0
11,34.1298,4.0234,8,5,66,0,81.750052187031002,0
10,34.1298,5.8115,7,6,66,0,81.618915749746961,0
