-4,34.1298,0,-13,1,70,0,49.604297542623229,0
-5,34.1298,0,-13,2,70,0,53.48272176266731,0
-5,34.1298,0,-13,3,70,0,53.48272176266731,0
-5,34.1298,2.2352,-14,4,70,0,49.306619239457561,0
-6,34.1298,2.2352,-14,5,70,0,53.195546663514051,0
-7,34.1298,3.1293,-14,6,70,0,57.428131572094784,0
-6,34.1298,3.1293,-15,7,70,79.074,49.006911564891894,79.074
-7,1856.9232,3.5763,-15,8,70,307.15,52.90622132512005,307.15
-5,1856.9232,4.4704,-15,9,70,502.45,45.424199584158785,502.45
-4,1856.9232,4.4704,-15,10,70,666.56,42.130157881773087,666.56
-3,34.1298,3.1293,-15,11,70,770.64,39.099508319665297,770.64
-2,34.1298,3.1293,-15,12,70,834.42,36.30935393921942,834.42
-1,34.1298,4.4704,-15,13,70,828.43,33.738939564103227,828.43
-1,34.1298,4.4704,-16,14,70,771.4,31.059876662552565,771.4
0,34.1298,4.0234,-17,15,70,649.19,26.565953663514769,649.19
0,34.1298,3.1293,-17,16,70,476.07,26.565953663514769,476.07
-1,34.1298,2.2352,-16,17,70,266,31.059876662552565,266
-2,1856.9232,4.0234,-15,18,70,41.361,36.30935393921942,41.361
-3,1856.9232,3.1293,-14,19,70,0,42.441354758402014,0
-5,1856.9232,3.5763,-14,20,70,0,49.306619239457561,0
-5,34.1298,4.4704,-13,21,70,0,53.48272176266731,0
-6,34.1298,4.0234,-13,22,70,0,57.701028079024439,0
-7,34.1298,3.5763,-13,23,70,0,62.292098497037117,0
-7,1856.9232,4.0234,-13,0,71,0,62.292098497037117,0
-7,34.1298,4.0234,-13,1,71,0,62.292098497037117,0
-8,34.1298,2.6822,-13,2,71,0,67.292288412144302,0
-8,34.1298,1.3411,-12,3,71,0,72.940363975260709,0
-8,34.1298,2.2352,-12,4,71,0,72.940363975260709,0
-8,34.1298,1.3411,-12,5,71,0,72.940363975260709,0
-9,34.1298,0,-13,6,71,0,72.741823834704164,0
-9,34.1298,0,-13,7,71,81.146,72.741823834704164,81.146
-8,1856.9232,0,-13,8,71,295.63,67.292288412144302,295.63
-6,1856.9232,2.6822,-12,9,71,497.73,62.54407583902627,497.73
-4,1856.9232,0,-12,10,71,653.82,53.767758577862509,465.29
-3,34.1298,2.2352,-12,11,71,784.97,49.899953609108429,515.9
-1,34.1298,0,-13,12,71,823.58,39.724427371168566,521.68
0,34.1298,2.2352,-13,13,71,827.94,36.934562105882399,827.94
1,34.1298,0,-13,14,71,749.95,34.361130155647885,749.95
2,34.1298,2.6822,-13,15,71,642.18,31.985852333623544,642.18
2,34.1298,2.6822,-13,16,71,472.89,31.985852333623544,472.89
1,34.1298,2.2352,-13,17,71,270.23,34.361130155647885,270.23
0,1856.9232,4.0234,-12,18,71,45.945,40.034608226872876,45.945
-1,1856.9232,3.5763,-12,19,71,0,43.058636576831397,0
-2,1856.9232,3.5763,-11,20,71,0,50.193594861825019,0
-3,34.1298,3.5763,-10,21,71,0,58.506510777554723,0
-3,34.1298,4.4704,-10,22,71,0,58.506510777554723,0
-4,34.1298,3.5763,-10,23,71,0,63.041420265899106,0
-4,1856.9232,3.5763,-9,0,72,0,68.192265367640786,0
-4,34.1298,4.4704,-9,1,72,0,68.192265367640786,0
-4,34.1298,4.4704,-9,2,72,0,68.192265367640786,0
-4,34.1298,4.0234,-9,3,72,0,68.192265367640786,0
-4,34.1298,4.4704,-8,4,72,0,73.714683677886498,0
-4,34.1298,3.5763,-8,5,72,0,73.714683677886498,0
-4,34.1298,3.5763,-8,6,72,0,73.714683677886498,0
-4,34.1298,4.9174,-8,7,72,87.338,73.714683677886498,74.884
-4,1856.9232,4.4704,-7,8,72,313.2,79.631765086518371,286.6
-3,1856.9232,4.4704,-7,9,72,513.98,73.90342258501218,481.78
-2,1856.9232,4.9174,-6,10,72,679.25,74.090271718389829,619.78
0,34.1298,5.8115,-5,11,72,796.59,69.058867777488345,724.41
1,34.1298,5.8115,-5,12,72,852.58,64.247160621569336,767.55
2,34.1298,3.5763,-4,13,72,835.84,64.482018531033972,751.74
2,34.1298,3.5763,-4,14,72,770.41,64.482018531033972,453.08
3,34.1298,3.5763,-3,15,72,649.38,64.714825534265714,582.55
3,34.1298,4.4704,-3,16,72,483.46,64.714825534265714,436.35
2,34.1298,4.9174,-3,17,72,279.39,69.480096758186903,252.03
2,1856.9232,3.5763,-3,18,72,49.542,69.480096758186903,44.82
2,1856.9232,3.5763,-3,19,72,0,69.480096758186903,0
1,1856.9232,6.2586,-3,20,72,0,74.639707050276655,0
1,34.1298,4.9174,-3,21,72,0,74.639707050276655,0
0,34.1298,3.1293,-3,22,72,0,80.22975039312503,0
-1,34.1298,4.4704,-3,23,72,0,86.28993308116371,0
-2,1856.9232,5.8115,-3,0,73,0,92.863965557739348,0
