6,34.1298,5.8115,-4,17,47,167.5,48.696632783711877,167.5
5,1856.9232,4.0234,-3,18,47,0,56.238915325569103,0
4,1856.9232,1.3411,-3,19,47,0,60.311060569484063,0
3,1856.9232,1.3411,-2,20,47,0,69.687768711565994,0
3,34.1298,1.3411,-2,21,47,0,69.687768711565994,0
3,34.1298,3.1293,-2,22,47,0,69.687768711565994,0
3,34.1298,2.6822,-1,23,47,0,74.996958768522148,0
3,1856.9232,2.2352,0,0,48,0,80.661880682868471,0
3,34.1298,2.6822,0,1,48,0,80.661880682868471,0
3,34.1298,2.6822,1,2,48,0,86.702946851967639,0
3,34.1298,2.2352,1,3,48,0,86.702946851967639,0
3,34.1298,2.6822,1,4,48,0,86.702946851967639,0
2,34.1298,3.5763,1,5,48,0,93.087311705799863,0
2,34.1298,3.1293,1,6,48,0,93.087311705799863,0
2,34.1298,3.1293,1,7,48,0,93.087311705799863,0
3,1856.9232,3.5763,1,8,48,174.93,86.702946851967639,174.93
5,1856.9232,2.6822,1,9,48,368.79,75.347181209710627,368.79
7,1856.9232,4.0234,2,10,48,531.14,70.499329419935393,531.14
10,34.1298,4.4704,3,11,48,646.08,61.77779982356094,646.08
12,34.1298,3.5763,5,12,48,698.48,62.250959103782563,698.48
13,34.1298,4.0234,6,13,48,701.66,62.484658407133068,701.66
15,34.1298,4.9174,5,14,48,641.38,51.20848118783703,641.38
16,34.1298,4.4704,6,15,48,528.84,51.478580450392407,528.84
16,34.1298,6.2586,6,16,48,369.53,51.478580450392407,369.53
15,34.1298,6.2586,6,17,48,170.97,54.885561091568235,170.97
14,1856.9232,3.5763,6,18,48,0,58.547210575568684,0
12,1856.9232,2.6822,6,19,48,0,66.720955975372661,0
11,1856.9232,3.1293,6,20,48,0,71.281266407174215,0
10,34.1298,2.6822,6,21,48,0,76.193074639467341,0
10,34.1298,3.1293,6,22,48,0,76.193074639467341,0
9,34.1298,2.6822,6,23,48,0,81.486420017858691,0
8,1856.9232,1.3411,5,0,49,0,81.35254712725947,0
8,34.1298,2.6822,5,1,49,0,81.35254712725947,0
7,34.1298,2.6822,5,2,49,0,87.098056588182175,0
7,34.1298,2.2352,5,3,49,0,87.098056588182175,0
6,34.1298,2.2352,5,4,49,0,93.300460393223361,0
6,34.1298,2.2352,5,5,49,0,93.300460393223361,0
6,34.1298,2.6822,5,6,49,0,93.300460393223361,0
6,34.1298,2.2352,5,7,49,0,93.300460393223361,0
6,1856.9232,2.2352,5,8,49,177.94,93.300460393223361,177.94
7,1856.9232,1.3411,5,9,49,372.11,87.098056588182175,372.11
8,1856.9232,4.0234,6,10,49,534.91,87.194154009949884,534.91
10,34.1298,4.4704,6,11,49,651.44,76.193074639467341,651.44
12,34.1298,4.4704,7,12,49,709.74,71.472271072726826,709.74
14,34.1298,4.4704,7,13,49,713.41,62.716459074021699,713.41
15,34.1298,6.2586,8,14,49,657.9,62.946377213895722,657.9
16,34.1298,4.0234,8,15,49,532.01,59.0390273693327,532.01
15,34.1298,4.9174,8,16,49,373.68,62.946377213895722,373.68
15,34.1298,4.9174,8,17,49,174.15,62.946377213895722,174.15
13,1856.9232,3.5763,8,18,49,0,71.661522629146475,0
12,1856.9232,1.3411,7,19,49,0,71.472271072726826,0
11,1856.9232,1.3411,7,20,49,0,76.357329126718284,0
10,34.1298,2.6822,7,21,49,0,81.618915749746961,0
9,34.1298,2.6822,7,22,49,0,87.289209441366083,0
8,34.1298,3.1293,7,23,49,0,93.403401079212742,0
7,1856.9232,4.0234,6,0,50,0,93.352225938756803,0
6,34.1298,4.0234,5,1,50,0,93.300460393223361,0
6,34.1298,4.0234,5,2,50,0,93.300460393223361,0
5,34.1298,3.1293,5,3,50,0,100.0,0
5,34.1298,3.1293,5,4,50,0,100.0,0
4,34.1298,2.6822,4,5,50,0,100.0,0
3,34.1298,2.2352,3,6,50,0,100.0,0
3,34.1298,1.3411,3,7,50,0,100.0,0
4,1856.9232,1.3411,3,8,50,182.27,93.195121939330733,175.82
6,1856.9232,0,4,9,50,375.15,87.000902360951287,360.69
8,1856.9232,2.2352,5,10,50,540.6,81.35254712725947,515.03
10,34.1298,2.2352,6,11,50,651.25,76.193074639467341,610.1
13,34.1298,1.3411,7,12,50,700.64,66.934299400772474,639.97
15,34.1298,2.6822,7,13,50,703.3,58.794057173929204,703.3
16,34.1298,0,7,14,50,635.59,55.144459527043999,635.59
17,34.1298,1.3411,7,15,50,531.65,51.746906785263072,531.65
17,34.1298,2.6822,7,16,50,376.89,51.746906785263072,376.89
