16,34.1298,5.8115,14,23,59,0,87.926615024549164,0
16,1856.9232,4.9174,13,0,60,0,82.385951628273233,0
16,34.1298,7.5997,13,1,60,0,82.385951628273233,0
15,34.1298,6.2586,13,2,60,0,87.838459056539648,0
14,34.1298,3.1293,12,3,60,0,87.749358083506806,0
14,34.1298,2.6822,11,4,60,0,82.135480367498232,0
13,34.1298,3.5763,11,5,60,0,87.659298938667845,0
13,34.1298,5.8115,10,6,60,0,82.008317294977047,0
12,34.1298,2.6822,11,7,60,17.225,93.602371756764171,0.79384
12,1856.9232,4.0234,11,8,60,241.44,93.602371756764171,241.44
12,1856.9232,6.7056,11,9,60,449.03,93.602371756764171,320.34
12,1856.9232,13.411,10,10,60,641.41,87.568268233149638,499.88
11,34.1298,9.3878,8,11,60,753.76,81.750052187031002,557.98
11,34.1298,10.282,7,12,60,823.31,76.357329126718284,753.79
10,34.1298,10.282,6,13,60,823.66,76.193074639467341,729.93
9,34.1298,14.752,5,14,60,770.2,76.027205034617879,632.25
8,34.1298,12.964,4,15,60,635.74,75.859700794653989,472.77
7,34.1298,9.3878,3,16,60,448.09,75.690542144640617,263.71
7,34.1298,13.411,2,17,60,240.31,70.499329419935393,167.91
6,1856.9232,9.8349,1,18,60,0,70.299266961976286,0
5,1856.9232,10.282,1,19,60,0,75.347181209710627,0
3,1856.9232,8.9408,0,20,60,0,80.661880682868471,0
2,34.1298,9.8349,-1,21,60,0,80.519354085990997,0
2,34.1298,9.3878,-2,22,60,0,74.819222225640118,0
1,34.1298,8.0467,-2,23,60,0,80.375317381711923,0
1,1856.9232,6.2586,-2,0,61,0,80.375317381711923,0
1,34.1298,4.9174,-2,1,61,0,80.375317381711923,0
1,34.1298,4.0234,-3,2,61,0,74.639707050276655,0
0,34.1298,4.0234,-3,3,61,0,80.22975039312503,0
0,34.1298,4.0234,-3,4,61,0,80.22975039312503,0
-1,34.1298,3.5763,-4,5,61,0,80.082632632857582,0
-2,34.1298,3.1293,-4,6,61,0,86.18375948438603,0
-2,34.1298,3.1293,-4,7,61,22.775,86.18375948438603,10.949
-2,1856.9232,3.5763,-4,8,61,242.76,86.18375948438603,114.39
0,1856.9232,4.4704,-4,9,61,443.14,74.458391582192704,346.73
1,1856.9232,8.0467,-3,10,61,625.6,74.639707050276655,428.91
2,34.1298,6.7056,-3,11,61,741.68,69.480096758186903,526.34
4,34.1298,6.7056,-3,12,61,800.86,60.311060569484063,670.19
5,34.1298,6.2586,-3,13,61,791.17,56.238915325569103,535.07
6,34.1298,8.9408,-3,14,61,746.32,52.471166918911017,505.4
6,34.1298,6.2586,-3,15,61,615.16,52.471166918911017,15.474
6,34.1298,7.1526,-3,16,61,447.67,52.471166918911017,70.662
5,34.1298,6.7056,-3,17,61,233.86,56.238915325569103,38.871
5,1856.9232,7.1526,-3,18,61,3.6351,56.238915325569103,3.6351
5,1856.9232,4.0234,-3,19,61,0,56.238915325569103,0
3,1856.9232,4.0234,-3,20,61,0,64.714825534265714,0
3,34.1298,3.5763,-3,21,61,0,64.714825534265714,0
2,34.1298,2.2352,-3,22,61,0,69.480096758186903,0
1,34.1298,1.3411,-4,23,61,0,69.270470217066517,0
0,1856.9232,2.2352,-4,0,62,0,74.458391582192704,0
0,34.1298,2.2352,-4,1,62,0,74.458391582192704,0
-1,34.1298,4.0234,-4,2,62,0,80.082632632857582,0
-2,34.1298,4.4704,-5,3,62,0,79.933943298104751,0
-3,34.1298,5.8115,-5,4,62,0,86.076383684481797,0
-3,34.1298,4.0234,-5,5,62,0,86.076383684481797,0
-4,34.1298,4.4704,-6,6,62,0,85.967788086353806,0
-4,34.1298,4.4704,-7,7,62,29.197,79.631765086518371,29.197
-4,1856.9232,4.4704,-7,8,62,255.9,79.631765086518371,255.9
-3,1856.9232,5.8115,-7,9,62,460.63,73.90342258501218,460.63
-2,1856.9232,4.4704,-7,10,62,628.89,68.629648895336288,628.89
0,34.1298,6.2586,-8,11,62,750.84,54.886767826455419,750.84
1,34.1298,2.6822,-8,12,62,785.52,51.062508002695161,785.52
2,34.1298,3.5763,-9,13,62,774.92,43.971749191093984,414.33
2,34.1298,4.9174,-9,14,62,718.8,43.971749191093984,718.8
3,34.1298,4.4704,-9,15,62,602.62,40.955960197376008,602.62
3,34.1298,3.5763,-8,16,62,433.5,44.272699174858509,433.5
2,34.1298,4.4704,-8,17,62,233.93,47.532715989267842,233.93
1,1856.9232,3.1293,-8,18,62,7.7255,51.062508002695161,7.7255
0,1856.9232,0,-8,19,62,0,54.886767826455419,0
0,1856.9232,0,-8,20,62,0,54.886767826455419,0
-1,34.1298,0,-8,21,62,0,59.032659326234857,0
-1,34.1298,0,-8,22,62,0,59.032659326234857,0
