6,34.1298,3.5763,3,15,19,391.47,81.080597043606616,163.52
7,34.1298,3.5763,3,16,19,234.03,75.690542144640617,29.379
7,34.1298,5.8115,4,17,19,43.454,81.21727894075245,21.112
7,1856.9232,3.1293,5,18,19,0,87.098056588182175,0
6,1856.9232,4.4704,5,19,19,0,93.300460393223361,0
6,1856.9232,6.2586,5,20,19,0,93.300460393223361,0
6,34.1298,6.7056,5,21,19,0,93.300460393223361,0
6,34.1298,4.9174,5,22,19,0,93.300460393223361,0
6,34.1298,4.0234,5,23,19,0,93.300460393223361,0
6,1856.9232,4.0234,5,0,20,0,93.300460393223361,0
6,34.1298,4.0234,5,1,20,0,93.300460393223361,0
6,34.1298,3.5763,5,2,20,0,93.300460393223361,0
6,34.1298,2.6822,5,3,20,0,93.300460393223361,0
6,34.1298,2.6822,5,4,20,0,93.300460393223361,0
6,34.1298,2.6822,5,5,20,0,93.300460393223361,0
6,34.1298,0,5,6,20,0,93.300460393223361,0
6,34.1298,0,5,7,20,0,93.300460393223361,0
6,1856.9232,0,5,8,20,75.64,93.300460393223361,73.886
6,1856.9232,0,5,9,20,258.16,93.300460393223361,251.75
6,1856.9232,3.5763,5,10,20,413.89,93.300460393223361,405.87
7,34.1298,4.4704,6,11,20,518.59,93.352225938756803,459.73
9,34.1298,3.5763,7,12,20,565.67,87.289209441366083,500.14
10,34.1298,4.9174,7,13,20,571.75,81.618915749746961,544.62
11,34.1298,2.2352,8,14,20,504.13,81.750052187031002,436.84
11,34.1298,3.1293,8,15,20,398.09,81.750052187031002,339.07
11,34.1298,0,9,16,20,231.93,87.47625235168276,205.11
10,34.1298,0,9,17,20,45.78,93.504015298216231,40.848
10,1856.9232,0,8,18,20,0,87.383237448204156,0
10,1856.9232,2.2352,8,19,20,0,87.383237448204156,0
9,1856.9232,2.2352,8,20,20,0,93.453994643448382,0
8,34.1298,2.6822,8,21,20,0,100.0,0
8,34.1298,2.6822,8,22,20,0,100.0,0
8,34.1298,4.4704,8,23,20,0,100.0,0
8,1856.9232,3.5763,8,0,21,0,100.0,0
8,34.1298,3.5763,8,1,21,0,100.0,0
8,34.1298,3.1293,8,2,21,0,100.0,0
8,34.1298,3.1293,8,3,21,0,100.0,0
8,34.1298,2.2352,8,4,21,0,100.0,0
8,34.1298,2.2352,8,5,21,0,100.0,0
7,34.1298,1.3411,7,6,21,0,100.0,0
7,34.1298,2.6822,7,7,21,0,100.0,0
8,1856.9232,1.3411,8,8,21,78.694,100.0,78.694
9,1856.9232,1.3411,8,9,21,265.11,93.453994643448382,265.11
10,1856.9232,2.2352,9,10,21,414.41,93.504015298216231,414.41
11,34.1298,3.1293,9,11,21,517.18,87.47625235168276,517.18
12,34.1298,2.2352,10,12,21,564.52,87.568268233149638,564.52
13,34.1298,6.2586,10,13,21,580.68,82.008317294977047,580.68
14,34.1298,4.4704,10,14,21,515.59,76.840593259432197,415.55
15,34.1298,4.4704,11,15,21,404.43,76.998577407491453,404.43
15,34.1298,4.0234,11,16,21,244.41,76.998577407491453,244.41
15,34.1298,4.4704,11,17,21,51.525,76.998577407491453,51.525
13,1856.9232,2.6822,10,18,21,0,82.008317294977047,0
12,1856.9232,1.3411,10,19,21,0,87.568268233149638,0
12,1856.9232,0,10,20,21,0,87.568268233149638,0
11,34.1298,0,9,21,21,0,87.47625235168276,0
11,34.1298,0,9,22,21,0,87.47625235168276,0
10,34.1298,1.3411,9,23,21,0,93.504015298216231,0
10,1856.9232,2.2352,8,0,22,0,87.383237448204156,0
8,34.1298,2.2352,8,1,22,0,100.0,0
8,34.1298,2.2352,8,2,22,0,100.0,0
8,34.1298,0,8,3,22,0,100.0,0
7,34.1298,2.2352,7,4,22,0,100.0,0
7,34.1298,0,7,5,22,0,100.0,0
7,34.1298,1.3411,7,6,22,0,100.0,0
7,34.1298,0,7,7,22,0,100.0,0
7,1856.9232,0,7,8,22,79.831,100.0,78.9
8,1856.9232,1.3411,7,9,22,266.61,93.403401079212742,266.61
9,1856.9232,0,7,10,22,408.65,87.289209441366083,13.98
10,34.1298,1.3411,8,11,22,506.08,87.383237448204156,33.037
11,34.1298,2.6822,8,12,22,560.48,81.750052187031002,348.23
12,34.1298,2.6822,9,13,22,565.78,81.879846925107273,352.28
12,34.1298,4.9174,9,14,22,523.68,81.879846925107273,523.68
