6,34.1298,3.1293,2,11,58,687.32,75.519709049236894,385.72
7,34.1298,3.5763,2,12,58,766.22,70.499329419935393,766.22
9,34.1298,2.6822,2,13,58,764.87,61.538307312126015,764.87
10,34.1298,3.5763,2,14,58,702.02,57.540788283393631,414.28
11,34.1298,1.3411,2,15,58,568.67,53.831404997309406,337.45
11,34.1298,4.0234,3,16,58,414.07,57.795276383180649,191.32
11,34.1298,4.0234,3,17,58,212.27,57.795276383180649,110.94
10,1856.9232,3.5763,3,18,58,0,61.77779982356094,0
8,1856.9232,3.5763,3,19,58,0,70.697540658389229,0
7,1856.9232,2.6822,3,20,58,0,75.690542144640617,0
7,34.1298,3.1293,4,21,58,0,81.21727894075245,0
7,34.1298,4.0234,4,22,58,0,81.21727894075245,0
7,34.1298,4.0234,4,23,58,0,81.21727894075245,0
7,1856.9232,2.2352,5,0,59,0,87.098056588182175,0
8,34.1298,6.2586,5,1,59,0,81.35254712725947,0
8,34.1298,3.5763,5,2,59,0,81.35254712725947,0
9,34.1298,3.5763,6,3,59,0,81.486420017858691,0
10,34.1298,4.4704,6,4,59,0,76.193074639467341,0
10,34.1298,0,6,5,59,0,76.193074639467341,0
10,34.1298,3.1293,7,6,59,0,81.618915749746961,0
11,34.1298,2.2352,8,7,59,11.461,81.750052187031002,10.583
12,1856.9232,3.1293,9,8,59,230.45,81.879846925107273,219.46
12,1856.9232,2.2352,10,9,59,426.6,87.568268233149638,401.95
14,1856.9232,2.6822,10,10,59,583.73,76.840593259432197,564.09
15,34.1298,3.5763,11,11,59,701.13,76.998577407491453,681.7
16,34.1298,4.0234,12,12,59,758.1,77.155040268598128,736.77
17,34.1298,3.5763,12,13,59,756.02,72.401374699018376,729.53
18,34.1298,4.9174,12,14,59,698.65,67.973701215250202,636.55
18,34.1298,4.0234,13,15,59,580.29,72.582141630914492,545.88
18,34.1298,4.9174,13,16,59,417.77,72.582141630914492,397.12
18,34.1298,4.9174,13,17,59,219.05,72.582141630914492,205.22
17,1856.9232,4.4704,13,18,59,0,77.309999878277452,0
17,1856.9232,4.0234,13,19,59,0,77.309999878277452,0
17,1856.9232,7.1526,13,20,59,0,77.309999878277452,0
17,34.1298,9.8349,13,21,59,0,77.309999878277452,0
16,34.1298,6.2586,13,22,59,0,82.385951628273233,0
16,34.1298,5.8115,13,23,59,0,82.385951628273233,0
15,1856.9232,4.9174,13,0,60,0,87.838459056539648,0
15,34.1298,7.5997,12,1,60,0,82.261352957573052,0
15,34.1298,6.2586,12,2,60,0,82.261352957573052,0
14,34.1298,3.1293,11,3,60,0,82.135480367498232,0
13,34.1298,2.6822,10,4,60,0,82.008317294977047,0
12,34.1298,3.5763,10,5,60,0,87.568268233149638,0
12,34.1298,5.8115,10,6,60,0,87.568268233149638,0
12,34.1298,2.6822,10,7,60,17.225,87.568268233149638,0.79384
10,1856.9232,4.0234,8,8,60,241.44,87.383237448204156,241.44
11,1856.9232,6.7056,8,9,60,449.03,81.750052187031002,320.34
10,1856.9232,13.411,7,10,60,641.41,81.618915749746961,499.88
10,34.1298,9.3878,7,11,60,753.76,81.618915749746961,557.98
9,34.1298,10.282,7,12,60,823.31,87.289209441366083,753.79
9,34.1298,10.282,6,13,60,823.66,81.486420017858691,729.93
8,34.1298,14.752,5,14,60,770.2,81.35254712725947,632.25
8,34.1298,12.964,3,15,60,635.74,70.697540658389229,472.77
7,34.1298,9.3878,2,16,60,448.09,70.499329419935393,263.71
7,34.1298,13.411,2,17,60,240.31,70.499329419935393,167.91
6,1856.9232,9.8349,1,18,60,0,70.299266961976286,0
5,1856.9232,10.282,1,19,60,0,75.347181209710627,0
5,1856.9232,8.9408,0,20,60,0,70.097333034191095,0
3,34.1298,9.8349,0,21,60,0,80.661880682868471,0
3,34.1298,9.3878,-1,22,60,0,74.996958768522148,0
2,34.1298,8.0467,-2,23,60,0,74.819222225640118,0
2,1856.9232,6.2586,-2,0,61,0,74.819222225640118,0
2,34.1298,4.9174,-2,1,61,0,74.819222225640118,0
1,34.1298,4.0234,-2,2,61,0,80.375317381711923,0
0,34.1298,4.0234,-3,3,61,0,80.22975039312503,0
0,34.1298,4.0234,-3,4,61,0,80.22975039312503,0
-1,34.1298,3.5763,-3,5,61,0,86.28993308116371,0
-2,34.1298,3.1293,-3,6,61,0,92.863965557739348,0
-1,34.1298,3.1293,-4,7,61,22.775,80.082632632857582,10.949
0,1856.9232,3.5763,-4,8,61,242.76,74.458391582192704,114.39
1,1856.9232,4.4704,-4,9,61,443.14,69.270470217066517,346.73
3,1856.9232,8.0467,-4,10,61,625.6,60.059538976411261,428.91
