11,34.1298,4.0234,4,14,37,578.53,62.015344988555213,517.23
11,34.1298,3.1293,5,15,37,465.61,66.505749732013612,431.31
10,34.1298,4.0234,5,16,37,311.18,71.088489426375332,295.52
9,34.1298,3.5763,6,17,37,117.33,81.486420017858691,112.54
8,1856.9232,3.5763,6,18,37,0,87.194154009949884,0
8,1856.9232,2.2352,6,19,37,0,87.194154009949884,0
8,1856.9232,3.1293,6,20,37,0,87.194154009949884,0
8,34.1298,2.2352,6,21,37,0,87.194154009949884,0
8,34.1298,1.3411,6,22,37,0,87.194154009949884,0
8,34.1298,2.2352,6,23,37,0,87.194154009949884,0
9,1856.9232,2.6822,7,0,38,0,87.289209441366083,0
10,34.1298,2.2352,7,1,38,0,81.618915749746961,0
11,34.1298,1.3411,8,2,38,0,81.750052187031002,0
12,34.1298,2.2352,8,3,38,0,76.519987759453471,0
12,34.1298,0,10,4,38,0,87.568268233149638,0
13,34.1298,2.6822,10,5,38,0,82.008317294977047,0
13,34.1298,2.6822,10,6,38,0,82.008317294977047,0
13,34.1298,4.9174,10,7,38,0,82.008317294977047,0
13,1856.9232,7.1526,11,8,38,132.58,87.659298938667845,51.738
14,1856.9232,3.5763,12,9,38,324.29,87.749358083506806,272.18
15,1856.9232,4.9174,12,10,38,488.14,82.261352957573052,328.6
15,34.1298,6.2586,12,11,38,605.85,82.261352957573052,368.87
15,34.1298,5.8115,12,12,38,660.13,82.261352957573052,432.98
15,34.1298,7.1526,12,13,38,666.52,82.261352957573052,476.9
15,34.1298,7.5997,11,14,38,609.64,76.998577407491453,498.42
15,34.1298,5.8115,10,15,38,487.54,72.034842210105538,230.01
15,34.1298,9.3878,10,16,38,333.66,72.034842210105538,176.78
13,34.1298,11.176,9,17,38,130.73,76.681069549305064,116.99
12,1856.9232,8.0467,8,18,38,0,76.519987759453471,0
11,1856.9232,6.7056,8,19,38,0,81.750052187031002,0
10,1856.9232,7.1526,7,20,38,0,81.618915749746961,0
9,34.1298,7.1526,6,21,38,0,81.486420017858691,0
8,34.1298,7.1526,5,22,38,0,81.35254712725947,0
7,34.1298,7.5997,3,23,38,0,75.690542144640617,0
6,1856.9232,6.2586,2,0,39,0,75.519709049236894,0
5,34.1298,7.1526,0,1,39,0,70.097333034191095,0
3,34.1298,4.9174,-1,2,39,0,74.996958768522148,0
2,34.1298,4.0234,-2,3,39,0,74.819222225640118,0
1,34.1298,3.5763,-2,4,39,0,80.375317381711923,0
0,34.1298,3.1293,-3,5,39,0,80.22975039312503,0
-1,34.1298,1.3411,-3,6,39,0,86.28993308116371,0
-2,34.1298,3.5763,-4,7,39,0,86.18375948438603,0
-2,1856.9232,2.6822,-4,8,39,133.87,86.18375948438603,114.54
-2,1856.9232,3.1293,-4,9,39,329.98,86.18375948438603,272.5
-2,1856.9232,3.1293,-4,10,39,487.72,86.18375948438603,77.46
-2,34.1298,4.9174,-4,11,39,607.89,86.18375948438603,154.82
-1,34.1298,4.4704,-5,12,39,653.62,74.275253880025062,572.75
0,34.1298,3.5763,-5,13,39,650.94,69.058867777488345,617.74
0,34.1298,4.4704,-5,14,39,593.73,69.058867777488345,407.94
0,34.1298,5.8115,-5,15,39,489.26,69.058867777488345,393.02
0,34.1298,4.0234,-5,16,39,323.69,69.058867777488345,306.8
-1,34.1298,4.9174,-5,17,39,128.86,74.275253880025062,120.24
-2,1856.9232,4.9174,-5,18,39,0,79.933943298104751,0
-3,1856.9232,4.0234,-6,19,39,0,79.783661265599576,0
-4,1856.9232,3.5763,-6,20,39,0,85.967788086353806,0
-4,34.1298,4.0234,-7,21,39,0,79.631765086518371,0
-5,34.1298,4.9174,-7,22,39,0,85.857954785728069,0
-5,34.1298,3.1293,-7,23,39,0,85.857954785728069,0
-5,1856.9232,6.2586,-8,0,40,0,79.478232981322179,0
-6,34.1298,5.8115,-8,1,40,0,85.74686556299531,0
-7,34.1298,4.9174,-8,2,40,0,92.569445870999985,0
-7,34.1298,4.4704,-8,3,40,0,92.569445870999985,0
-7,34.1298,4.4704,-9,4,40,0,85.634501876922116,0
-8,34.1298,3.5763,-9,5,40,0,92.508387698742339,0
-8,34.1298,5.8115,-10,6,40,0,85.520844858228372,0
-9,34.1298,5.8115,-12,7,40,0,78.847297839406991,0
-9,1856.9232,4.0234,-12,8,40,141.87,78.847297839406991,141.87
-8,1856.9232,4.9174,-12,9,40,342.4,72.940363975260709,342.4
-7,1856.9232,5.8115,-12,10,40,503.85,67.520490748189346,503.85
-6,34.1298,6.7056,-12,11,40,616.01,62.54407583902627,616.01
-5,34.1298,7.1526,-12,12,40,676.56,57.971712417682106,676.56
-4,34.1298,7.1526,-12,13,40,675.7,53.767758577862509,675.7
