7,1856.9232,6.2586,2,0,56,0,70.499329419935393,0
6,34.1298,7.5997,1,1,56,0,70.299266961976286,0
5,34.1298,8.0467,0,2,56,0,70.097333034191095,0
3,34.1298,6.2586,0,3,56,0,80.661880682868471,0
2,34.1298,6.7056,-2,4,56,0,74.819222225640118,0
1,34.1298,6.7056,-3,5,56,0,74.639707050276655,0
0,34.1298,4.9174,-3,6,56,0,80.22975039312503,0
-1,34.1298,6.7056,-4,7,56,0,80.082632632857582,0
-2,1856.9232,9.8349,-5,8,56,230.42,79.933943298104751,171.53
-2,1856.9232,12.964,-5,9,56,451.8,79.933943298104751,391.59
-2,1856.9232,9.8349,-6,10,56,616.44,74.090271718389829,423
-2,34.1298,7.1526,-7,11,56,712.98,68.629648895336288,463.96
-2,34.1298,9.3878,-7,12,56,780.71,68.629648895336288,513.48
-1,34.1298,7.1526,-7,13,56,764.1,63.77121389329664,508.07
-1,34.1298,8.0467,-8,14,56,707.12,59.032659326234857,501.5
-1,34.1298,6.2586,-8,15,56,581.1,59.032659326234857,442.98
-1,34.1298,7.5997,-8,16,56,413.03,59.032659326234857,260.47
-2,34.1298,10.729,-8,17,56,214.27,63.530085685625657,137.15
-2,1856.9232,6.2586,-8,18,56,0,63.530085685625657,0
-3,1856.9232,7.1526,-9,19,56,0,63.286827800671929,0
-3,1856.9232,6.7056,-9,20,56,0,63.286827800671929,0
-3,34.1298,4.4704,-8,21,56,0,68.41198876664923,0
-4,34.1298,3.5763,-8,22,56,0,73.714683677886498,0
-4,34.1298,2.6822,-8,23,56,0,73.714683677886498,0
-4,1856.9232,2.6822,-8,0,57,0,73.714683677886498,0
-4,34.1298,2.2352,-9,1,57,0,68.192265367640786,0
-4,34.1298,2.2352,-9,2,57,0,68.192265367640786,0
-5,34.1298,0,-8,3,57,0,79.478232981322179,0
-5,34.1298,0,-8,4,57,0,79.478232981322179,0
-5,34.1298,0,-8,5,57,0,79.478232981322179,0
-6,34.1298,0,-9,6,57,0,79.323042834535087,0
-6,34.1298,0,-9,7,57,0.58309,79.323042834535087,0.58309
-5,1856.9232,2.6822,-8,8,57,220.05,79.478232981322179,220.05
-3,1856.9232,3.5763,-8,9,57,418.89,68.41198876664923,418.89
-1,1856.9232,3.1293,-7,10,57,570.74,63.77121389329664,570.74
1,34.1298,4.4704,-7,11,57,701.48,55.161298117581083,701.48
3,34.1298,4.9174,-7,12,57,764.24,47.82647098974175,764.24
5,34.1298,6.2586,-7,13,57,773.52,41.562483250282511,773.52
6,34.1298,6.7056,-6,14,57,706.03,41.863418076691318,706.03
6,34.1298,8.0467,-6,15,57,593.54,41.863418076691318,593.54
6,34.1298,8.9408,-5,16,57,427.25,45.165282960846739,427.25
6,34.1298,6.7056,-5,17,57,214.82,45.165282960846739,214.82
5,1856.9232,4.4704,-4,18,57,0,52.193346719271737,0
4,1856.9232,3.1293,-4,19,57,0,55.972560585266336,0
3,1856.9232,2.6822,-3,20,57,0,64.714825534265714,0
3,34.1298,2.6822,-3,21,57,0,64.714825534265714,0
3,34.1298,3.1293,-2,22,57,0,69.687768711565994,0
2,34.1298,0,-2,23,57,0,74.819222225640118,0
2,1856.9232,0,-2,0,58,0,74.819222225640118,0
2,34.1298,0,-2,1,58,0,74.819222225640118,0
2,34.1298,0,-2,2,58,0,74.819222225640118,0
2,34.1298,1.3411,-1,3,58,0,80.519354085990997,0
1,34.1298,0,-1,4,58,0,86.498742535900504,0
1,34.1298,0,-1,5,58,0,86.498742535900504,0
1,34.1298,1.3411,-1,6,58,0,86.498742535900504,0
1,34.1298,0,-1,7,58,5.8739,86.498742535900504,4.2413
1,1856.9232,0,-1,8,58,218.41,86.498742535900504,152.93
2,1856.9232,0,0,9,58,405.46,86.60141209181765,264.81
3,1856.9232,2.2352,0,10,58,567.16,80.661880682868471,367.24
5,34.1298,3.1293,1,11,58,687.32,75.347181209710627,385.72
7,34.1298,3.5763,2,12,58,766.22,70.499329419935393,766.22
9,34.1298,2.6822,2,13,58,764.87,61.538307312126015,764.87
10,34.1298,3.5763,3,14,58,702.02,61.77779982356094,414.28
10,34.1298,1.3411,3,15,58,568.67,61.77779982356094,337.45
10,34.1298,4.0234,3,16,58,414.07,61.77779982356094,191.32
10,34.1298,4.0234,3,17,58,212.27,61.77779982356094,110.94
9,1856.9232,3.5763,3,18,58,0,66.069675859940816,0
8,1856.9232,3.5763,3,19,58,0,70.697540658389229,0
7,1856.9232,2.6822,3,20,58,0,75.690542144640617,0
6,34.1298,3.1293,3,21,58,0,81.080597043606616,0
6,34.1298,4.0234,4,22,58,0,87.000902360951287,0
5,34.1298,4.0234,4,23,58,0,93.248095448058876,0
