-3,34.1298,0,-3,6,15,0,100.0,0
-3,34.1298,0,-4,7,15,0,92.806460468027481,0
-3,1856.9232,0,-4,8,15,67.905,92.806460468027481,2.635
-3,1856.9232,0,-5,9,15,250.05,86.076383684481797,250.05
-3,1856.9232,0,-5,10,15,394.33,86.076383684481797,394.33
-2,34.1298,2.6822,-4,11,15,502.47,86.18375948438603,0
0,34.1298,3.1293,-4,12,15,552.6,74.458391582192704,0
1,34.1298,2.2352,-4,13,15,549.03,69.270470217066517,30.657
1,34.1298,2.2352,-4,14,15,489.42,69.270470217066517,28.084
1,34.1298,2.2352,-4,15,15,377.15,69.270470217066517,0
1,34.1298,3.1293,-3,16,15,220.63,74.639707050276655,15.201
1,34.1298,2.6822,-3,17,15,28.164,74.639707050276655,2.2042
0,1856.9232,2.6822,-3,18,15,0,80.22975039312503,0
-1,1856.9232,3.1293,-3,19,15,0,86.28993308116371,0
-1,1856.9232,3.1293,-3,20,15,0,86.28993308116371,0
-2,34.1298,3.1293,-3,21,15,0,92.863965557739348,0
-2,34.1298,3.1293,-3,22,15,0,92.863965557739348,0
-2,34.1298,0,-3,23,15,0,92.863965557739348,0
-2,1856.9232,2.2352,-3,0,16,0,92.863965557739348,0
-2,34.1298,2.2352,-3,1,16,0,92.863965557739348,0
-2,34.1298,2.2352,-3,2,16,0,92.863965557739348,0
-1,34.1298,2.2352,-3,3,16,0,86.28993308116371,0
-1,34.1298,2.6822,-3,4,16,0,86.28993308116371,0
-1,34.1298,2.6822,-3,5,16,0,86.28993308116371,0
0,34.1298,2.6822,-2,6,16,0,86.394921766765563,0
0,34.1298,2.6822,-2,7,16,0,86.394921766765563,0
0,1856.9232,2.2352,-1,8,16,69.494,92.97695284762996,62.905
0,1856.9232,2.2352,-1,9,16,252.93,92.97695284762996,238.45
0,1856.9232,2.6822,0,10,16,400.76,100.0,379.52
1,34.1298,2.6822,0,11,16,503.13,93.032455771758947,482.43
2,34.1298,2.6822,1,12,16,553.35,93.087311705799863,537.97
3,34.1298,3.5763,2,13,16,551.02,93.141530529950373,539.65
4,34.1298,3.1293,2,14,16,488.87,86.803362953546198,482.29
5,34.1298,4.0234,3,15,16,377.37,86.902676258921971,370.07
5,34.1298,3.1293,3,16,16,220.47,86.902676258921971,215.09
5,34.1298,3.1293,3,17,16,31.516,86.902676258921971,30.806
6,1856.9232,3.5763,4,18,16,0,87.000902360951287,0
6,1856.9232,3.1293,4,19,16,0,87.000902360951287,0
6,1856.9232,2.6822,4,20,16,0,87.000902360951287,0
5,34.1298,2.6822,5,21,16,0,100.0,0
5,34.1298,3.5763,5,22,16,0,100.0,0
6,34.1298,2.2352,5,23,16,0,93.300460393223361,0
7,1856.9232,2.6822,6,0,17,0,93.352225938756803,0
8,34.1298,4.0234,6,1,17,0,87.194154009949884,0
9,34.1298,4.9174,7,2,17,0,87.289209441366083,0
10,34.1298,4.4704,7,3,17,0,81.618915749746961,0
10,34.1298,6.2586,7,4,17,0,81.618915749746961,0
10,34.1298,4.9174,7,5,17,0,81.618915749746961,0
9,34.1298,9.3878,7,6,17,0,87.289209441366083,0
9,34.1298,7.5997,7,7,17,0,87.289209441366083,0
8,1856.9232,6.2586,7,8,17,75.512,93.403401079212742,44.562
8,1856.9232,6.2586,7,9,17,269.59,93.403401079212742,191.2
8,1856.9232,5.8115,6,10,17,421.33,87.194154009949884,359.27
8,34.1298,4.0234,6,11,17,520.16,87.194154009949884,492.37
8,34.1298,5.8115,6,12,17,574.6,87.194154009949884,543.37
8,34.1298,5.8115,6,13,17,569.24,87.194154009949884,546.17
7,34.1298,4.0234,5,14,17,501.26,87.098056588182175,474.57
7,34.1298,4.9174,5,15,17,389.51,87.098056588182175,369.45
7,34.1298,6.7056,5,16,17,232.24,87.098056588182175,222.44
6,34.1298,5.8115,4,17,17,36.333,87.000902360951287,35.109
6,1856.9232,5.8115,4,18,17,0,87.000902360951287,0
5,1856.9232,5.8115,3,19,17,0,86.902676258921971,0
4,1856.9232,4.9174,3,20,17,0,93.195121939330733,0
3,34.1298,4.9174,2,21,17,0,93.141530529950373,0
3,34.1298,5.8115,1,22,17,0,86.702946851967639,0
2,34.1298,4.9174,1,23,17,0,93.087311705799863,0
1,1856.9232,4.0234,1,0,18,0,100.0,0
1,34.1298,4.0234,0,1,18,0,93.032455771758947,0
1,34.1298,4.9174,0,2,18,0,93.032455771758947,0
1,34.1298,5.8115,0,3,18,0,93.032455771758947,0
0,34.1298,5.8115,-1,4,18,0,92.97695284762996,0
0,34.1298,7.1526,-1,5,18,0,92.97695284762996,0
