-7,1856.9232,4.9174,-12,8,33,114.96,67.520490748189346,114.96
-7,1856.9232,3.5763,-12,9,33,308.41,67.520490748189346,308.41
-6,1856.9232,4.0234,-13,10,33,465.61,57.701028079024439,465.61
-5,34.1298,4.4704,-13,11,33,572.98,53.48272176266731,572.98
-4,34.1298,4.0234,-13,12,33,630.1,49.604297542623229,630.1
-4,34.1298,4.9174,-13,13,33,629.84,49.604297542623229,629.84
-3,34.1298,4.9174,-13,14,33,570.59,46.035992789337357,570.59
-3,34.1298,4.9174,-12,15,33,453.75,49.899953609108429,453.75
-3,34.1298,4.9174,-12,16,33,295.02,49.899953609108429,295.02
-3,34.1298,5.8115,-13,17,33,101.74,46.035992789337357,101.74
-3,1856.9232,4.4704,-12,18,33,0,49.899953609108429,0
-4,1856.9232,3.1293,-12,19,33,0,53.767758577862509,0
-5,1856.9232,3.5763,-13,20,33,0,53.48272176266731,0
-6,34.1298,3.1293,-13,21,33,0,57.701028079024439,0
-7,34.1298,3.1293,-13,22,33,0,62.292098497037117,0
-7,34.1298,2.6822,-13,23,33,0,62.292098497037117,0
-8,1856.9232,3.1293,-13,0,34,0,67.292288412144302,0
-8,34.1298,2.2352,-13,1,34,0,67.292288412144302,0
-8,34.1298,2.2352,-13,2,34,0,67.292288412144302,0
-9,34.1298,4.4704,-13,3,34,0,72.741823834704164,0
-9,34.1298,4.0234,-13,4,34,0,72.741823834704164,0
-9,34.1298,6.2586,-13,5,34,0,72.741823834704164,0
-9,34.1298,6.2586,-13,6,34,0,72.741823834704164,0
-10,34.1298,3.1293,-14,7,34,0,72.541250869952918,0
-10,1856.9232,3.1293,-14,8,34,115.43,72.541250869952918,7.6487
-10,1856.9232,4.4704,-13,9,34,308.95,78.685247466506723,8.9477
-9,1856.9232,4.0234,-13,10,34,465.18,72.741823834704164,23.434
-7,34.1298,4.9174,-14,11,34,581.06,57.428131572094784,54.953
-7,34.1298,5.8115,-14,12,34,641.65,57.428131572094784,641.65
-5,34.1298,6.2586,-15,13,34,642.08,45.424199584158785,642.08
-4,34.1298,5.8115,-15,14,34,580.32,42.130157881773087,580.32
-4,34.1298,6.2586,-14,15,34,469.83,45.731034827067205,469.83
-4,34.1298,4.9174,-14,16,34,305.48,45.731034827067205,305.48
-4,34.1298,5.8115,-15,17,34,107.19,42.130157881773087,107.19
-4,1856.9232,4.4704,-15,18,34,0,42.130157881773087,0
-5,1856.9232,2.6822,-15,19,34,0,45.424199584158785,0
-7,1856.9232,0,-14,20,34,0,57.428131572094784,0
-8,34.1298,1.3411,-13,21,34,0,67.292288412144302,0
-8,34.1298,1.3411,-13,22,34,0,67.292288412144302,0
-9,34.1298,1.3411,-13,23,34,0,72.741823834704164,0
-9,1856.9232,1.3411,-14,0,35,0,67.061908825759474,0
-9,34.1298,2.2352,-14,1,35,0,67.061908825759474,0
-10,34.1298,0,-14,2,35,0,72.541250869952918,0
-10,34.1298,0,-14,3,35,0,72.541250869952918,0
-10,34.1298,0,-14,4,35,0,72.541250869952918,0
-11,34.1298,0,-15,5,35,0,72.338620174891417,0
-11,34.1298,0,-15,6,35,0,72.338620174891417,0
-12,34.1298,0,-16,7,35,0,72.133906532621111,0
-12,1856.9232,0,-15,8,35,116.18,78.355800941122155,116.18
-12,1856.9232,0,-14,9,35,300.21,85.052894218833558,300.21
-9,1856.9232,2.2352,-14,10,35,452.02,67.061908825759474,452.02
-7,34.1298,3.5763,-14,11,35,571.42,57.428131572094784,571.42
-5,34.1298,6.7056,-15,12,35,658.27,45.424199584158785,658.27
-3,34.1298,5.8115,-15,13,35,663.79,39.099508319665297,663.79
-2,34.1298,4.0234,-15,14,35,589.97,36.30935393921942,0
-1,34.1298,4.9174,-14,15,35,471.01,36.622616619764386,11.027
0,34.1298,4.0234,-14,16,35,306.66,34.050592986126624,8.12
0,34.1298,4.0234,-14,17,35,110.88,34.050592986126624,110.88
0,1856.9232,3.5763,-14,18,35,0,34.050592986126624,0
-1,1856.9232,3.1293,-13,19,35,0,39.724427371168566,0
-2,1856.9232,2.2352,-13,20,35,0,42.75084848805362,0
-2,34.1298,2.6822,-12,21,35,0,46.339075732890365,0
-2,34.1298,3.5763,-10,22,35,0,54.331466017503473,0
-3,34.1298,3.5763,-9,23,35,0,63.286827800671929,0
-3,1856.9232,3.5763,-9,0,36,0,63.286827800671929,0
-3,34.1298,4.0234,-8,1,36,0,68.41198876664923,0
-3,34.1298,3.5763,-8,2,36,0,68.41198876664923,0
-3,34.1298,3.1293,-8,3,36,0,68.41198876664923,0
-3,34.1298,3.5763,-7,4,36,0,73.90342258501218,0
-3,34.1298,3.5763,-7,5,36,0,73.90342258501218,0
-4,34.1298,3.1293,-6,6,36,0,85.967788086353806,0
-4,34.1298,3.5763,-5,7,36,0,92.748266931412331,0
