11,1856.9232,4.4704,6,0,65,0,71.281266407174215,0
10,34.1298,4.4704,7,1,65,0,81.618915749746961,0
10,34.1298,4.0234,6,2,65,0,76.193074639467341,0
10,34.1298,4.0234,6,3,65,0,76.193074639467341,0
9,34.1298,4.4704,6,4,65,0,81.486420017858691,0
9,34.1298,4.4704,6,5,65,0,81.486420017858691,0
9,34.1298,4.9174,6,6,65,0,81.486420017858691,0
10,34.1298,4.0234,6,7,65,46.57,76.193074639467341,6.3088
10,1856.9232,5.8115,7,8,65,272.86,81.618915749746961,214.51
11,1856.9232,4.4704,8,9,65,464.38,81.750052187031002,370.82
12,1856.9232,4.4704,8,10,65,624.63,76.519987759453471,577.45
13,34.1298,4.0234,9,11,65,731.85,76.681069549305064,685.16
13,34.1298,4.9174,10,12,65,799.48,82.008317294977047,736.7
15,34.1298,4.0234,10,13,65,793.94,72.034842210105538,737.24
15,34.1298,4.0234,10,14,65,728.58,72.034842210105538,672.92
15,34.1298,4.9174,10,15,65,616.02,72.034842210105538,554.3
15,34.1298,6.2586,10,16,65,452.92,72.034842210105538,407.23
15,34.1298,6.2586,11,17,65,248.91,76.998577407491453,231.56
16,1856.9232,7.1526,11,18,65,20.78,72.218947621294333,19.363
16,1856.9232,7.1526,11,19,65,0,72.218947621294333,0
16,1856.9232,7.5997,11,20,65,0,72.218947621294333,0
16,34.1298,9.8349,11,21,65,0,72.218947621294333,0
16,34.1298,9.3878,11,22,65,0,72.218947621294333,0
16,34.1298,10.729,11,23,65,0,72.218947621294333,0
16,1856.9232,8.0467,11,0,66,0,72.218947621294333,0
16,34.1298,5.8115,11,1,66,0,72.218947621294333,0
15,34.1298,9.8349,10,2,66,0,72.034842210105538,0
13,34.1298,8.9408,9,3,66,0,76.681069549305064,0
11,34.1298,16.988,8,4,66,0,81.750052187031002,0
11,34.1298,4.0234,8,5,66,0,81.750052187031002,0
10,34.1298,5.8115,8,6,66,0,87.383237448204156,0
10,34.1298,3.5763,7,7,66,53.441,81.618915749746961,12.895
9,1856.9232,4.4704,6,8,66,280.27,81.486420017858691,22.465
8,1856.9232,5.8115,3,9,66,486.53,70.697540658389229,342.01
8,1856.9232,8.0467,2,10,66,658.77,65.848771416257676,339.13
8,34.1298,7.1526,1,11,66,783.38,61.296851102691427,553.81
10,34.1298,6.7056,1,12,66,846.01,53.563172947337002,595.15
11,34.1298,7.5997,0,13,66,841.67,46.618756876535237,465.32
12,34.1298,7.5997,0,14,66,770.51,43.636262119956577,502.66
13,34.1298,7.1526,0,15,66,650.25,40.865675451892798,406.95
13,34.1298,8.0467,-1,16,66,480.97,37.995659795771857,270.41
12,34.1298,7.5997,-2,17,66,263.91,37.699514520477237,263.91
11,1856.9232,7.1526,-2,18,66,25.654,40.276238532121262,25.654
10,1856.9232,5.8115,-2,19,66,0,43.051570256137374,0
8,1856.9232,3.1293,-1,20,66,0,53.021005417931356,0
6,34.1298,2.6822,0,21,66,0,65.401134444271349,0
6,34.1298,0,0,22,66,0,65.401134444271349,0
5,34.1298,0,-1,23,66,0,65.174364282645996,0
5,1856.9232,2.2352,-2,0,67,0,60.56053603547852,0
5,34.1298,1.3411,-2,1,67,0,60.56053603547852,0
4,34.1298,4.0234,-2,2,67,0,64.945601027542693,0
3,34.1298,4.4704,-2,3,67,0,69.687768711565994,0
2,34.1298,5.8115,-2,4,67,0,74.819222225640118,0
1,34.1298,3.5763,-3,5,67,0,74.639707050276655,0
1,34.1298,3.1293,-3,6,67,0,74.639707050276655,0
1,34.1298,3.1293,-4,7,67,58.2,69.270470217066517,58.2
2,1856.9232,2.6822,-3,8,67,278.08,69.480096758186903,278.08
3,1856.9232,5.8115,-3,9,67,484.26,64.714825534265714,484.26
5,1856.9232,6.7056,-3,10,67,654.47,56.238915325569103,654.47
6,34.1298,11.176,-3,11,67,797.84,52.471166918911017,797.84
7,34.1298,10.282,-4,12,67,855.22,45.459390660817419,855.22
9,34.1298,11.623,-4,13,67,860.77,39.681142724689735,860.77
10,34.1298,12.517,-4,14,67,794.74,37.103461763800908,794.74
10,34.1298,14.305,-4,15,67,677.97,37.103461763800908,677.97
10,34.1298,12.517,-4,16,67,488.65,37.103461763800908,488.65
10,34.1298,13.411,-4,17,67,272.15,37.103461763800908,272.15
9,1856.9232,8.9408,-4,18,67,29.712,39.681142724689735,29.712
8,1856.9232,4.9174,-4,19,67,0,42.46061698708948,0
7,1856.9232,2.2352,-4,20,67,0,45.459390660817419,0
6,34.1298,2.2352,-3,21,67,0,52.471166918911017,0
5,34.1298,2.2352,-3,22,67,0,56.238915325569103,0
4,34.1298,2.2352,-3,23,67,0,60.311060569484063,0
