3,34.1298,8.9408,-1,3,31,0,74.996958768522148,0
3,34.1298,10.729,-1,4,31,0,74.996958768522148,0
3,34.1298,8.9408,0,5,31,0,80.661880682868471,0
3,34.1298,8.9408,0,6,31,0,80.661880682868471,0
3,34.1298,8.9408,-1,7,31,0,74.996958768522148,0
3,1856.9232,9.3878,-1,8,31,109.42,74.996958768522148,88.575
3,1856.9232,6.7056,-1,9,31,303.87,74.996958768522148,233.92
3,1856.9232,8.0467,0,0,31,467.24,80.661880682868471,338.06
3,34.1298,8.9408,0,1,31,581.5,80.661880682868471,418.01
4,34.1298,8.9408,0,2,31,639.24,75.172938060956724,438.5
4,34.1298,6.7056,0,3,31,628.82,75.172938060956724,462.23
4,34.1298,8.9408,0,4,31,575.97,75.172938060956724,408.17
4,34.1298,8.0467,0,5,31,456.99,75.172938060956724,302.7
4,34.1298,7.1526,0,6,31,292.26,75.172938060956724,204.41
3,34.1298,6.7056,0,7,31,94.013,80.661880682868471,57.146
2,1856.9232,4.4704,-1,8,31,0,80.519354085990997,0
1,1856.9232,3.5763,-1,9,31,0,86.498742535900504,0
1,1856.9232,3.1293,-1,0,31,0,86.498742535900504,0
1,34.1298,2.6822,-2,1,31,0,80.375317381711923,0
0,34.1298,3.1293,-2,2,31,0,86.394921766765563,0
0,34.1298,3.1293,-2,3,31,0,86.394921766765563,0
0,1856.9232,3.5763,-2,0,32,0,86.394921766765563,0
0,34.1298,3.1293,-2,1,32,0,86.394921766765563,0
0,34.1298,3.1293,-2,2,32,0,86.394921766765563,0
0,34.1298,4.0234,-3,3,32,0,80.22975039312503,0
-1,34.1298,3.5763,-3,4,32,0,86.28993308116371,0
-1,34.1298,4.0234,-3,5,32,0,86.28993308116371,0
-1,34.1298,3.1293,-3,6,32,0,86.28993308116371,0
-2,34.1298,2.2352,-3,7,32,0,92.863965557739348,0
-2,1856.9232,2.2352,-3,8,32,107.58,92.863965557739348,0
-2,1856.9232,2.2352,-3,9,32,297.24,92.863965557739348,297.24
-1,1856.9232,3.5763,-3,0,32,454.05,86.28993308116371,454.05
0,34.1298,3.1293,-3,1,32,561.8,80.22975039312503,561.8
1,34.1298,4.4704,-3,2,32,626.66,74.639707050276655,543.8
1,34.1298,3.1293,-3,3,32,619.82,74.639707050276655,472.91
2,34.1298,4.4704,-3,4,32,568.93,69.480096758186903,418.6
2,34.1298,4.0234,-3,5,32,450.63,69.480096758186903,351.34
2,34.1298,6.2586,-4,6,32,297.16,64.482018531033972,213.32
2,34.1298,6.7056,-4,7,32,99.685,64.482018531033972,67.269
2,1856.9232,4.4704,-4,8,32,0,64.482018531033972,0
0,1856.9232,3.5763,-5,9,32,0,69.058867777488345,0
-2,1856.9232,3.1293,-5,0,32,0,79.933943298104751,0
-3,34.1298,4.0234,-5,1,32,0,86.076383684481797,0
-4,34.1298,4.9174,-5,2,32,0,92.748266931412331,0
-4,34.1298,6.7056,-6,3,32,0,85.967788086353806,0
-5,1856.9232,6.2586,-7,0,33,0,85.857954785728069,0
-5,34.1298,5.8115,-8,1,33,0,79.478232981322179,0
-6,34.1298,5.8115,-8,2,33,0,85.74686556299531,0
-7,34.1298,5.8115,-9,3,33,0,85.634501876922116,0
-7,34.1298,4.0234,-9,4,33,0,85.634501876922116,0
-7,34.1298,4.9174,-10,5,33,0,79.166172189459587,0
-8,34.1298,4.9174,-11,6,33,0,79.007598242830397,0
-8,34.1298,4.0234,-12,7,33,0,72.940363975260709,0
-8,1856.9232,4.9174,-12,8,33,114.96,72.940363975260709,114.96
-8,1856.9232,3.5763,-12,9,33,308.41,72.940363975260709,308.41
-7,1856.9232,4.0234,-12,0,33,465.61,67.520490748189346,465.61
-6,34.1298,4.4704,-12,1,33,572.98,62.54407583902627,572.98
-5,34.1298,4.0234,-13,2,33,630.1,53.48272176266731,630.1
-4,34.1298,4.9174,-13,3,33,629.84,49.604297542623229,629.84
-4,34.1298,4.9174,-13,4,33,570.59,49.604297542623229,570.59
-3,34.1298,4.9174,-12,5,33,453.75,49.899953609108429,453.75
-3,34.1298,4.9174,-12,6,33,295.02,49.899953609108429,295.02
-3,34.1298,5.8115,-12,7,33,101.74,49.899953609108429,101.74
-3,1856.9232,4.4704,-12,8,33,0,49.899953609108429,0
-4,1856.9232,3.1293,-12,9,33,0,53.767758577862509,0
-6,1856.9232,3.5763,-12,0,33,0,62.54407583902627,0
-7,34.1298,3.1293,-12,1,33,0,67.520490748189346,0
-7,34.1298,3.1293,-12,2,33,0,67.520490748189346,0
-8,34.1298,2.6822,-12,3,33,0,72.940363975260709,0
-8,1856.9232,3.1293,-13,0,34,0,67.292288412144302,0
-8,34.1298,2.2352,-13,1,34,0,67.292288412144302,0
-9,34.1298,2.2352,-13,2,34,0,72.741823834704164,0
