3,34.1298,7.1526,0,6,31,292.26,80.661880682868471,204.41
3,34.1298,6.7056,0,7,31,94.013,80.661880682868471,57.146
3,1856.9232,4.4704,0,8,31,0,80.661880682868471,0
2,1856.9232,3.5763,0,9,31,0,86.60141209181765,0
1,1856.9232,3.1293,0,0,31,0,93.032455771758947,0
1,34.1298,2.6822,0,1,31,0,93.032455771758947,0
0,34.1298,3.1293,0,2,31,0,100.0,0
0,34.1298,3.1293,0,3,31,0,100.0,0
0,1856.9232,3.5763,0,0,32,0,100.0,0
0,34.1298,3.1293,0,1,32,0,100.0,0
0,34.1298,3.1293,0,2,32,0,100.0,0
0,34.1298,4.0234,-1,3,32,0,92.97695284762996,0
0,34.1298,3.5763,-1,4,32,0,92.97695284762996,0
0,34.1298,4.0234,-2,5,32,0,86.394921766765563,0
-1,34.1298,3.1293,-2,6,32,0,92.920792863957388,0
-2,34.1298,2.2352,-2,7,32,0,100.0,0
-2,1856.9232,2.2352,-2,8,32,107.58,100.0,0
-1,1856.9232,2.2352,-2,9,32,297.24,92.920792863957388,297.24
0,1856.9232,3.5763,-2,0,32,454.05,86.394921766765563,454.05
0,34.1298,3.1293,-2,1,32,561.8,86.394921766765563,561.8
1,34.1298,4.4704,-2,2,32,626.66,80.375317381711923,543.8
2,34.1298,3.1293,-2,3,32,619.82,74.819222225640118,472.91
2,34.1298,4.4704,-2,4,32,568.93,74.819222225640118,418.6
2,34.1298,4.0234,-2,5,32,450.63,74.819222225640118,351.34
2,34.1298,6.2586,-3,6,32,297.16,69.480096758186903,213.32
1,34.1298,6.7056,-3,7,32,99.685,74.639707050276655,67.269
1,1856.9232,4.4704,-3,8,32,0,74.639707050276655,0
0,1856.9232,3.5763,-3,9,32,0,80.22975039312503,0
-1,1856.9232,3.1293,-4,0,32,0,80.082632632857582,0
-2,34.1298,4.0234,-4,1,32,0,86.18375948438603,0
-2,34.1298,4.9174,-4,2,32,0,86.18375948438603,0
-3,34.1298,6.7056,-5,3,32,0,86.076383684481797,0
-4,1856.9232,6.2586,-6,0,33,0,85.967788086353806,0
-5,34.1298,5.8115,-7,1,33,0,85.857954785728069,0
-5,34.1298,5.8115,-8,2,33,0,79.478232981322179,0
-6,34.1298,5.8115,-9,3,33,0,79.323042834535087,0
-7,34.1298,4.0234,-9,4,33,0,85.634501876922116,0
-7,34.1298,4.9174,-10,5,33,0,79.166172189459587,0
-8,34.1298,4.9174,-12,6,33,0,72.940363975260709,0
-8,34.1298,4.0234,-12,7,33,0,72.940363975260709,0
-8,1856.9232,4.9174,-12,8,33,114.96,72.940363975260709,114.96
-7,1856.9232,3.5763,-12,9,33,308.41,67.520490748189346,308.41
-7,1856.9232,4.0234,-12,0,33,465.61,67.520490748189346,465.61
-5,34.1298,4.4704,-12,1,33,572.98,57.971712417682106,572.98
-5,34.1298,4.0234,-12,2,33,630.1,57.971712417682106,630.1
-4,34.1298,4.9174,-13,3,33,629.84,49.604297542623229,629.84
-3,34.1298,4.9174,-12,4,33,570.59,49.899953609108429,570.59
-3,34.1298,4.9174,-12,5,33,453.75,49.899953609108429,453.75
-3,34.1298,4.9174,-12,6,33,295.02,49.899953609108429,295.02
-3,34.1298,5.8115,-12,7,33,101.74,49.899953609108429,101.74
-4,1856.9232,4.4704,-12,8,33,0,53.767758577862509,0
-5,1856.9232,3.1293,-12,9,33,0,57.971712417682106,0
-5,1856.9232,3.5763,-12,0,33,0,57.971712417682106,0
-6,34.1298,3.1293,-11,1,33,0,67.746539049831213,0
-6,34.1298,3.1293,-11,2,33,0,67.746539049831213,0
-7,34.1298,2.6822,-12,3,33,0,67.520490748189346,0
-7,1856.9232,3.1293,-12,0,34,0,67.520490748189346,0
-8,34.1298,2.2352,-13,1,34,0,67.292288412144302,0
-8,34.1298,2.2352,-13,2,34,0,67.292288412144302,0
-8,34.1298,4.4704,-12,3,34,0,72.940363975260709,0
-8,34.1298,4.0234,-12,4,34,0,72.940363975260709,0
-9,34.1298,6.2586,-13,5,34,0,72.741823834704164,0
-9,34.1298,6.2586,-13,6,34,0,72.741823834704164,0
-10,34.1298,3.1293,-14,7,34,0,72.541250869952918,0
-10,1856.9232,3.1293,-14,8,34,115.43,72.541250869952918,7.6487
-9,1856.9232,4.4704,-13,9,34,308.95,72.741823834704164,8.9477
-8,1856.9232,4.0234,-13,0,34,465.18,67.292288412144302,23.434
-7,34.1298,4.9174,-13,1,34,581.06,62.292098497037117,54.953
-6,34.1298,5.8115,-14,2,34,641.65,53.195546663514051,641.65
-5,34.1298,6.2586,-14,3,34,642.08,49.306619239457561,642.08
-4,34.1298,5.8115,-14,4,34,580.32,45.731034827067205,580.32
-4,34.1298,6.2586,-13,5,34,469.83,49.604297542623229,469.83
