7,34.1298,9.8349,-2,16,43,372.34,52.74704994628754,372.34
6,34.1298,8.0467,-3,17,43,156.85,52.471166918911017,156.85
5,1856.9232,7.1526,-4,18,43,0,52.193346719271737,0
3,1856.9232,5.8115,-4,19,43,0,60.059538976411261,0
2,1856.9232,6.2586,-4,20,43,0,64.482018531033972,0
1,34.1298,4.9174,-5,21,43,0,64.247160621569336,0
0,34.1298,6.2586,-5,22,43,0,69.058867777488345,0
0,34.1298,6.7056,-5,23,43,0,69.058867777488345,0
-1,1856.9232,4.9174,-5,0,44,0,74.275253880025062,0
-2,34.1298,3.5763,-5,1,44,0,79.933943298104751,0
-2,34.1298,4.0234,-5,2,44,0,79.933943298104751,0
-2,34.1298,2.6822,-5,3,44,0,79.933943298104751,0
-3,34.1298,2.2352,-5,4,44,0,86.076383684481797,0
-3,34.1298,1.3411,-5,5,44,0,86.076383684481797,0
-4,34.1298,2.6822,-5,6,44,0,92.748266931412331,0
-4,34.1298,0,-5,7,44,0,92.748266931412331,0
-3,1856.9232,0,-5,8,44,152.31,86.076383684481797,152.31
-2,1856.9232,1.3411,-5,9,44,342.13,79.933943298104751,342.13
0,1856.9232,1.3411,-5,10,44,498.04,69.058867777488345,498.04
1,34.1298,2.2352,-5,11,44,609.37,64.247160621569336,609.37
2,34.1298,2.6822,-4,12,44,681.47,64.482018531033972,681.47
4,34.1298,3.5763,-4,13,44,691.02,55.972560585266336,691.02
5,34.1298,2.6822,-4,14,44,629.58,52.193346719271737,629.58
6,34.1298,5.8115,-4,15,44,520.7,48.696632783711877,520.7
6,34.1298,3.5763,-4,16,44,348.76,48.696632783711877,348.76
6,34.1298,4.9174,-4,17,44,152.11,48.696632783711877,152.11
4,1856.9232,3.1293,-4,18,44,0,55.972560585266336,0
2,1856.9232,2.2352,-4,19,44,0,64.482018531033972,0
2,1856.9232,0,-4,20,44,0,64.482018531033972,0
1,34.1298,0,-4,21,44,0,69.270470217066517,0
1,34.1298,1.3411,-4,22,44,0,69.270470217066517,0
0,34.1298,2.2352,-4,23,44,0,74.458391582192704,0
0,1856.9232,1.3411,-4,0,45,0,74.458391582192704,0
0,34.1298,2.2352,-4,1,45,0,74.458391582192704,0
0,34.1298,3.1293,-4,2,45,0,74.458391582192704,0
-1,34.1298,3.1293,-4,3,45,0,80.082632632857582,0
-1,34.1298,3.1293,-4,4,45,0,80.082632632857582,0
-1,34.1298,3.1293,-4,5,45,0,80.082632632857582,0
-1,34.1298,3.1293,-4,6,45,0,80.082632632857582,0
0,34.1298,3.1293,-4,7,45,0,74.458391582192704,0
1,1856.9232,2.6822,-3,8,45,158.56,74.639707050276655,158.56
2,1856.9232,4.0234,-2,9,45,354.23,74.819222225640118,354.23
3,1856.9232,4.0234,-2,10,45,513.38,69.687768711565994,513.38
5,34.1298,7.1526,-1,11,45,638.15,65.174364282645996,638.15
6,34.1298,5.8115,0,12,45,690.9,65.401134444271349,690.9
7,34.1298,4.9174,0,13,45,686.41,61.053414792926283,686.41
8,34.1298,6.7056,0,14,45,633.94,57.025965891592342,633.94
8,34.1298,4.4704,0,15,45,514.93,57.025965891592342,514.93
8,34.1298,6.7056,0,16,45,361.54,57.025965891592342,361.54
7,34.1298,6.2586,0,17,45,159.01,61.053414792926283,159.01
6,1856.9232,5.8115,0,18,45,0,65.401134444271349,0
5,1856.9232,3.5763,-1,19,45,0,65.174364282645996,0
4,1856.9232,3.1293,-2,20,45,0,64.945601027542693,0
3,34.1298,3.5763,-2,21,45,0,69.687768711565994,0
2,34.1298,4.4704,-2,22,45,0,74.819222225640118,0
1,34.1298,5.8115,-3,23,45,0,74.639707050276655,0
0,1856.9232,4.0234,-3,0,46,0,80.22975039312503,0
-1,34.1298,4.4704,-3,1,46,0,86.28993308116371,0
-2,34.1298,3.5763,-4,2,46,0,86.18375948438603,0
-2,34.1298,3.5763,-4,3,46,0,86.18375948438603,0
-2,34.1298,2.2352,-5,4,46,0,79.933943298104751,0
-2,34.1298,3.1293,-5,5,46,0,79.933943298104751,0
-3,34.1298,2.6822,-6,6,46,0,79.783661265599576,0
-3,34.1298,3.1293,-6,7,46,0,79.783661265599576,0
-3,1856.9232,3.5763,-6,8,46,167.88,79.783661265599576,167.88
-2,1856.9232,6.7056,-5,9,46,372.27,79.933943298104751,372.27
-2,1856.9232,8.0467,-5,10,46,541.7,79.933943298104751,541.7
0,34.1298,6.7056,-5,11,46,650.12,69.058867777488345,650.12
0,34.1298,5.8115,-6,12,46,703.41,64.010232287886922,703.41
1,34.1298,5.8115,-6,13,46,700.74,59.550291042628565,700.74
2,34.1298,7.1526,-6,14,46,645.16,55.433765044562676,645.16
2,34.1298,7.5997,-7,15,46,530.13,51.348169519678208,530.13
