-2,1856.9232,4.4704,-5,0,14,0,79.933943298104751,0
-2,34.1298,4.0234,-5,1,14,0,79.933943298104751,0
-3,34.1298,3.1293,-5,2,14,0,86.076383684481797,0
-3,34.1298,4.4704,-5,3,14,0,86.076383684481797,0
-3,34.1298,3.5763,-5,4,14,0,86.076383684481797,0
-3,34.1298,3.5763,-4,5,14,0,92.806460468027481,0
-3,34.1298,2.6822,-4,6,14,0,92.806460468027481,0
-3,34.1298,2.6822,-4,7,14,0,92.806460468027481,0
-3,1856.9232,4.0234,-4,8,14,67.974,92.806460468027481,64.667
-2,1856.9232,2.2352,-4,9,14,249.62,86.18375948438603,236.66
-2,1856.9232,2.2352,-4,0,14,396.69,86.18375948438603,377.89
-1,34.1298,1.3411,-3,1,14,494.24,86.28993308116371,473.45
-1,34.1298,1.3411,-3,2,14,544.98,86.28993308116371,521.74
0,34.1298,0,-3,3,14,536.4,80.22975039312503,513.41
0,34.1298,1.3411,-3,4,14,481.23,80.22975039312503,461.11
0,34.1298,2.2352,-2,5,14,370.89,86.394921766765563,355.99
0,34.1298,2.2352,-2,6,14,214.2,86.394921766765563,206.05
0,34.1298,2.6822,-2,7,14,24.594,86.394921766765563,23.002
0,1856.9232,2.2352,-2,8,14,0,86.394921766765563,0
0,1856.9232,0,-2,9,14,0,86.394921766765563,0
-1,1856.9232,0,-3,0,14,0,86.28993308116371,0
-2,34.1298,1.3411,-4,1,14,0,86.18375948438603,0
-2,34.1298,1.3411,-4,2,14,0,86.18375948438603,0
-3,34.1298,1.3411,-5,3,14,0,86.076383684481797,0
-4,1856.9232,1.3411,-5,0,15,0,92.748266931412331,0
-4,34.1298,1.3411,-5,1,15,0,92.748266931412331,0
-4,34.1298,0,-5,2,15,0,92.748266931412331,0
-5,34.1298,0,-5,3,15,0,100.0,0
-5,34.1298,0,-5,4,15,0,100.0,0
-5,34.1298,0,-5,5,15,0,100.0,0
-5,34.1298,0,-6,6,15,0,92.68937407739088,0
-5,34.1298,0,-6,7,15,0,92.68937407739088,0
-4,1856.9232,0,-6,8,15,67.905,85.967788086353806,2.635
-4,1856.9232,0,-6,9,15,250.05,85.967788086353806,250.05
-3,1856.9232,0,-5,0,15,394.33,86.076383684481797,394.33
-2,34.1298,2.6822,-5,1,15,502.47,79.933943298104751,0
0,34.1298,3.1293,-5,2,15,552.6,69.058867777488345,0
1,34.1298,2.2352,-4,3,15,549.03,69.270470217066517,30.657
1,34.1298,2.2352,-4,4,15,489.42,69.270470217066517,28.084
2,34.1298,2.2352,-4,5,15,377.15,64.482018531033972,0
2,34.1298,3.1293,-4,6,15,220.63,64.482018531033972,15.201
1,34.1298,2.6822,-4,7,15,28.164,69.270470217066517,2.2042
1,1856.9232,2.6822,-3,8,15,0,74.639707050276655,0
0,1856.9232,3.1293,-3,9,15,0,80.22975039312503,0
0,1856.9232,3.1293,-3,0,15,0,80.22975039312503,0
-1,34.1298,3.1293,-3,1,15,0,86.28993308116371,0
-1,34.1298,3.1293,-3,2,15,0,86.28993308116371,0
-1,34.1298,0,-3,3,15,0,86.28993308116371,0
-2,1856.9232,2.2352,-2,0,16,0,100.0,0
-2,34.1298,2.2352,-2,1,16,0,100.0,0
-2,34.1298,2.2352,-2,2,16,0,100.0,0
-1,34.1298,2.2352,-2,3,16,0,92.920792863957388,0
-1,34.1298,2.6822,-2,4,16,0,92.920792863957388,0
0,34.1298,2.6822,-2,5,16,0,86.394921766765563,0
0,34.1298,2.6822,-1,6,16,0,92.97695284762996,0
0,34.1298,2.6822,-1,7,16,0,92.97695284762996,0
0,1856.9232,2.2352,0,8,16,69.494,100.0,62.905
1,1856.9232,2.2352,0,9,16,252.93,93.032455771758947,238.45
2,1856.9232,2.6822,1,0,16,400.76,93.087311705799863,379.52
3,34.1298,2.6822,2,1,16,503.13,93.141530529950373,482.43
4,34.1298,2.6822,2,2,16,553.35,86.803362953546198,537.97
5,34.1298,3.5763,3,3,16,551.02,86.902676258921971,539.65
6,34.1298,3.1293,4,4,16,488.87,87.000902360951287,482.29
7,34.1298,4.0234,4,5,16,377.37,81.21727894075245,370.07
7,34.1298,3.1293,5,6,16,220.47,87.098056588182175,215.09
7,34.1298,3.1293,5,7,16,31.516,87.098056588182175,30.806
8,1856.9232,3.5763,6,8,16,0,87.194154009949884,0
8,1856.9232,3.1293,6,9,16,0,87.194154009949884,0
7,1856.9232,2.6822,7,0,16,0,100.0,0
7,34.1298,2.6822,7,1,16,0,100.0,0
8,34.1298,3.5763,7,2,16,0,93.403401079212742,0
10,34.1298,2.2352,7,3,16,0,81.618915749746961,0
