0,34.1298,4.4704,-6,22,30,0,64.010232287886922,0
1,34.1298,4.0234,-4,23,30,0,69.270470217066517,0
1,1856.9232,4.0234,-2,0,31,0,80.375317381711923,0
2,34.1298,4.4704,-2,1,31,0,74.819222225640118,0
2,34.1298,7.5997,-2,2,31,0,74.819222225640118,0
2,34.1298,8.9408,-1,3,31,0,80.519354085990997,0
1,34.1298,10.729,-1,4,31,0,86.498742535900504,0
1,34.1298,8.9408,-1,5,31,0,86.498742535900504,0
1,34.1298,8.9408,-1,6,31,0,86.498742535900504,0
1,34.1298,8.9408,-1,7,31,0,86.498742535900504,0
1,1856.9232,9.3878,-2,8,31,109.42,80.375317381711923,88.575
1,1856.9232,6.7056,-1,9,31,303.87,86.498742535900504,233.92
1,1856.9232,8.0467,-2,10,31,467.24,80.375317381711923,338.06
2,34.1298,8.9408,-1,11,31,581.5,80.519354085990997,418.01
2,34.1298,8.9408,0,12,31,639.24,86.60141209181765,438.5
3,34.1298,6.7056,0,13,31,628.82,80.661880682868471,462.23
3,34.1298,8.9408,0,14,31,575.97,80.661880682868471,408.17
3,34.1298,8.0467,0,15,31,456.99,80.661880682868471,302.7
3,34.1298,7.1526,0,16,31,292.26,80.661880682868471,204.41
3,34.1298,6.7056,0,17,31,94.013,80.661880682868471,57.146
3,1856.9232,4.4704,0,18,31,0,80.661880682868471,0
3,1856.9232,3.5763,-1,19,31,0,74.996958768522148,0
2,1856.9232,3.1293,-1,20,31,0,80.519354085990997,0
1,34.1298,2.6822,-1,21,31,0,86.498742535900504,0
1,34.1298,3.1293,-1,22,31,0,86.498742535900504,0
0,34.1298,3.1293,-2,23,31,0,86.394921766765563,0
0,1856.9232,3.5763,-2,0,32,0,86.394921766765563,0
0,34.1298,3.1293,-3,1,32,0,80.22975039312503,0
0,34.1298,3.1293,-3,2,32,0,80.22975039312503,0
-1,34.1298,4.0234,-3,3,32,0,86.28993308116371,0
-1,34.1298,3.5763,-3,4,32,0,86.28993308116371,0
-2,34.1298,4.0234,-3,5,32,0,92.863965557739348,0
-2,34.1298,3.1293,-4,6,32,0,86.18375948438603,0
-2,34.1298,2.2352,-4,7,32,0,86.18375948438603,0
-2,1856.9232,2.2352,-4,8,32,107.58,86.18375948438603,0
-2,1856.9232,2.2352,-3,9,32,297.24,92.863965557739348,297.24
-2,1856.9232,3.5763,-3,10,32,454.05,92.863965557739348,454.05
-1,34.1298,3.1293,-3,11,32,561.8,86.28993308116371,561.8
0,34.1298,4.4704,-4,12,32,626.66,74.458391582192704,543.8
1,34.1298,3.1293,-4,13,32,619.82,69.270470217066517,472.91
1,34.1298,4.4704,-4,14,32,568.93,69.270470217066517,418.6
1,34.1298,4.0234,-4,15,32,450.63,69.270470217066517,351.34
1,34.1298,6.2586,-4,16,32,297.16,69.270470217066517,213.32
0,34.1298,6.7056,-4,17,32,99.685,74.458391582192704,67.269
0,1856.9232,4.4704,-5,18,32,0,69.058867777488345,0
0,1856.9232,3.5763,-5,19,32,0,69.058867777488345,0
-1,1856.9232,3.1293,-5,20,32,0,74.275253880025062,0
-2,34.1298,4.0234,-5,21,32,0,79.933943298104751,0
-3,34.1298,4.9174,-6,22,32,0,79.783661265599576,0
-3,34.1298,6.7056,-7,23,32,0,73.90342258501218,0
-4,1856.9232,6.2586,-7,0,33,0,79.631765086518371,0
-5,34.1298,5.8115,-8,1,33,0,79.478232981322179,0
-6,34.1298,5.8115,-8,2,33,0,85.74686556299531,0
-7,34.1298,5.8115,-9,3,33,0,85.634501876922116,0
-7,34.1298,4.0234,-10,4,33,0,79.166172189459587,0
-7,34.1298,4.9174,-10,5,33,0,79.166172189459587,0
-8,34.1298,4.9174,-11,6,33,0,79.007598242830397,0
-8,34.1298,4.0234,-12,7,33,0,72.940363975260709,0
-8,1856.9232,4.9174,-12,8,33,114.96,72.940363975260709,114.96
-8,1856.9232,3.5763,-12,9,33,308.41,72.940363975260709,308.41
-8,1856.9232,4.0234,-13,10,33,465.61,67.292288412144302,465.61
-7,34.1298,4.4704,-13,11,33,572.98,62.292098497037117,572.98
-5,34.1298,4.0234,-13,12,33,630.1,53.48272176266731,630.1
-4,34.1298,4.9174,-13,13,33,629.84,49.604297542623229,629.84
-4,34.1298,4.9174,-13,14,33,570.59,49.604297542623229,570.59
-4,34.1298,4.9174,-13,15,33,453.75,49.604297542623229,453.75
-4,34.1298,4.9174,-13,16,33,295.02,49.604297542623229,295.02
-4,34.1298,5.8115,-13,17,33,101.74,49.604297542623229,101.74
-5,1856.9232,4.4704,-13,18,33,0,53.48272176266731,0
-6,1856.9232,3.1293,-13,19,33,0,57.701028079024439,0
-7,1856.9232,3.5763,-13,20,33,0,62.292098497037117,0
-7,34.1298,3.1293,-13,21,33,0,62.292098497037117,0
