-3,1856.9232,3.5763,-8,9,57,418.89,68.41198876664923,418.89
-1,1856.9232,3.1293,-8,10,57,570.74,59.032659326234857,570.74
1,34.1298,4.4704,-7,11,57,701.48,55.161298117581083,701.48
3,34.1298,4.9174,-8,12,57,764.24,44.272699174858509,764.24
5,34.1298,6.2586,-7,13,57,773.52,41.562483250282511,773.52
6,34.1298,6.7056,-7,14,57,706.03,38.777988223369931,706.03
7,34.1298,8.0467,-7,15,57,593.54,36.200115180784799,593.54
7,34.1298,8.9408,-6,16,57,427.25,39.080432628639237,427.25
7,34.1298,6.7056,-5,17,57,214.82,42.16279699548847,214.82
6,1856.9232,4.4704,-5,18,57,0,45.165282960846739,0
5,1856.9232,3.1293,-4,19,57,0,52.193346719271737,0
4,1856.9232,2.6822,-4,20,57,0,55.972560585266336,0
3,34.1298,2.6822,-4,21,57,0,60.059538976411261,0
3,34.1298,3.1293,-4,22,57,0,60.059538976411261,0
2,34.1298,0,-4,23,57,0,64.482018531033972,0
2,1856.9232,0,-4,0,58,0,64.482018531033972,0
1,34.1298,0,-3,1,58,0,74.639707050276655,0
1,34.1298,0,-3,2,58,0,74.639707050276655,0
1,34.1298,1.3411,-2,3,58,0,80.375317381711923,0
1,34.1298,0,-1,4,58,0,86.498742535900504,0
1,34.1298,0,-1,5,58,0,86.498742535900504,0
1,34.1298,1.3411,0,6,58,0,93.032455771758947,0
1,34.1298,0,0,7,58,5.8739,93.032455771758947,4.2413
2,1856.9232,0,0,8,58,218.41,86.60141209181765,152.93
3,1856.9232,0,1,9,58,405.46,86.702946851967639,264.81
4,1856.9232,2.2352,2,10,58,567.16,86.803362953546198,367.24
6,34.1298,3.1293,2,11,58,687.32,75.519709049236894,385.72
7,34.1298,3.5763,3,12,58,766.22,75.690542144640617,766.22
9,34.1298,2.6822,3,13,58,764.87,66.069675859940816,764.87
10,34.1298,3.5763,3,14,58,702.02,61.77779982356094,414.28
10,34.1298,1.3411,3,15,58,568.67,61.77779982356094,337.45
10,34.1298,4.0234,3,16,58,414.07,61.77779982356094,191.32
10,34.1298,4.0234,3,17,58,212.27,61.77779982356094,110.94
8,1856.9232,3.5763,3,18,58,0,70.697540658389229,0
7,1856.9232,3.5763,3,19,58,0,75.690542144640617,0
6,1856.9232,2.6822,4,20,58,0,87.000902360951287,0
6,34.1298,3.1293,4,21,58,0,87.000902360951287,0
5,34.1298,4.0234,5,22,58,0,100.0,0
5,34.1298,4.0234,5,23,58,0,100.0,0
6,1856.9232,2.2352,5,0,59,0,93.300460393223361,0
6,34.1298,6.2586,5,1,59,0,93.300460393223361,0
7,34.1298,3.5763,5,2,59,0,87.098056588182175,0
7,34.1298,3.5763,6,3,59,0,93.352225938756803,0
7,34.1298,4.4704,6,4,59,0,93.352225938756803,0
7,34.1298,0,6,5,59,0,93.352225938756803,0
8,34.1298,3.1293,6,6,59,0,87.194154009949884,0
8,34.1298,2.2352,6,7,59,11.461,87.194154009949884,10.583
10,1856.9232,3.1293,7,8,59,230.45,81.618915749746961,219.46
11,1856.9232,2.2352,8,9,59,426.6,81.750052187031002,401.95
12,1856.9232,2.6822,9,10,59,583.73,81.879846925107273,564.09
13,34.1298,3.5763,10,11,59,701.13,82.008317294977047,681.7
15,34.1298,4.0234,11,12,59,758.1,76.998577407491453,736.77
16,34.1298,3.5763,11,13,59,756.02,72.218947621294333,729.53
17,34.1298,4.9174,12,14,59,698.65,72.401374699018376,636.55
17,34.1298,4.0234,12,15,59,580.29,72.401374699018376,545.88
17,34.1298,4.9174,12,16,59,417.77,72.401374699018376,397.12
17,34.1298,4.9174,12,17,59,219.05,72.401374699018376,205.22
16,1856.9232,4.4704,12,18,59,0,77.155040268598128,0
15,1856.9232,4.0234,12,19,59,0,82.261352957573052,0
14,1856.9232,7.1526,12,20,59,0,87.749358083506806,0
14,34.1298,9.8349,12,21,59,0,87.749358083506806,0
15,34.1298,6.2586,12,22,59,0,82.261352957573052,0
15,34.1298,5.8115,12,23,59,0,82.261352957573052,0
15,1856.9232,4.9174,12,0,60,0,82.261352957573052,0
15,34.1298,7.5997,12,1,60,0,82.261352957573052,0
14,34.1298,6.2586,12,2,60,0,87.749358083506806,0
14,34.1298,3.1293,11,3,60,0,82.135480367498232,0
13,34.1298,2.6822,11,4,60,0,87.659298938667845,0
12,34.1298,3.5763,11,5,60,0,93.602371756764171,0
11,34.1298,5.8115,11,6,60,0,100.0,0
10,34.1298,2.6822,10,7,60,17.225,100.0,0.79384
11,1856.9232,4.0234,10,8,60,241.44,93.553471551666661,241.44
