5,34.1298,3.5763,3,7,43,0,86.902676258921971,0
5,1856.9232,7.1526,3,8,43,156.5,86.902676258921971,12.872
5,1856.9232,5.8115,3,9,43,357.07,86.902676258921971,25.864
5,1856.9232,3.5763,2,10,43,509.74,80.942482739047733,509.74
6,34.1298,7.1526,2,11,43,631.12,75.519709049236894,390.56
6,34.1298,6.7056,2,12,43,684.14,75.519709049236894,684.14
7,34.1298,9.3878,2,13,43,696.61,70.499329419935393,560.9
8,34.1298,11.623,1,14,43,651.92,61.296851102691427,461.49
8,34.1298,10.282,0,15,43,533.84,57.025965891592342,533.84
6,34.1298,9.8349,-1,16,43,372.34,60.807981934065246,372.34
5,34.1298,8.0467,-2,17,43,156.85,60.56053603547852,156.85
3,1856.9232,7.1526,-2,18,43,0,69.687768711565994,0
2,1856.9232,5.8115,-3,19,43,0,69.480096758186903,0
1,1856.9232,6.2586,-4,20,43,0,69.270470217066517,0
0,34.1298,4.9174,-5,21,43,0,69.058867777488345,0
-1,34.1298,6.2586,-5,22,43,0,74.275253880025062,0
-2,34.1298,6.7056,-6,23,43,0,74.090271718389829,0
-2,1856.9232,4.9174,-7,0,44,0,68.629648895336288,0
-2,34.1298,3.5763,-7,1,44,0,68.629648895336288,0
-3,34.1298,4.0234,-7,2,44,0,73.90342258501218,0
-3,34.1298,2.6822,-7,3,44,0,73.90342258501218,0
-4,34.1298,2.2352,-7,4,44,0,79.631765086518371,0
-4,34.1298,1.3411,-7,5,44,0,79.631765086518371,0
-4,34.1298,2.6822,-7,6,44,0,79.631765086518371,0
-4,34.1298,0,-7,7,44,0,79.631765086518371,0
-4,1856.9232,0,-5,8,44,152.31,92.748266931412331,152.31
-3,1856.9232,1.3411,-5,9,44,342.13,86.076383684481797,342.13
-1,1856.9232,1.3411,-4,10,44,498.04,80.082632632857582,498.04
1,34.1298,2.2352,-4,11,44,609.37,69.270470217066517,609.37
2,34.1298,2.6822,-5,12,44,681.47,59.805954669926152,681.47
4,34.1298,3.5763,-5,13,44,691.02,51.913579899969307,691.02
5,34.1298,2.6822,-5,14,44,629.58,48.408424535627695,629.58
6,34.1298,5.8115,-4,15,44,520.7,48.696632783711877,520.7
6,34.1298,3.5763,-4,16,44,348.76,48.696632783711877,348.76
5,34.1298,4.9174,-4,17,44,152.11,52.193346719271737,152.11
3,1856.9232,3.1293,-4,18,44,0,60.059538976411261,0
2,1856.9232,2.2352,-4,19,44,0,64.482018531033972,0
1,1856.9232,0,-4,20,44,0,69.270470217066517,0
0,34.1298,0,-5,21,44,0,69.058867777488345,0
0,34.1298,1.3411,-5,22,44,0,69.058867777488345,0
-1,34.1298,2.2352,-5,23,44,0,74.275253880025062,0
-1,1856.9232,1.3411,-4,0,45,0,80.082632632857582,0
-1,34.1298,2.2352,-4,1,45,0,80.082632632857582,0
-2,34.1298,3.1293,-4,2,45,0,86.18375948438603,0
-2,34.1298,3.1293,-4,3,45,0,86.18375948438603,0
-2,34.1298,3.1293,-4,4,45,0,86.18375948438603,0
-2,34.1298,3.1293,-4,5,45,0,86.18375948438603,0
-2,34.1298,3.1293,-4,6,45,0,86.18375948438603,0
-2,34.1298,3.1293,-4,7,45,0,86.18375948438603,0
0,1856.9232,2.6822,-3,8,45,158.56,80.22975039312503,158.56
1,1856.9232,4.0234,-3,9,45,354.23,74.639707050276655,354.23
2,1856.9232,4.0234,-2,10,45,513.38,74.819222225640118,513.38
4,34.1298,7.1526,-2,11,45,638.15,64.945601027542693,638.15
6,34.1298,5.8115,-2,12,45,690.9,56.50325893770539,690.9
7,34.1298,4.9174,-1,13,45,686.41,56.765604683887005,686.41
8,34.1298,6.7056,0,14,45,633.94,57.025965891592342,633.94
8,34.1298,4.4704,0,15,45,514.93,57.025965891592342,514.93
7,34.1298,6.7056,0,16,45,361.54,61.053414792926283,361.54
7,34.1298,6.2586,0,17,45,159.01,61.053414792926283,159.01
6,1856.9232,5.8115,-1,18,45,0,60.807981934065246,0
5,1856.9232,3.5763,-2,19,45,0,60.56053603547852,0
3,1856.9232,3.1293,-2,20,45,0,69.687768711565994,0
2,34.1298,3.5763,-2,21,45,0,74.819222225640118,0
2,34.1298,4.4704,-2,22,45,0,74.819222225640118,0
1,34.1298,5.8115,-3,23,45,0,74.639707050276655,0
0,1856.9232,4.0234,-3,0,46,0,80.22975039312503,0
-2,34.1298,4.4704,-3,1,46,0,92.863965557739348,0
-2,34.1298,3.5763,-4,2,46,0,86.18375948438603,0
-2,34.1298,3.5763,-4,3,46,0,86.18375948438603,0
-3,34.1298,2.2352,-5,4,46,0,86.076383684481797,0
-3,34.1298,3.1293,-5,5,46,0,86.076383684481797,0
-3,34.1298,2.6822,-5,6,46,0,86.076383684481797,0
