0,34.1298,0,-3,13,14,536.4,80.22975039312503,513.41
0,34.1298,1.3411,-3,14,14,481.23,80.22975039312503,461.11
0,34.1298,2.2352,-3,15,14,370.89,80.22975039312503,355.99
0,34.1298,2.2352,-3,16,14,214.2,80.22975039312503,206.05
0,34.1298,2.6822,-3,17,14,24.594,80.22975039312503,23.002
0,1856.9232,2.2352,-3,18,14,0,80.22975039312503,0
-1,1856.9232,0,-3,19,14,0,86.28993308116371,0
-2,1856.9232,0,-4,20,14,0,86.18375948438603,0
-2,34.1298,1.3411,-4,21,14,0,86.18375948438603,0
-3,34.1298,1.3411,-4,22,14,0,92.806460468027481,0
-3,34.1298,1.3411,-5,23,14,0,86.076383684481797,0
-4,1856.9232,1.3411,-5,0,15,0,92.748266931412331,0
-4,34.1298,1.3411,-5,1,15,0,92.748266931412331,0
-4,34.1298,0,-5,2,15,0,92.748266931412331,0
-4,34.1298,0,-6,3,15,0,85.967788086353806,0
-5,34.1298,0,-6,4,15,0,92.68937407739088,0
-5,34.1298,0,-6,5,15,0,92.68937407739088,0
-5,34.1298,0,-7,6,15,0,85.857954785728069,0
-5,34.1298,0,-7,7,15,0,85.857954785728069,0
-4,1856.9232,0,-6,8,15,67.905,85.967788086353806,2.635
-4,1856.9232,0,-6,9,15,250.05,85.967788086353806,250.05
-3,1856.9232,0,-5,10,15,394.33,86.076383684481797,394.33
-2,34.1298,2.6822,-5,11,15,502.47,79.933943298104751,0
-1,34.1298,3.1293,-5,12,15,552.6,74.275253880025062,0
0,34.1298,2.2352,-5,13,15,549.03,69.058867777488345,30.657
1,34.1298,2.2352,-4,14,15,489.42,69.270470217066517,28.084
1,34.1298,2.2352,-4,15,15,377.15,69.270470217066517,0
1,34.1298,3.1293,-3,16,15,220.63,74.639707050276655,15.201
1,34.1298,2.6822,-3,17,15,28.164,74.639707050276655,2.2042
0,1856.9232,2.6822,-3,18,15,0,80.22975039312503,0
0,1856.9232,3.1293,-3,19,15,0,80.22975039312503,0
-1,1856.9232,3.1293,-3,20,15,0,86.28993308116371,0
-1,34.1298,3.1293,-3,21,15,0,86.28993308116371,0
-1,34.1298,3.1293,-3,22,15,0,86.28993308116371,0
-1,34.1298,0,-3,23,15,0,86.28993308116371,0
-2,1856.9232,2.2352,-3,0,16,0,92.863965557739348,0
-2,34.1298,2.2352,-3,1,16,0,92.863965557739348,0
-2,34.1298,2.2352,-3,2,16,0,92.863965557739348,0
-2,34.1298,2.2352,-2,3,16,0,100.0,0
-1,34.1298,2.6822,-2,4,16,0,92.920792863957388,0
0,34.1298,2.6822,-2,5,16,0,86.394921766765563,0
0,34.1298,2.6822,-2,6,16,0,86.394921766765563,0
0,34.1298,2.6822,-2,7,16,0,86.394921766765563,0
1,1856.9232,2.2352,-1,8,16,69.494,86.498742535900504,62.905
1,1856.9232,2.2352,0,9,16,252.93,93.032455771758947,238.45
1,1856.9232,2.6822,0,10,16,400.76,93.032455771758947,379.52
2,34.1298,2.6822,1,11,16,503.13,93.087311705799863,482.43
4,34.1298,2.6822,2,12,16,553.35,86.803362953546198,537.97
5,34.1298,3.5763,3,13,16,551.02,86.902676258921971,539.65
6,34.1298,3.1293,3,14,16,488.87,81.080597043606616,482.29
6,34.1298,4.0234,3,15,16,377.37,81.080597043606616,370.07
6,34.1298,3.1293,4,16,16,220.47,87.000902360951287,215.09
7,34.1298,3.1293,5,17,16,31.516,87.098056588182175,30.806
7,1856.9232,3.5763,5,18,16,0,87.098056588182175,0
7,1856.9232,3.1293,5,19,16,0,87.098056588182175,0
6,1856.9232,2.6822,6,20,16,0,100.0,0
6,34.1298,2.6822,6,21,16,0,100.0,0
6,34.1298,3.5763,6,22,16,0,100.0,0
7,34.1298,2.2352,7,23,16,0,100.0,0
8,1856.9232,2.6822,7,0,17,0,93.403401079212742,0
9,34.1298,4.0234,7,1,17,0,87.289209441366083,0
10,34.1298,4.9174,8,2,17,0,87.383237448204156,0
10,34.1298,4.4704,8,3,17,0,87.383237448204156,0
10,34.1298,6.2586,8,4,17,0,87.383237448204156,0
10,34.1298,4.9174,8,5,17,0,87.383237448204156,0
10,34.1298,9.3878,8,6,17,0,87.383237448204156,0
10,34.1298,7.5997,8,7,17,0,87.383237448204156,0
10,1856.9232,6.2586,8,8,17,75.512,87.383237448204156,44.562
11,1856.9232,6.2586,8,9,17,269.59,81.750052187031002,191.2
11,1856.9232,5.8115,7,10,17,421.33,76.357329126718284,359.27
11,34.1298,4.0234,7,11,17,520.16,76.357329126718284,492.37
11,34.1298,5.8115,7,12,17,574.6,76.357329126718284,543.37
