7,34.1298,3.5763,7,22,16,0,100.0,0
7,34.1298,2.2352,7,23,16,0,100.0,0
7,1856.9232,2.6822,7,0,17,0,100.0,0
7,34.1298,4.0234,7,1,17,0,100.0,0
7,34.1298,4.9174,7,2,17,0,100.0,0
7,34.1298,4.4704,7,3,17,0,100.0,0
7,34.1298,6.2586,7,4,17,0,100.0,0
7,34.1298,4.9174,7,5,17,0,100.0,0
7,34.1298,9.3878,7,6,17,0,100.0,0
7,34.1298,7.5997,7,7,17,0,100.0,0
7,1856.9232,6.2586,7,8,17,75.512,100.0,44.562
7,1856.9232,6.2586,7,9,17,269.59,100.0,191.2
7,1856.9232,5.8115,7,10,17,421.33,100.0,359.27
8,34.1298,4.0234,6,11,17,520.16,87.194154009949884,492.37
8,34.1298,5.8115,6,12,17,574.6,87.194154009949884,543.37
9,34.1298,5.8115,5,13,17,569.24,76.027205034617879,546.17
9,34.1298,4.0234,5,14,17,501.26,76.027205034617879,474.57
8,34.1298,4.9174,5,15,17,389.51,81.35254712725947,369.45
8,34.1298,6.7056,5,16,17,232.24,81.35254712725947,222.44
8,34.1298,5.8115,5,17,17,36.333,81.35254712725947,35.109
7,1856.9232,5.8115,4,18,17,0,81.21727894075245,0
7,1856.9232,5.8115,4,19,17,0,81.21727894075245,0
6,1856.9232,4.9174,3,20,17,0,81.080597043606616,0
5,34.1298,4.9174,3,21,17,0,86.902676258921971,0
4,34.1298,5.8115,2,22,17,0,86.803362953546198,0
3,34.1298,4.9174,2,23,17,0,93.141530529950373,0
3,1856.9232,4.0234,2,0,18,0,93.141530529950373,0
2,34.1298,4.0234,1,1,18,0,93.087311705799863,0
2,34.1298,4.9174,1,2,18,0,93.087311705799863,0
1,34.1298,5.8115,1,3,18,0,100.0,0
1,34.1298,5.8115,0,4,18,0,93.032455771758947,0
1,34.1298,7.1526,0,5,18,0,93.032455771758947,0
0,34.1298,4.0234,0,6,18,0,100.0,0
0,34.1298,4.9174,0,7,18,0,100.0,0
0,1856.9232,3.5763,0,8,18,73.829,100.0,68.595
1,1856.9232,3.1293,0,9,18,259.78,93.032455771758947,240.03
1,1856.9232,3.5763,0,10,18,411.46,93.032455771758947,392.28
3,34.1298,3.5763,0,11,18,516.42,80.661880682868471,491.51
4,34.1298,3.5763,1,12,18,566.52,80.80291704368436,546.76
5,34.1298,4.0234,1,13,18,563.31,75.347181209710627,543.64
6,34.1298,2.6822,1,14,18,496.17,70.299266961976286,475.75
6,34.1298,2.6822,1,15,18,385.3,70.299266961976286,367.42
6,34.1298,4.0234,1,16,18,230.76,70.299266961976286,217.77
5,34.1298,3.1293,1,17,18,39.375,75.347181209710627,37.298
4,1856.9232,3.1293,1,18,18,0,80.80291704368436,0
3,1856.9232,4.0234,1,19,18,0,86.702946851967639,0
2,1856.9232,3.1293,1,20,18,0,93.087311705799863,0
2,34.1298,2.6822,1,21,18,0,93.087311705799863,0
2,34.1298,4.0234,1,22,18,0,93.087311705799863,0
1,34.1298,2.2352,1,23,18,0,100.0,0
1,1856.9232,2.6822,0,0,19,0,93.032455771758947,0
1,34.1298,2.6822,0,1,19,0,93.032455771758947,0
1,34.1298,2.6822,0,2,19,0,93.032455771758947,0
0,34.1298,1.3411,0,3,19,0,100.0,0
0,34.1298,1.3411,0,4,19,0,100.0,0
0,34.1298,1.3411,0,5,19,0,100.0,0
0,34.1298,2.2352,0,6,19,0,100.0,0
0,34.1298,2.6822,0,7,19,0,100.0,0
0,1856.9232,2.2352,0,8,19,74.638,100.0,0
1,1856.9232,2.6822,1,9,19,259.45,100.0,9.5142
2,1856.9232,3.1293,1,10,19,410.26,93.087311705799863,13.593
3,34.1298,3.1293,2,11,19,511.39,93.141530529950373,82.818
5,34.1298,3.5763,3,12,19,564.43,86.902676258921971,564.43
6,34.1298,3.1293,3,13,19,560.46,81.080597043606616,201.13
8,34.1298,4.4704,4,14,19,507.54,75.859700794653989,0
8,34.1298,3.5763,4,15,19,391.47,75.859700794653989,163.52
8,34.1298,3.5763,4,16,19,234.03,75.859700794653989,29.379
8,34.1298,5.8115,4,17,19,43.454,75.859700794653989,21.112
7,1856.9232,3.1293,5,18,19,0,87.098056588182175,0
5,1856.9232,4.4704,5,19,19,0,100.0,0
5,1856.9232,6.2586,5,20,19,0,100.0,0
5,34.1298,6.7056,5,21,19,0,100.0,0
