0,34.1298,4.4704,-13,15,62,602.62,36.934562105882399,602.62
0,34.1298,3.5763,-13,16,62,433.5,36.934562105882399,433.5
0,34.1298,4.4704,-12,17,62,233.93,40.034608226872876,233.93
0,1856.9232,3.1293,-11,18,62,7.7255,43.364717012800988,7.7255
-2,1856.9232,0,-10,19,62,0,54.331466017503473,0
-3,1856.9232,0,-10,20,62,0,58.506510777554723,0
-3,34.1298,0,-10,21,62,0,58.506510777554723,0
-3,34.1298,0,-10,22,62,0,58.506510777554723,0
-3,34.1298,0,-10,23,62,0,58.506510777554723,0
-3,1856.9232,1.3411,-10,0,63,0,58.506510777554723,0
-3,34.1298,0,-10,1,63,0,58.506510777554723,0
-3,34.1298,1.3411,-9,2,63,0,63.286827800671929,0
-3,34.1298,2.6822,-9,3,63,0,63.286827800671929,0
-3,34.1298,4.4704,-9,4,63,0,63.286827800671929,0
-3,34.1298,2.6822,-8,5,63,0,68.41198876664923,0
-3,34.1298,2.6822,-8,6,63,0,68.41198876664923,0
-3,34.1298,4.9174,-7,7,63,34.308,73.90342258501218,9.6651
-2,1856.9232,4.9174,-7,8,63,255.74,68.629648895336288,43.76
-1,1856.9232,3.5763,-6,9,63,451.18,68.845267915788227,185.88
0,1856.9232,4.4704,-5,10,63,620.26,69.058867777488345,620.26
2,34.1298,7.1526,-5,11,63,751.05,59.805954669926152,751.05
3,34.1298,7.1526,-4,12,63,815.02,60.059538976411261,815.02
5,34.1298,7.1526,-4,13,63,814.85,52.193346719271737,814.85
6,34.1298,6.2586,-3,14,63,741.23,52.471166918911017,741.23
7,34.1298,6.2586,-3,15,63,618.16,48.983002294844027,618.16
7,34.1298,6.7056,-2,16,63,444.08,52.74704994628754,444.08
7,34.1298,8.0467,-2,17,63,238.3,52.74704994628754,238.3
6,1856.9232,7.5997,-2,18,63,12.055,56.50325893770539,12.055
5,1856.9232,7.1526,-2,19,63,0,60.56053603547852,0
4,1856.9232,6.7056,-2,20,63,0,64.945601027542693,0
3,34.1298,6.7056,-2,21,63,0,69.687768711565994,0
3,34.1298,6.2586,-2,22,63,0,69.687768711565994,0
3,34.1298,6.7056,-2,23,63,0,69.687768711565994,0
3,1856.9232,4.9174,-2,0,64,0,69.687768711565994,0
3,34.1298,5.8115,-2,1,64,0,69.687768711565994,0
2,34.1298,4.4704,-2,2,64,0,74.819222225640118,0
2,34.1298,4.0234,-2,3,64,0,74.819222225640118,0
2,34.1298,4.0234,-2,4,64,0,74.819222225640118,0
1,34.1298,3.5763,-2,5,64,0,80.375317381711923,0
1,34.1298,3.1293,-2,6,64,0,80.375317381711923,0
2,34.1298,3.5763,-1,7,64,40.744,80.519354085990997,40.744
3,1856.9232,3.1293,0,8,64,263.31,80.661880682868471,263.31
5,1856.9232,2.6822,1,9,64,456.75,75.347181209710627,456.75
7,1856.9232,3.5763,1,10,64,617.88,65.625930527633926,617.88
9,34.1298,4.4704,2,11,64,731.55,61.538307312126015,16.225
11,34.1298,4.0234,2,12,64,785.99,53.831404997309406,32.667
12,34.1298,4.0234,3,13,64,785.68,54.09774945803408,32.506
13,34.1298,8.0467,3,14,64,753.1,50.662934097161624,33.803
14,34.1298,6.7056,3,15,64,627.06,47.470427887048686,94.149
15,34.1298,7.1526,3,16,64,454.49,44.501540623776982,71.864
14,34.1298,4.9174,3,17,64,237.37,47.470427887048686,39.786
13,1856.9232,5.8115,4,18,64,16.09,54.362216651363781,4.5029
11,1856.9232,4.0234,4,19,64,0,62.015344988555213,0
10,1856.9232,6.2586,4,20,64,0,66.288662472889712,0
9,34.1298,5.8115,4,21,64,0,70.893920717171909,0
9,34.1298,4.4704,4,22,64,0,70.893920717171909,0
9,34.1298,4.4704,4,23,64,0,70.893920717171909,0
10,1856.9232,4.4704,5,0,65,0,71.088489426375332,0
10,34.1298,4.4704,5,1,65,0,71.088489426375332,0
10,34.1298,4.0234,5,2,65,0,71.088489426375332,0
9,34.1298,4.0234,5,3,65,0,76.027205034617879,0
8,34.1298,4.4704,6,4,65,0,87.194154009949884,0
8,34.1298,4.4704,6,5,65,0,87.194154009949884,0
8,34.1298,4.9174,6,6,65,0,87.194154009949884,0
9,34.1298,4.0234,7,7,65,46.57,87.289209441366083,6.3088
10,1856.9232,5.8115,7,8,65,272.86,81.618915749746961,214.51
10,1856.9232,4.4704,8,9,65,464.38,87.383237448204156,370.82
11,1856.9232,4.4704,8,10,65,624.63,81.750052187031002,577.45
12,34.1298,4.0234,9,11,65,731.85,81.879846925107273,685.16
13,34.1298,4.9174,10,12,65,799.48,82.008317294977047,736.7
14,34.1298,4.0234,10,13,65,793.94,76.840593259432197,737.24
15,34.1298,4.0234,10,14,65,728.58,72.034842210105538,672.92
