11,34.1298,4.9174,6,6,65,0,71.281266407174215,0
11,34.1298,4.0234,6,7,65,46.57,71.281266407174215,6.3088
11,1856.9232,5.8115,6,8,65,272.86,71.281266407174215,214.51
11,1856.9232,4.4704,7,9,65,464.38,76.357329126718284,370.82
12,1856.9232,4.4704,7,10,65,624.63,71.472271072726826,577.45
13,34.1298,4.0234,8,11,65,731.85,71.661522629146475,685.16
13,34.1298,4.9174,9,12,65,799.48,76.681069549305064,736.7
15,34.1298,4.0234,10,13,65,793.94,72.034842210105538,737.24
15,34.1298,4.0234,10,14,65,728.58,72.034842210105538,672.92
15,34.1298,4.9174,10,15,65,616.02,72.034842210105538,554.3
15,34.1298,6.2586,11,16,65,452.92,76.998577407491453,407.23
15,34.1298,6.2586,11,17,65,248.91,76.998577407491453,231.56
15,1856.9232,7.1526,11,18,65,20.78,76.998577407491453,19.363
16,1856.9232,7.1526,11,19,65,0,72.218947621294333,0
16,1856.9232,7.5997,11,20,65,0,72.218947621294333,0
16,34.1298,9.8349,11,21,65,0,72.218947621294333,0
17,34.1298,9.3878,12,22,65,0,72.401374699018376,0
17,34.1298,10.729,12,23,65,0,72.401374699018376,0
17,1856.9232,8.0467,12,0,66,0,72.401374699018376,0
16,34.1298,5.8115,12,1,66,0,77.155040268598128,0
16,34.1298,9.8349,12,2,66,0,77.155040268598128,0
15,34.1298,8.9408,11,3,66,0,76.998577407491453,0
13,34.1298,16.988,11,4,66,0,87.659298938667845,0
12,34.1298,4.0234,9,5,66,0,81.879846925107273,0
11,34.1298,5.8115,8,6,66,0,81.750052187031002,0
10,34.1298,3.5763,7,7,66,53.441,81.618915749746961,12.895
10,1856.9232,4.4704,5,8,66,280.27,71.088489426375332,22.465
10,1856.9232,5.8115,4,9,66,486.53,66.288662472889712,342.01
10,1856.9232,8.0467,2,10,66,658.77,57.540788283393631,339.13
11,34.1298,7.1526,1,11,66,783.38,50.110207765456927,553.81
12,34.1298,6.7056,1,12,66,846.01,46.904342960709904,595.15
13,34.1298,7.5997,1,13,66,841.67,43.926256823909441,465.32
14,34.1298,7.5997,0,14,66,770.51,38.290539901898327,502.66
14,34.1298,7.1526,-1,15,66,650.25,35.601377229690947,406.95
13,34.1298,8.0467,-2,16,66,480.97,35.305868336123105,270.41
13,34.1298,7.5997,-2,17,66,263.91,35.305868336123105,263.91
11,1856.9232,7.1526,-2,18,66,25.654,40.276238532121262,25.654
9,1856.9232,5.8115,-2,19,66,0,46.042482901756905,0
7,1856.9232,3.1293,-2,20,66,0,52.74704994628754,0
6,34.1298,2.6822,-1,21,66,0,60.807981934065246,0
6,34.1298,0,-1,22,66,0,60.807981934065246,0
5,34.1298,0,-2,23,66,0,60.56053603547852,0
5,1856.9232,2.2352,-2,0,67,0,60.56053603547852,0
5,34.1298,1.3411,-2,1,67,0,60.56053603547852,0
4,34.1298,4.0234,-2,2,67,0,64.945601027542693,0
3,34.1298,4.4704,-2,3,67,0,69.687768711565994,0
2,34.1298,5.8115,-2,4,67,0,74.819222225640118,0
1,34.1298,3.5763,-3,5,67,0,74.639707050276655,0
1,34.1298,3.1293,-4,6,67,0,69.270470217066517,0
1,34.1298,3.1293,-4,7,67,58.2,69.270470217066517,58.2
2,1856.9232,2.6822,-4,8,67,278.08,64.482018531033972,278.08
3,1856.9232,5.8115,-3,9,67,484.26,64.714825534265714,484.26
5,1856.9232,6.7056,-2,10,67,654.47,60.56053603547852,654.47
6,34.1298,11.176,-3,11,67,797.84,52.471166918911017,797.84
7,34.1298,10.282,-4,12,67,855.22,45.459390660817419,855.22
8,34.1298,11.623,-4,13,67,860.77,42.46061698708948,860.77
10,34.1298,12.517,-4,14,67,794.74,37.103461763800908,794.74
10,34.1298,14.305,-4,15,67,677.97,37.103461763800908,677.97
10,34.1298,12.517,-4,16,67,488.65,37.103461763800908,488.65
9,34.1298,13.411,-4,17,67,272.15,39.681142724689735,272.15
7,1856.9232,8.9408,-4,18,67,29.712,45.459390660817419,29.712
6,1856.9232,4.9174,-4,19,67,0,48.696632783711877,0
5,1856.9232,2.2352,-3,20,67,0,56.238915325569103,0
4,34.1298,2.2352,-3,21,67,0,60.311060569484063,0
3,34.1298,2.2352,-2,22,67,0,69.687768711565994,0
3,34.1298,2.2352,-2,23,67,0,69.687768711565994,0
2,1856.9232,0,-3,0,68,0,69.480096758186903,0
2,34.1298,1.3411,-3,1,68,0,69.480096758186903,0
1,34.1298,0,-3,2,68,0,74.639707050276655,0
1,34.1298,0,-3,3,68,0,74.639707050276655,0
1,34.1298,0,-3,4,68,0,74.639707050276655,0
0,34.1298,0,-3,5,68,0,80.22975039312503,0
