3,34.1298,2.6822,2,11,16,503.13,93.141530529950373,482.43
3,34.1298,2.6822,3,12,16,553.35,100.0,537.97
5,34.1298,3.5763,4,13,16,551.02,93.248095448058876,539.65
5,34.1298,3.1293,5,14,16,488.87,100.0,482.29
6,34.1298,4.0234,6,15,16,377.37,100.0,370.07
6,34.1298,3.1293,6,16,16,220.47,100.0,215.09
7,34.1298,3.1293,6,17,16,31.516,93.352225938756803,30.806
7,1856.9232,3.5763,6,18,16,0,93.352225938756803,0
7,1856.9232,3.1293,6,19,16,0,93.352225938756803,0
6,1856.9232,2.6822,6,20,16,0,100.0,0
6,34.1298,2.6822,6,21,16,0,100.0,0
7,34.1298,3.5763,6,22,16,0,93.352225938756803,0
8,34.1298,2.2352,7,23,16,0,93.403401079212742,0
8,1856.9232,2.6822,7,0,17,0,93.403401079212742,0
9,34.1298,4.0234,8,1,17,0,93.453994643448382,0
10,34.1298,4.9174,8,2,17,0,87.383237448204156,0
10,34.1298,4.4704,8,3,17,0,87.383237448204156,0
10,34.1298,6.2586,8,4,17,0,87.383237448204156,0
10,34.1298,4.9174,8,5,17,0,87.383237448204156,0
10,34.1298,9.3878,8,6,17,0,87.383237448204156,0
9,34.1298,7.5997,8,7,17,0,93.453994643448382,0
9,1856.9232,6.2586,8,8,17,75.512,93.453994643448382,44.562
8,1856.9232,6.2586,7,9,17,269.59,93.403401079212742,191.2
8,1856.9232,5.8115,7,10,17,421.33,93.403401079212742,359.27
8,34.1298,4.0234,6,11,17,520.16,87.194154009949884,492.37
8,34.1298,5.8115,6,12,17,574.6,87.194154009949884,543.37
7,34.1298,5.8115,5,13,17,569.24,87.098056588182175,546.17
8,34.1298,4.0234,5,14,17,501.26,81.35254712725947,474.57
8,34.1298,4.9174,5,15,17,389.51,81.35254712725947,369.45
7,34.1298,6.7056,5,16,17,232.24,87.098056588182175,222.44
7,34.1298,5.8115,5,17,17,36.333,87.098056588182175,35.109
6,1856.9232,5.8115,4,18,17,0,87.000902360951287,0
5,1856.9232,5.8115,3,19,17,0,86.902676258921971,0
4,1856.9232,4.9174,3,20,17,0,93.195121939330733,0
3,34.1298,4.9174,2,21,17,0,93.141530529950373,0
3,34.1298,5.8115,2,22,17,0,93.141530529950373,0
2,34.1298,4.9174,2,23,17,0,100.0,0
2,1856.9232,4.0234,1,0,18,0,93.087311705799863,0
2,34.1298,4.0234,1,1,18,0,93.087311705799863,0
1,34.1298,4.9174,1,2,18,0,100.0,0
1,34.1298,5.8115,1,3,18,0,100.0,0
0,34.1298,5.8115,0,4,18,0,100.0,0
0,34.1298,7.1526,0,5,18,0,100.0,0
0,34.1298,4.0234,0,6,18,0,100.0,0
0,34.1298,4.9174,0,7,18,0,100.0,0
0,1856.9232,3.5763,0,8,18,73.829,100.0,68.595
0,1856.9232,3.1293,0,9,18,259.78,100.0,240.03
0,1856.9232,3.5763,0,10,18,411.46,100.0,392.28
2,34.1298,3.5763,0,11,18,516.42,86.60141209181765,491.51
3,34.1298,3.5763,0,12,18,566.52,80.661880682868471,546.76
5,34.1298,4.0234,0,13,18,563.31,70.097333034191095,543.64
6,34.1298,2.6822,0,14,18,496.17,65.401134444271349,475.75
6,34.1298,2.6822,1,15,18,385.3,70.299266961976286,367.42
6,34.1298,4.0234,1,16,18,230.76,70.299266961976286,217.77
5,34.1298,3.1293,1,17,18,39.375,75.347181209710627,37.298
4,1856.9232,3.1293,1,18,18,0,80.80291704368436,0
3,1856.9232,4.0234,1,19,18,0,86.702946851967639,0
3,1856.9232,3.1293,1,20,18,0,86.702946851967639,0
2,34.1298,2.6822,1,21,18,0,93.087311705799863,0
2,34.1298,4.0234,1,22,18,0,93.087311705799863,0
2,34.1298,2.2352,1,23,18,0,93.087311705799863,0
1,1856.9232,2.6822,0,0,19,0,93.032455771758947,0
1,34.1298,2.6822,0,1,19,0,93.032455771758947,0
1,34.1298,2.6822,0,2,19,0,93.032455771758947,0
0,34.1298,1.3411,0,3,19,0,100.0,0
0,34.1298,1.3411,0,4,19,0,100.0,0
0,34.1298,1.3411,0,5,19,0,100.0,0
0,34.1298,2.2352,0,6,19,0,100.0,0
0,34.1298,2.6822,0,7,19,0,100.0,0
1,1856.9232,2.2352,0,8,19,74.638,93.032455771758947,0
3,1856.9232,2.6822,1,9,19,259.45,86.702946851967639,9.5142
4,1856.9232,3.1293,2,10,19,410.26,86.803362953546198,13.593
