1,34.1298,4.9174,-13,14,62,718.8,34.361130155647885,718.8
1,34.1298,4.4704,-13,15,62,602.62,34.361130155647885,602.62
1,34.1298,3.5763,-12,16,62,433.5,37.24517919206248,433.5
1,34.1298,4.4704,-12,17,62,233.93,37.24517919206248,233.93
0,1856.9232,3.1293,-12,18,62,7.7255,40.034608226872876,7.7255
-2,1856.9232,0,-12,19,62,0,46.339075732890365,0
-2,1856.9232,0,-11,20,62,0,50.193594861825019,0
-2,34.1298,0,-11,21,62,0,50.193594861825019,0
-3,34.1298,0,-10,22,62,0,58.506510777554723,0
-3,34.1298,0,-10,23,62,0,58.506510777554723,0
-3,1856.9232,1.3411,-9,0,63,0,63.286827800671929,0
-3,34.1298,0,-8,1,63,0,68.41198876664923,0
-3,34.1298,1.3411,-8,2,63,0,68.41198876664923,0
-2,34.1298,2.6822,-7,3,63,0,68.629648895336288,0
-2,34.1298,4.4704,-6,4,63,0,74.090271718389829,0
-2,34.1298,2.6822,-5,5,63,0,79.933943298104751,0
-2,34.1298,2.6822,-5,6,63,0,79.933943298104751,0
-2,34.1298,4.9174,-5,7,63,34.308,79.933943298104751,9.6651
-1,1856.9232,4.9174,-5,8,63,255.74,74.275253880025062,43.76
0,1856.9232,3.5763,-5,9,63,451.18,69.058867777488345,185.88
1,1856.9232,4.4704,-4,10,63,620.26,69.270470217066517,620.26
3,34.1298,7.1526,-4,11,63,751.05,60.059538976411261,751.05
4,34.1298,7.1526,-4,12,63,815.02,55.972560585266336,815.02
6,34.1298,7.1526,-3,13,63,814.85,52.471166918911017,814.85
7,34.1298,6.2586,-3,14,63,741.23,48.983002294844027,741.23
8,34.1298,6.2586,-2,15,63,618.16,49.267538618783618,618.16
8,34.1298,6.7056,-1,16,63,444.08,53.021005417931356,444.08
8,34.1298,8.0467,0,17,63,238.3,57.025965891592342,238.3
7,1856.9232,7.5997,0,18,63,12.055,61.053414792926283,12.055
5,1856.9232,7.1526,0,19,63,0,70.097333034191095,0
4,1856.9232,6.7056,0,20,63,0,75.172938060956724,0
3,34.1298,6.7056,0,21,63,0,80.661880682868471,0
3,34.1298,6.2586,0,22,63,0,80.661880682868471,0
2,34.1298,6.7056,0,23,63,0,86.60141209181765,0
2,1856.9232,4.9174,0,0,64,0,86.60141209181765,0
2,34.1298,5.8115,0,1,64,0,86.60141209181765,0
2,34.1298,4.4704,0,2,64,0,86.60141209181765,0
2,34.1298,4.0234,0,3,64,0,86.60141209181765,0
2,34.1298,4.0234,0,4,64,0,86.60141209181765,0
2,34.1298,3.5763,0,5,64,0,86.60141209181765,0
2,34.1298,3.1293,0,6,64,0,86.60141209181765,0
2,34.1298,3.5763,0,7,64,40.744,86.60141209181765,40.744
3,1856.9232,3.1293,1,8,64,263.31,86.702946851967639,263.31
6,1856.9232,2.6822,2,9,64,456.75,75.519709049236894,456.75
7,1856.9232,3.5763,2,10,64,617.88,70.499329419935393,617.88
9,34.1298,4.4704,3,11,64,731.55,66.069675859940816,16.225
10,34.1298,4.0234,3,12,64,785.99,61.77779982356094,32.667
11,34.1298,4.0234,3,13,64,785.68,57.795276383180649,32.506
12,34.1298,8.0467,4,14,64,753.1,58.047833762427267,33.803
12,34.1298,6.7056,4,15,64,627.06,58.047833762427267,94.149
13,34.1298,7.1526,5,16,64,454.49,58.298473968988098,71.864
13,34.1298,4.9174,5,17,64,237.37,58.298473968988098,39.786
12,1856.9232,5.8115,5,18,64,16.09,62.250959103782563,4.5029
12,1856.9232,4.0234,5,19,64,0,62.250959103782563,0
11,1856.9232,6.2586,5,20,64,0,66.505749732013612,0
10,34.1298,5.8115,5,21,64,0,71.088489426375332,0
10,34.1298,4.4704,5,22,64,0,71.088489426375332,0
9,34.1298,4.4704,5,23,64,0,76.027205034617879,0
9,1856.9232,4.4704,6,0,65,0,81.486420017858691,0
8,34.1298,4.4704,6,1,65,0,87.194154009949884,0
8,34.1298,4.0234,6,2,65,0,87.194154009949884,0
8,34.1298,4.0234,6,3,65,0,87.194154009949884,0
8,34.1298,4.4704,6,4,65,0,87.194154009949884,0
8,34.1298,4.4704,6,5,65,0,87.194154009949884,0
8,34.1298,4.9174,7,6,65,0,93.403401079212742,0
8,34.1298,4.0234,7,7,65,46.57,93.403401079212742,6.3088
9,1856.9232,5.8115,7,8,65,272.86,87.289209441366083,214.51
10,1856.9232,4.4704,8,9,65,464.38,87.383237448204156,370.82
11,1856.9232,4.4704,8,10,65,624.63,81.750052187031002,577.45
12,34.1298,4.0234,9,11,65,731.85,81.879846925107273,685.16
13,34.1298,4.9174,10,12,65,799.48,82.008317294977047,736.7
14,34.1298,4.0234,10,13,65,793.94,76.840593259432197,737.24
