16,34.1298,3.5763,12,13,59,756.02,77.155040268598128,729.53
17,34.1298,4.9174,12,14,59,698.65,72.401374699018376,636.55
18,34.1298,4.0234,13,15,59,580.29,72.582141630914492,545.88
18,34.1298,4.9174,13,16,59,417.77,72.582141630914492,397.12
18,34.1298,4.9174,13,17,59,219.05,72.582141630914492,205.22
18,1856.9232,4.4704,13,18,59,0,72.582141630914492,0
18,1856.9232,4.0234,13,19,59,0,72.582141630914492,0
18,1856.9232,7.1526,13,20,59,0,72.582141630914492,0
19,34.1298,9.8349,13,21,59,0,68.176241889351857,0
19,34.1298,6.2586,13,22,59,0,68.176241889351857,0
19,34.1298,5.8115,13,23,59,0,68.176241889351857,0
19,1856.9232,4.9174,13,0,60,0,68.176241889351857,0
18,34.1298,7.5997,13,1,60,0,72.582141630914492,0
17,34.1298,6.2586,13,2,60,0,77.309999878277452,0
17,34.1298,3.1293,12,3,60,0,72.401374699018376,0
15,34.1298,2.6822,11,4,60,0,76.998577407491453,0
13,34.1298,3.5763,11,5,60,0,87.659298938667845,0
12,34.1298,5.8115,10,6,60,0,87.568268233149638,0
13,34.1298,2.6822,10,7,60,17.225,82.008317294977047,0.79384
10,1856.9232,4.0234,10,8,60,241.44,100.0,241.44
12,1856.9232,6.7056,8,9,60,449.03,76.519987759453471,320.34
12,1856.9232,13.411,8,10,60,641.41,76.519987759453471,499.88
11,34.1298,9.3878,7,11,60,753.76,76.357329126718284,557.98
10,34.1298,10.282,6,12,60,823.31,76.193074639467341,753.79
10,34.1298,10.282,5,13,60,823.66,71.088489426375332,729.93
9,34.1298,14.752,4,14,60,770.2,70.893920717171909,632.25
8,34.1298,12.964,3,15,60,635.74,70.697540658389229,472.77
8,34.1298,9.3878,2,16,60,448.09,65.848771416257676,263.71
7,34.1298,13.411,2,17,60,240.31,70.499329419935393,167.91
6,1856.9232,9.8349,1,18,60,0,70.299266961976286,0
5,1856.9232,10.282,0,19,60,0,70.097333034191095,0
4,1856.9232,8.9408,0,20,60,0,75.172938060956724,0
3,34.1298,9.8349,-2,21,60,0,69.687768711565994,0
2,34.1298,9.3878,-2,22,60,0,74.819222225640118,0
2,34.1298,8.0467,-3,23,60,0,69.480096758186903,0
1,1856.9232,6.2586,-3,0,61,0,74.639707050276655,0
1,34.1298,4.9174,-3,1,61,0,74.639707050276655,0
0,34.1298,4.0234,-3,2,61,0,80.22975039312503,0
0,34.1298,4.0234,-3,3,61,0,80.22975039312503,0
0,34.1298,4.0234,-3,4,61,0,80.22975039312503,0
-1,34.1298,3.5763,-3,5,61,0,86.28993308116371,0
-2,34.1298,3.1293,-3,6,61,0,92.863965557739348,0
-2,34.1298,3.1293,-3,7,61,22.775,92.863965557739348,10.949
-1,1856.9232,3.5763,-3,8,61,242.76,86.28993308116371,114.39
0,1856.9232,4.4704,-3,9,61,443.14,80.22975039312503,346.73
1,1856.9232,8.0467,-3,10,61,625.6,74.639707050276655,428.91
2,34.1298,6.7056,-3,11,61,741.68,69.480096758186903,526.34
4,34.1298,6.7056,-3,12,61,800.86,60.311060569484063,670.19
5,34.1298,6.2586,-3,13,61,791.17,56.238915325569103,535.07
6,34.1298,8.9408,-3,14,61,746.32,52.471166918911017,505.4
6,34.1298,6.2586,-3,15,61,615.16,52.471166918911017,15.474
6,34.1298,7.1526,-3,16,61,447.67,52.471166918911017,70.662
5,34.1298,6.7056,-3,17,61,233.86,56.238915325569103,38.871
4,1856.9232,7.1526,-3,18,61,3.6351,60.311060569484063,3.6351
3,1856.9232,4.0234,-3,19,61,0,64.714825534265714,0
3,1856.9232,4.0234,-3,20,61,0,64.714825534265714,0
2,34.1298,3.5763,-3,21,61,0,69.480096758186903,0
2,34.1298,2.2352,-3,22,61,0,69.480096758186903,0
1,34.1298,1.3411,-3,23,61,0,74.639707050276655,0
-1,1856.9232,2.2352,-4,0,62,0,80.082632632857582,0
-2,34.1298,2.2352,-4,1,62,0,86.18375948438603,0
-2,34.1298,4.0234,-5,2,62,0,79.933943298104751,0
-2,34.1298,4.4704,-5,3,62,0,79.933943298104751,0
-2,34.1298,5.8115,-5,4,62,0,79.933943298104751,0
-3,34.1298,4.0234,-6,5,62,0,79.783661265599576,0
-4,34.1298,4.4704,-6,6,62,0,85.967788086353806,0
-4,34.1298,4.4704,-7,7,62,29.197,79.631765086518371,29.197
-4,1856.9232,4.4704,-7,8,62,255.9,79.631765086518371,255.9
-3,1856.9232,5.8115,-7,9,62,460.63,73.90342258501218,460.63
-2,1856.9232,4.4704,-8,10,62,628.89,63.530085685625657,628.89
0,34.1298,6.2586,-8,11,62,750.84,54.886767826455419,750.84
1,34.1298,2.6822,-8,12,62,785.52,51.062508002695161,785.52
