-3,34.1298,7.1526,-7,16,29,282.98,73.90342258501218,183.23
-3,34.1298,5.8115,-7,17,29,84.785,73.90342258501218,60.668
-3,1856.9232,4.0234,-7,18,29,0,73.90342258501218,0
-4,1856.9232,3.5763,-7,19,29,0,79.631765086518371,0
-4,1856.9232,3.5763,-7,20,29,0,79.631765086518371,0
-5,34.1298,3.5763,-7,21,29,0,85.857954785728069,0
-5,34.1298,4.4704,-7,22,29,0,85.857954785728069,0
-5,34.1298,4.4704,-7,23,29,0,85.857954785728069,0
-5,1856.9232,4.9174,-8,0,30,0,79.478232981322179,0
-6,34.1298,3.5763,-8,1,30,0,85.74686556299531,0
-6,34.1298,2.6822,-8,2,30,0,85.74686556299531,0
-7,34.1298,3.5763,-9,3,30,0,85.634501876922116,0
-8,34.1298,3.5763,-9,4,30,0,92.508387698742339,0
-8,34.1298,2.6822,-9,5,30,0,92.508387698742339,0
-9,34.1298,2.2352,-10,6,30,0,92.446584559154559,0
-9,34.1298,0,-10,7,30,0,92.446584559154559,0
-8,1856.9232,1.3411,-10,8,30,100.34,85.520844858228372,100.34
-8,1856.9232,2.2352,-10,9,30,287.11,85.520844858228372,287.11
-7,1856.9232,2.6822,-9,10,30,441.08,85.634501876922116,441.08
-6,34.1298,3.1293,-9,11,30,551.89,79.323042834535087,551.89
-5,34.1298,4.4704,-9,12,30,622.45,73.524031902471236,622.45
-4,34.1298,4.0234,-8,13,30,618.39,73.714683677886498,618.39
-3,34.1298,5.8115,-8,14,30,557.34,68.41198876664923,27.587
-2,34.1298,5.8115,-8,15,30,442.08,63.530085685625657,23.657
-1,34.1298,3.5763,-7,16,30,279.83,63.77121389329664,72.693
-1,34.1298,4.4704,-7,17,30,88.208,63.77121389329664,6.1958
-2,1856.9232,4.4704,-6,18,30,0,74.090271718389829,0
-2,1856.9232,6.2586,-6,19,30,0,74.090271718389829,0
-1,1856.9232,5.8115,-5,20,30,0,74.275253880025062,0
0,34.1298,3.5763,-4,21,30,0,74.458391582192704,0
0,34.1298,4.4704,-3,22,30,0,80.22975039312503,0
1,34.1298,4.0234,-3,23,30,0,74.639707050276655,0
1,1856.9232,4.0234,-3,0,31,0,74.639707050276655,0
1,34.1298,4.4704,-2,1,31,0,80.375317381711923,0
2,34.1298,7.5997,-2,2,31,0,74.819222225640118,0
2,34.1298,8.9408,-2,3,31,0,74.819222225640118,0
1,34.1298,10.729,-2,4,31,0,80.375317381711923,0
1,34.1298,8.9408,-2,5,31,0,80.375317381711923,0
0,34.1298,8.9408,-3,6,31,0,80.22975039312503,0
0,34.1298,8.9408,-3,7,31,0,80.22975039312503,0
0,1856.9232,9.3878,-3,8,31,109.42,80.22975039312503,88.575
0,1856.9232,6.7056,-3,9,31,303.87,80.22975039312503,233.92
1,1856.9232,8.0467,-3,10,31,467.24,74.639707050276655,338.06
2,34.1298,8.9408,-3,11,31,581.5,69.480096758186903,418.01
3,34.1298,8.9408,-2,12,31,639.24,69.687768711565994,438.5
3,34.1298,6.7056,-2,13,31,628.82,69.687768711565994,462.23
4,34.1298,8.9408,-2,14,31,575.97,64.945601027542693,408.17
4,34.1298,8.0467,-2,15,31,456.99,64.945601027542693,302.7
3,34.1298,7.1526,-2,16,31,292.26,69.687768711565994,204.41
3,34.1298,6.7056,-2,17,31,94.013,69.687768711565994,57.146
3,1856.9232,4.4704,-3,18,31,0,64.714825534265714,0
2,1856.9232,3.5763,-3,19,31,0,69.480096758186903,0
2,1856.9232,3.1293,-3,20,31,0,69.480096758186903,0
1,34.1298,2.6822,-3,21,31,0,74.639707050276655,0
1,34.1298,3.1293,-3,22,31,0,74.639707050276655,0
0,34.1298,3.1293,-3,23,31,0,80.22975039312503,0
0,1856.9232,3.5763,-4,0,32,0,74.458391582192704,0
0,34.1298,3.1293,-4,1,32,0,74.458391582192704,0
-1,34.1298,3.1293,-4,2,32,0,80.082632632857582,0
-2,34.1298,4.0234,-4,3,32,0,86.18375948438603,0
-3,34.1298,3.5763,-4,4,32,0,92.806460468027481,0
-3,34.1298,4.0234,-4,5,32,0,92.806460468027481,0
-3,34.1298,3.1293,-5,6,32,0,86.076383684481797,0
-3,34.1298,2.2352,-5,7,32,0,86.076383684481797,0
-3,1856.9232,2.2352,-5,8,32,107.58,86.076383684481797,0
-3,1856.9232,2.2352,-5,9,32,297.24,86.076383684481797,297.24
-3,1856.9232,3.5763,-5,10,32,454.05,86.076383684481797,454.05
-2,34.1298,3.1293,-5,11,32,561.8,79.933943298104751,561.8
0,34.1298,4.4704,-5,12,32,626.66,69.058867777488345,543.8
0,34.1298,3.1293,-5,13,32,619.82,69.058867777488345,472.91
1,34.1298,4.4704,-5,14,32,568.93,64.247160621569336,418.6
1,34.1298,4.0234,-5,15,32,450.63,64.247160621569336,351.34
