4,1856.9232,5.8115,-3,9,68,500.1,60.311060569484063,500.1
7,1856.9232,4.4704,-4,10,68,660.49,45.459390660817419,660.49
9,34.1298,3.1293,-3,11,68,763.7,42.756875463815561,763.7
11,34.1298,3.5763,-3,12,68,817.61,37.402112278422031,817.61
12,34.1298,4.0234,-2,13,68,821.07,37.699514520477237,821.07
13,34.1298,2.6822,-2,14,68,747.46,35.305868336123105,0
14,34.1298,4.9174,-2,15,68,636.54,33.081081992317216,636.54
14,34.1298,3.1293,-1,16,68,456.05,35.601377229690947,456.05
13,34.1298,4.0234,-1,17,68,259.41,37.995659795771857,0
11,1856.9232,4.4704,-2,18,68,33.091,40.276238532121262,1.2066
10,1856.9232,6.2586,-2,19,68,0,43.051570256137374,0
8,1856.9232,6.2586,-2,20,68,0,49.267538618783618,0
6,34.1298,6.7056,-2,21,68,0,56.50325893770539,0
5,34.1298,5.8115,-2,22,68,0,60.56053603547852,0
4,34.1298,4.4704,-2,23,68,0,64.945601027542693,0
3,1856.9232,6.7056,-3,0,69,0,64.714825534265714,0
2,34.1298,4.4704,-3,1,69,0,69.480096758186903,0
1,34.1298,4.9174,-3,2,69,0,74.639707050276655,0
1,34.1298,4.4704,-4,3,69,0,69.270470217066517,0
0,34.1298,4.4704,-4,4,69,0,74.458391582192704,0
-2,34.1298,3.5763,-5,5,69,0,79.933943298104751,0
-2,34.1298,6.2586,-7,6,69,0,68.629648895336288,0
-3,34.1298,5.8115,-8,7,69,73.405,68.41198876664923,73.405
-3,1856.9232,4.9174,-9,8,69,303.09,63.286827800671929,303.09
-2,1856.9232,6.2586,-9,9,69,512.32,58.770657971401796,512.32
-1,1856.9232,8.0467,-10,10,69,678.82,50.485228998075804,678.82
0,34.1298,4.9174,-10,11,69,780.61,46.939627560558947,780.61
0,34.1298,7.5997,-11,12,69,848.82,43.364717012800988,848.82
0,34.1298,6.2586,-12,13,69,842.85,40.034608226872876,842.85
0,34.1298,5.8115,-12,14,69,774.48,40.034608226872876,774.48
0,34.1298,6.7056,-13,15,69,666.89,36.934562105882399,666.89
0,34.1298,7.5997,-14,16,69,488.66,34.050592986126624,488.66
-1,34.1298,7.5997,-14,17,69,278.02,36.622616619764386,278.02
-2,1856.9232,7.1526,-14,18,69,38.758,39.412725065080416,38.758
-4,1856.9232,4.9174,-14,19,69,0,45.731034827067205,0
-4,1856.9232,3.1293,-14,20,69,0,45.731034827067205,0
-5,34.1298,4.4704,-14,21,69,0,49.306619239457561,0
-6,34.1298,3.5763,-14,22,69,0,53.195546663514051,0
-7,34.1298,3.5763,-14,23,69,0,57.428131572094784,0
-8,1856.9232,2.2352,-15,0,70,0,57.153006402185255,0
-8,34.1298,0,-15,1,70,0,57.153006402185255,0
-8,34.1298,0,-15,2,70,0,57.153006402185255,0
-8,34.1298,0,-14,3,70,0,62.037890614710676,0
-8,34.1298,2.2352,-14,4,70,0,62.037890614710676,0
-8,34.1298,2.2352,-14,5,70,0,62.037890614710676,0
-8,34.1298,3.1293,-14,6,70,0,62.037890614710676,0
-8,34.1298,3.1293,-14,7,70,79.074,62.037890614710676,79.074
-8,1856.9232,3.5763,-14,8,70,307.15,62.037890614710676,307.15
-6,1856.9232,4.4704,-15,9,70,502.45,49.006911564891894,502.45
-5,1856.9232,4.4704,-15,10,70,666.56,45.424199584158785,666.56
-4,34.1298,3.1293,-14,11,70,770.64,45.731034827067205,770.64
-3,34.1298,3.1293,-14,12,70,834.42,42.441354758402014,834.42
-2,34.1298,4.4704,-13,13,70,828.43,42.75084848805362,828.43
-2,34.1298,4.4704,-13,14,70,771.4,42.75084848805362,771.4
-2,34.1298,4.0234,-13,15,70,649.19,42.75084848805362,649.19
-2,34.1298,3.1293,-13,16,70,476.07,42.75084848805362,476.07
-2,34.1298,2.2352,-13,17,70,266,42.75084848805362,266
-3,1856.9232,4.0234,-13,18,70,41.361,46.035992789337357,41.361
-3,1856.9232,3.1293,-13,19,70,0,46.035992789337357,0
-4,1856.9232,3.5763,-12,20,70,0,53.767758577862509,0
-5,34.1298,4.4704,-12,21,70,0,57.971712417682106,0
-6,34.1298,4.0234,-12,22,70,0,62.54407583902627,0
-7,34.1298,3.5763,-12,23,70,0,67.520490748189346,0
-7,1856.9232,4.0234,-12,0,71,0,67.520490748189346,0
-7,34.1298,4.0234,-12,1,71,0,67.520490748189346,0
-7,34.1298,2.6822,-12,2,71,0,67.520490748189346,0
-7,34.1298,1.3411,-12,3,71,0,67.520490748189346,0
-7,34.1298,2.2352,-12,4,71,0,67.520490748189346,0
-8,34.1298,1.3411,-12,5,71,0,72.940363975260709,0
-8,34.1298,0,-12,6,71,0,72.940363975260709,0
-8,34.1298,0,-13,7,71,81.146,67.292288412144302,81.146
-7,1856.9232,0,-13,8,71,295.63,62.292098497037117,295.63
