-1,34.1298,0,-4,22,36,0,80.082632632857582,0
0,34.1298,0,-4,23,36,0,74.458391582192704,0
0,1856.9232,3.1293,-3,0,37,0,80.22975039312503,0
-1,34.1298,2.6822,-3,1,37,0,86.28993308116371,0
-1,34.1298,2.2352,-4,2,37,0,80.082632632857582,0
-2,34.1298,2.6822,-4,3,37,0,86.18375948438603,0
-2,34.1298,2.6822,-3,4,37,0,92.863965557739348,0
-2,34.1298,2.2352,-3,5,37,0,92.863965557739348,0
-2,34.1298,2.2352,-3,6,37,0,92.863965557739348,0
-1,34.1298,1.3411,-3,7,37,0,86.28993308116371,0
-1,1856.9232,2.2352,-3,8,37,125.25,86.28993308116371,125.25
1,1856.9232,1.3411,-2,9,37,311.66,80.375317381711923,311.66
3,1856.9232,1.3411,0,10,37,459.25,80.661880682868471,459.25
6,34.1298,3.5763,1,11,37,567.34,70.299266961976286,567.34
8,34.1298,3.5763,3,12,37,626.15,70.697540658389229,626.15
9,34.1298,4.4704,4,13,37,635.07,70.893920717171909,561.43
10,34.1298,4.0234,5,14,37,578.53,71.088489426375332,517.23
9,34.1298,3.1293,5,15,37,465.61,76.027205034617879,431.31
8,34.1298,4.0234,5,16,37,311.18,81.35254712725947,295.52
8,34.1298,3.5763,5,17,37,117.33,81.35254712725947,112.54
7,1856.9232,3.5763,6,18,37,0,93.352225938756803,0
7,1856.9232,2.2352,6,19,37,0,93.352225938756803,0
7,1856.9232,3.1293,6,20,37,0,93.352225938756803,0
7,34.1298,2.2352,6,21,37,0,93.352225938756803,0
7,34.1298,1.3411,6,22,37,0,93.352225938756803,0
8,34.1298,2.2352,7,23,37,0,93.403401079212742,0
8,1856.9232,2.6822,7,0,38,0,93.403401079212742,0
8,34.1298,2.2352,8,1,38,0,100.0,0
9,34.1298,1.3411,8,2,38,0,93.453994643448382,0
10,34.1298,2.2352,9,3,38,0,93.504015298216231,0
10,34.1298,0,9,4,38,0,93.504015298216231,0
11,34.1298,2.6822,9,5,38,0,87.47625235168276,0
11,34.1298,2.6822,9,6,38,0,87.47625235168276,0
11,34.1298,4.9174,9,7,38,0,87.47625235168276,0
12,1856.9232,7.1526,10,8,38,132.58,87.568268233149638,51.738
12,1856.9232,3.5763,11,9,38,324.29,93.602371756764171,272.18
13,1856.9232,4.9174,11,10,38,488.14,87.659298938667845,328.6
13,34.1298,6.2586,11,11,38,605.85,87.659298938667845,368.87
13,34.1298,5.8115,11,12,38,660.13,87.659298938667845,432.98
13,34.1298,7.1526,11,13,38,666.52,87.659298938667845,476.9
14,34.1298,7.5997,11,14,38,609.64,82.135480367498232,498.42
14,34.1298,5.8115,10,15,38,487.54,76.840593259432197,230.01
13,34.1298,9.3878,10,16,38,333.66,82.008317294977047,176.78
13,34.1298,11.176,9,17,38,130.73,76.681069549305064,116.99
12,1856.9232,8.0467,8,18,38,0,76.519987759453471,0
10,1856.9232,6.7056,8,19,38,0,87.383237448204156,0
9,1856.9232,7.1526,7,20,38,0,87.289209441366083,0
8,34.1298,7.1526,6,21,38,0,87.194154009949884,0
7,34.1298,7.1526,5,22,38,0,87.098056588182175,0
6,34.1298,7.5997,4,23,38,0,87.000902360951287,0
5,1856.9232,6.2586,2,0,39,0,80.942482739047733,0
4,34.1298,7.1526,1,1,39,0,80.80291704368436,0
3,34.1298,4.9174,0,2,39,0,80.661880682868471,0
2,34.1298,4.0234,-2,3,39,0,74.819222225640118,0
1,34.1298,3.5763,-3,4,39,0,74.639707050276655,0
0,34.1298,3.1293,-3,5,39,0,80.22975039312503,0
-1,34.1298,1.3411,-3,6,39,0,86.28993308116371,0
-1,34.1298,3.5763,-4,7,39,0,80.082632632857582,0
-2,1856.9232,2.6822,-4,8,39,133.87,86.18375948438603,114.54
-2,1856.9232,3.1293,-5,9,39,329.98,79.933943298104751,272.5
-2,1856.9232,3.1293,-6,10,39,487.72,74.090271718389829,77.46
-2,34.1298,4.9174,-6,11,39,607.89,74.090271718389829,154.82
-1,34.1298,4.4704,-5,12,39,653.62,74.275253880025062,572.75
0,34.1298,3.5763,-5,13,39,650.94,69.058867777488345,617.74
0,34.1298,4.4704,-5,14,39,593.73,69.058867777488345,407.94
0,34.1298,5.8115,-6,15,39,489.26,64.010232287886922,393.02
0,34.1298,4.0234,-7,16,39,323.69,59.292531471931667,306.8
-1,34.1298,4.9174,-7,17,39,128.86,63.77121389329664,120.24
-2,1856.9232,4.9174,-7,18,39,0,68.629648895336288,0
-3,1856.9232,4.0234,-7,19,39,0,73.90342258501218,0
-4,1856.9232,3.5763,-8,20,39,0,73.714683677886498,0
-4,34.1298,4.0234,-8,21,39,0,73.714683677886498,0
