6,34.1298,10.282,2,16,25,277.01,75.519709049236894,231.38
6,34.1298,5.8115,2,17,25,68.905,75.519709049236894,51.133
5,1856.9232,6.2586,1,18,25,0,75.347181209710627,0
4,1856.9232,10.282,1,19,25,0,80.80291704368436,0
3,1856.9232,8.0467,0,20,25,0,80.661880682868471,0
3,34.1298,6.2586,0,21,25,0,80.661880682868471,0
3,34.1298,7.1526,-1,22,25,0,74.996958768522148,0
2,34.1298,7.1526,-1,23,25,0,80.519354085990997,0
2,1856.9232,6.7056,-1,0,26,0,80.519354085990997,0
2,34.1298,8.0467,-1,1,26,0,80.519354085990997,0
2,34.1298,9.8349,-1,2,26,0,80.519354085990997,0
2,34.1298,8.0467,-1,3,26,0,80.519354085990997,0
2,34.1298,6.7056,-1,4,26,0,80.519354085990997,0
1,34.1298,5.8115,-1,5,26,0,86.498742535900504,0
1,34.1298,6.2586,-1,6,26,0,86.498742535900504,0
1,34.1298,8.0467,-1,7,26,0,86.498742535900504,0
0,1856.9232,6.2586,-2,8,26,92.281,86.394921766765563,85.19
1,1856.9232,6.2586,-2,9,26,286.14,80.375317381711923,269.88
1,1856.9232,7.1526,-2,10,26,447.13,80.375317381711923,369.33
1,34.1298,8.0467,-2,11,26,564.77,80.375317381711923,485.87
1,34.1298,7.5997,-3,12,26,619.78,74.639707050276655,544.6
1,34.1298,5.8115,-3,13,26,610.31,74.639707050276655,531.37
1,34.1298,7.5997,-3,14,26,551.45,74.639707050276655,435
1,34.1298,8.0467,-3,15,26,434.77,74.639707050276655,362.49
1,34.1298,6.7056,-3,16,26,269.82,74.639707050276655,185.84
1,34.1298,5.8115,-3,17,26,72.035,74.639707050276655,47.381
1,1856.9232,4.9174,-4,18,26,0,69.270470217066517,0
0,1856.9232,5.8115,-4,19,26,0,74.458391582192704,0
0,1856.9232,4.9174,-4,20,26,0,74.458391582192704,0
-1,34.1298,6.2586,-4,21,26,0,80.082632632857582,0
-1,34.1298,5.8115,-4,22,26,0,80.082632632857582,0
-2,34.1298,4.9174,-4,23,26,0,86.18375948438603,0
-2,1856.9232,6.2586,-4,0,27,0,86.18375948438603,0
-3,34.1298,5.8115,-5,1,27,0,86.076383684481797,0
-3,34.1298,3.5763,-5,2,27,0,86.076383684481797,0
-3,34.1298,6.2586,-5,3,27,0,86.076383684481797,0
-3,34.1298,4.0234,-5,4,27,0,86.076383684481797,0
-4,34.1298,5.8115,-6,5,27,0,85.967788086353806,0
-4,34.1298,4.0234,-6,6,27,0,85.967788086353806,0
-4,34.1298,3.5763,-7,7,27,0,79.631765086518371,0
-4,1856.9232,2.6822,-7,8,27,92.677,79.631765086518371,71.922
-3,1856.9232,4.0234,-7,9,27,280.71,73.90342258501218,251.06
-3,1856.9232,5.8115,-7,10,27,443.09,73.90342258501218,381.8
-2,34.1298,4.9174,-7,11,27,554.8,68.629648895336288,457.93
-2,34.1298,6.7056,-6,12,27,619.09,74.090271718389829,510.13
-2,34.1298,4.4704,-6,13,27,606.1,74.090271718389829,498.76
-2,34.1298,4.9174,-6,14,27,543.71,74.090271718389829,448.71
-2,34.1298,4.9174,-6,15,27,429.74,74.090271718389829,388.13
-2,34.1298,6.2586,-6,16,27,272.47,74.090271718389829,243.88
-2,34.1298,6.2586,-6,17,27,76.7,74.090271718389829,69.161
-3,1856.9232,7.1526,-7,18,27,0,73.90342258501218,0
-3,1856.9232,8.0467,-7,19,27,0,73.90342258501218,0
-3,1856.9232,4.4704,-7,20,27,0,73.90342258501218,0
-3,34.1298,6.7056,-7,21,27,0,73.90342258501218,0
-3,34.1298,6.2586,-7,22,27,0,73.90342258501218,0
-3,34.1298,4.9174,-7,23,27,0,73.90342258501218,0
-4,1856.9232,3.5763,-7,0,28,0,79.631765086518371,0
-4,34.1298,4.4704,-7,1,28,0,79.631765086518371,0
-4,34.1298,3.5763,-7,2,28,0,79.631765086518371,0
-4,34.1298,2.6822,-7,3,28,0,79.631765086518371,0
-4,34.1298,3.5763,-7,4,28,0,79.631765086518371,0
-4,34.1298,3.1293,-7,5,28,0,79.631765086518371,0
-5,34.1298,2.6822,-7,6,28,0,85.857954785728069,0
-5,34.1298,8.9408,-7,7,28,0,85.857954785728069,0
-5,1856.9232,4.4704,-7,8,28,96.499,85.857954785728069,88.655
-5,1856.9232,4.9174,-7,9,28,288.23,85.857954785728069,263.42
-4,1856.9232,4.4704,-7,10,28,442.73,79.631765086518371,399.39
-3,34.1298,6.7056,-7,11,28,557.35,73.90342258501218,493.37
-2,34.1298,4.4704,-6,12,28,606.87,74.090271718389829,526.54
-2,34.1298,5.8115,-6,13,28,607.74,74.090271718389829,523.31
-1,34.1298,4.9174,-6,14,28,546.53,68.845267915788227,475.82
-1,34.1298,6.2586,-5,15,28,436.72,74.275253880025062,376.17
