-1,34.1298,4.4704,-9,13,13,547.1,54.610161358391132,547.1
0,34.1298,4.9174,-9,14,13,486.06,50.77486397620595,486.06
0,34.1298,4.4704,-8,15,13,372.96,54.886767826455419,372.96
0,34.1298,4.9174,-8,16,13,215.8,54.886767826455419,215.8
0,34.1298,4.4704,-8,17,13,21.436,54.886767826455419,21.436
-2,1856.9232,6.2586,-8,18,13,0,63.530085685625657,0
-2,1856.9232,5.8115,-8,19,13,0,63.530085685625657,0
-2,1856.9232,5.8115,-8,20,13,0,63.530085685625657,0
-3,34.1298,4.4704,-8,21,13,0,68.41198876664923,0
-3,34.1298,4.4704,-8,22,13,0,68.41198876664923,0
-3,34.1298,4.4704,-7,23,13,0,73.90342258501218,0
-3,1856.9232,4.4704,-7,0,14,0,73.90342258501218,0
-3,34.1298,4.0234,-7,1,14,0,73.90342258501218,0
-4,34.1298,3.1293,-7,2,14,0,79.631765086518371,0
-4,34.1298,4.4704,-7,3,14,0,79.631765086518371,0
-4,34.1298,3.5763,-7,4,14,0,79.631765086518371,0
-4,34.1298,3.5763,-6,5,14,0,85.967788086353806,0
-4,34.1298,2.6822,-6,6,14,0,85.967788086353806,0
-2,34.1298,2.6822,-5,7,14,0,79.933943298104751,0
-2,1856.9232,4.0234,-5,8,14,67.974,79.933943298104751,64.667
-2,1856.9232,2.2352,-4,9,14,249.62,86.18375948438603,236.66
-2,1856.9232,2.2352,-4,10,14,396.69,86.18375948438603,377.89
-1,34.1298,1.3411,-4,11,14,494.24,80.082632632857582,473.45
-1,34.1298,1.3411,-3,12,14,544.98,86.28993308116371,521.74
0,34.1298,0,-3,13,14,536.4,80.22975039312503,513.41
0,34.1298,1.3411,-3,14,14,481.23,80.22975039312503,461.11
0,34.1298,2.2352,-3,15,14,370.89,80.22975039312503,355.99
0,34.1298,2.2352,-3,16,14,214.2,80.22975039312503,206.05
0,34.1298,2.6822,-3,17,14,24.594,80.22975039312503,23.002
-1,1856.9232,2.2352,-3,18,14,0,86.28993308116371,0
-2,1856.9232,0,-3,19,14,0,92.863965557739348,0
-2,1856.9232,0,-3,20,14,0,92.863965557739348,0
-2,34.1298,1.3411,-3,21,14,0,92.863965557739348,0
-2,34.1298,1.3411,-3,22,14,0,92.863965557739348,0
-3,34.1298,1.3411,-4,23,14,0,92.806460468027481,0
-3,1856.9232,1.3411,-4,0,15,0,92.806460468027481,0
-4,34.1298,1.3411,-4,1,15,0,100.0,0
-4,34.1298,0,-4,2,15,0,100.0,0
-4,34.1298,0,-5,3,15,0,92.748266931412331,0
-4,34.1298,0,-5,4,15,0,92.748266931412331,0
-4,34.1298,0,-5,5,15,0,92.748266931412331,0
-4,34.1298,0,-5,6,15,0,92.748266931412331,0
-4,34.1298,0,-5,7,15,0,92.748266931412331,0
-4,1856.9232,0,-5,8,15,67.905,92.748266931412331,2.635
-3,1856.9232,0,-5,9,15,250.05,86.076383684481797,250.05
-3,1856.9232,0,-5,10,15,394.33,86.076383684481797,394.33
-2,34.1298,2.6822,-4,11,15,502.47,86.18375948438603,0
0,34.1298,3.1293,-4,12,15,552.6,74.458391582192704,0
1,34.1298,2.2352,-3,13,15,549.03,74.639707050276655,30.657
1,34.1298,2.2352,-3,14,15,489.42,74.639707050276655,28.084
2,34.1298,2.2352,-3,15,15,377.15,69.480096758186903,0
2,34.1298,3.1293,-2,16,15,220.63,74.819222225640118,15.201
1,34.1298,2.6822,-2,17,15,28.164,80.375317381711923,2.2042
1,1856.9232,2.6822,-2,18,15,0,80.375317381711923,0
0,1856.9232,3.1293,-2,19,15,0,86.394921766765563,0
0,1856.9232,3.1293,-2,20,15,0,86.394921766765563,0
0,34.1298,3.1293,-2,21,15,0,86.394921766765563,0
0,34.1298,3.1293,-2,22,15,0,86.394921766765563,0
0,34.1298,0,-2,23,15,0,86.394921766765563,0
0,1856.9232,2.2352,-1,0,16,0,92.97695284762996,0
0,34.1298,2.2352,-1,1,16,0,92.97695284762996,0
0,34.1298,2.2352,-1,2,16,0,92.97695284762996,0
0,34.1298,2.2352,-1,3,16,0,92.97695284762996,0
0,34.1298,2.6822,-1,4,16,0,92.97695284762996,0
1,34.1298,2.6822,-1,5,16,0,86.498742535900504,0
1,34.1298,2.6822,0,6,16,0,93.032455771758947,0
1,34.1298,2.6822,0,7,16,0,93.032455771758947,0
2,1856.9232,2.2352,1,8,16,69.494,93.087311705799863,62.905
2,1856.9232,2.2352,2,9,16,252.93,100.0,238.45
3,1856.9232,2.6822,2,10,16,400.76,93.141530529950373,379.52
4,34.1298,2.6822,3,11,16,503.13,93.195121939330733,482.43
5,34.1298,2.6822,4,12,16,553.35,93.248095448058876,537.97
