-4,1856.9232,4.9174,-5,9,28,288.23,92.748266931412331,263.42
-4,1856.9232,4.4704,-5,10,28,442.73,92.748266931412331,399.39
-3,34.1298,6.7056,-4,11,28,557.35,92.806460468027481,493.37
-2,34.1298,4.4704,-4,12,28,606.87,86.18375948438603,526.54
-2,34.1298,5.8115,-4,13,28,607.74,86.18375948438603,523.31
-1,34.1298,4.9174,-4,14,28,546.53,80.082632632857582,475.82
-1,34.1298,6.2586,-4,15,28,436.72,80.082632632857582,376.17
-1,34.1298,4.4704,-4,16,28,273,80.082632632857582,234.34
-1,34.1298,4.4704,-4,17,28,79.563,80.082632632857582,70.756
-2,1856.9232,4.9174,-4,18,28,0,86.18375948438603,0
-2,1856.9232,6.2586,-4,19,28,0,86.18375948438603,0
-2,1856.9232,4.4704,-4,20,28,0,86.18375948438603,0
-3,34.1298,4.0234,-5,21,28,0,86.076383684481797,0
-3,34.1298,4.0234,-5,22,28,0,86.076383684481797,0
-3,34.1298,3.5763,-5,23,28,0,86.076383684481797,0
-4,1856.9232,3.5763,-5,0,29,0,92.748266931412331,0
-4,34.1298,3.5763,-5,1,29,0,92.748266931412331,0
-4,34.1298,3.5763,-5,2,29,0,92.748266931412331,0
-5,34.1298,2.6822,-6,3,29,0,92.68937407739088,0
-5,34.1298,4.0234,-6,4,29,0,92.68937407739088,0
-5,34.1298,3.1293,-7,5,29,0,85.857954785728069,0
-6,34.1298,3.5763,-7,6,29,0,92.629770823612489,0
-6,34.1298,3.5763,-7,7,29,0,92.629770823612489,0
-6,1856.9232,2.2352,-7,8,29,98.335,92.629770823612489,82.807
-5,1856.9232,1.3411,-7,9,29,286.25,85.857954785728069,235.52
-5,1856.9232,2.2352,-7,10,29,440.6,85.857954785728069,364.32
-4,34.1298,3.1293,-7,11,29,549.51,79.631765086518371,452.29
-3,34.1298,2.2352,-7,12,29,600.94,73.90342258501218,474.9
-2,34.1298,3.5763,-7,13,29,605.57,68.629648895336288,485.14
-2,34.1298,3.5763,-7,14,29,548.13,68.629648895336288,435.21
-2,34.1298,3.5763,-7,15,29,435.3,68.629648895336288,304.26
-3,34.1298,7.1526,-7,16,29,282.98,73.90342258501218,183.23
-3,34.1298,5.8115,-8,17,29,84.785,68.41198876664923,60.668
-4,1856.9232,4.0234,-8,18,29,0,73.714683677886498,0
-4,1856.9232,3.5763,-8,19,29,0,73.714683677886498,0
-4,1856.9232,3.5763,-8,20,29,0,73.714683677886498,0
-5,34.1298,3.5763,-8,21,29,0,79.478232981322179,0
-5,34.1298,4.4704,-8,22,29,0,79.478232981322179,0
-6,34.1298,4.4704,-8,23,29,0,85.74686556299531,0
-7,1856.9232,4.9174,-9,0,30,0,85.634501876922116,0
-7,34.1298,3.5763,-9,1,30,0,85.634501876922116,0
-7,34.1298,2.6822,-9,2,30,0,85.634501876922116,0
-8,34.1298,3.5763,-10,3,30,0,85.520844858228372,0
-8,34.1298,3.5763,-10,4,30,0,85.520844858228372,0
-9,34.1298,2.6822,-10,5,30,0,92.446584559154559,0
-9,34.1298,2.2352,-11,6,30,0,85.405875303028878,0
-9,34.1298,0,-11,7,30,0,85.405875303028878,0
-9,1856.9232,1.3411,-10,8,30,100.34,92.446584559154559,100.34
-8,1856.9232,2.2352,-10,9,30,287.11,85.520844858228372,287.11
-7,1856.9232,2.6822,-9,10,30,441.08,85.634501876922116,441.08
-5,34.1298,3.1293,-9,11,30,551.89,73.524031902471236,551.89
-3,34.1298,4.4704,-9,12,30,622.45,63.286827800671929,622.45
-2,34.1298,4.0234,-9,13,30,618.39,58.770657971401796,618.39
-1,34.1298,5.8115,-8,14,30,557.34,59.032659326234857,27.587
0,34.1298,5.8115,-7,15,30,442.08,59.292531471931667,23.657
0,34.1298,3.5763,-6,16,30,279.83,64.010232287886922,72.693
0,34.1298,4.4704,-6,17,30,88.208,64.010232287886922,6.1958
0,1856.9232,4.4704,-7,18,30,0,59.292531471931667,0
0,1856.9232,6.2586,-7,19,30,0,59.292531471931667,0
0,1856.9232,5.8115,-6,20,30,0,64.010232287886922,0
0,34.1298,3.5763,-5,21,30,0,69.058867777488345,0
1,34.1298,4.4704,-4,22,30,0,69.270470217066517,0
1,34.1298,4.0234,-3,23,30,0,74.639707050276655,0
1,1856.9232,4.0234,-3,0,31,0,74.639707050276655,0
1,34.1298,4.4704,-3,1,31,0,74.639707050276655,0
1,34.1298,7.5997,-3,2,31,0,74.639707050276655,0
1,34.1298,8.9408,-3,3,31,0,74.639707050276655,0
1,34.1298,10.729,-3,4,31,0,74.639707050276655,0
0,34.1298,8.9408,-3,5,31,0,80.22975039312503,0
0,34.1298,8.9408,-3,6,31,0,80.22975039312503,0
-3,34.1298,8.9408,-4,7,31,0,92.806460468027481,0
-3,1856.9232,9.3878,-4,8,31,109.42,92.806460468027481,88.575
