-3,34.1298,3.1293,-16,12,70,834.42,35.994785896215561,834.42
-2,34.1298,4.4704,-15,13,70,828.43,36.30935393921942,828.43
-2,34.1298,4.4704,-15,14,70,771.4,36.30935393921942,771.4
0,34.1298,4.0234,-15,15,70,649.19,31.369437929806626,649.19
0,34.1298,3.1293,-15,16,70,476.07,31.369437929806626,476.07
-1,34.1298,2.2352,-15,17,70,266,33.738939564103227,266
-2,1856.9232,4.0234,-14,18,70,41.361,39.412725065080416,41.361
-3,1856.9232,3.1293,-14,19,70,0,42.441354758402014,0
-4,1856.9232,3.5763,-14,20,70,0,45.731034827067205,0
-4,34.1298,4.4704,-14,21,70,0,45.731034827067205,0
-5,34.1298,4.0234,-13,22,70,0,53.48272176266731,0
-5,34.1298,3.5763,-13,23,70,0,53.48272176266731,0
-6,1856.9232,4.0234,-13,0,71,0,57.701028079024439,0
-7,34.1298,4.0234,-13,1,71,0,62.292098497037117,0
-7,34.1298,2.6822,-13,2,71,0,62.292098497037117,0
-8,34.1298,1.3411,-13,3,71,0,67.292288412144302,0
-8,34.1298,2.2352,-12,4,71,0,72.940363975260709,0
-8,34.1298,1.3411,-12,5,71,0,72.940363975260709,0
-9,34.1298,0,-12,6,71,0,78.847297839406991,0
-8,34.1298,0,-12,7,71,81.146,72.940363975260709,81.146
-7,1856.9232,0,-12,8,71,295.63,67.520490748189346,295.63
-5,1856.9232,2.6822,-13,9,71,497.73,53.48272176266731,497.73
-3,1856.9232,0,-13,10,71,653.82,46.035992789337357,465.29
-1,34.1298,2.2352,-13,11,71,784.97,39.724427371168566,515.9
0,34.1298,0,-13,12,71,823.58,36.934562105882399,521.68
1,34.1298,2.2352,-13,13,71,827.94,34.361130155647885,827.94
1,34.1298,0,-13,14,71,749.95,34.361130155647885,749.95
2,34.1298,2.6822,-13,15,71,642.18,31.985852333623544,642.18
2,34.1298,2.6822,-13,16,71,472.89,31.985852333623544,472.89
1,34.1298,2.2352,-12,17,71,270.23,37.24517919206248,270.23
1,1856.9232,4.0234,-12,18,71,45.945,37.24517919206248,45.945
0,1856.9232,3.5763,-12,19,71,0,40.034608226872876,0
-2,1856.9232,3.5763,-11,20,71,0,50.193594861825019,0
-2,34.1298,3.5763,-10,21,71,0,54.331466017503473,0
-3,34.1298,4.4704,-10,22,71,0,58.506510777554723,0
-4,34.1298,3.5763,-10,23,71,0,63.041420265899106,0
-4,1856.9232,3.5763,-9,0,72,0,68.192265367640786,0
-4,34.1298,4.4704,-9,1,72,0,68.192265367640786,0
-4,34.1298,4.4704,-9,2,72,0,68.192265367640786,0
-4,34.1298,4.0234,-9,3,72,0,68.192265367640786,0
-4,34.1298,4.4704,-8,4,72,0,73.714683677886498,0
-4,34.1298,3.5763,-8,5,72,0,73.714683677886498,0
-4,34.1298,3.5763,-8,6,72,0,73.714683677886498,0
-4,34.1298,4.9174,-8,7,72,87.338,73.714683677886498,74.884
-3,1856.9232,4.4704,-7,8,72,313.2,73.90342258501218,286.6
-2,1856.9232,4.4704,-7,9,72,513.98,68.629648895336288,481.78
0,1856.9232,4.9174,-6,10,72,679.25,64.010232287886922,619.78
1,34.1298,5.8115,-5,11,72,796.59,64.247160621569336,724.41
1,34.1298,5.8115,-5,12,72,852.58,64.247160621569336,767.55
2,34.1298,3.5763,-4,13,72,835.84,64.482018531033972,751.74
2,34.1298,3.5763,-4,14,72,770.41,64.482018531033972,453.08
2,34.1298,3.5763,-3,15,72,649.38,69.480096758186903,582.55
2,34.1298,4.4704,-3,16,72,483.46,69.480096758186903,436.35
2,34.1298,4.9174,-3,17,72,279.39,69.480096758186903,252.03
2,1856.9232,3.5763,-3,18,72,49.542,69.480096758186903,44.82
2,1856.9232,3.5763,-3,19,72,0,69.480096758186903,0
1,1856.9232,6.2586,-3,20,72,0,74.639707050276655,0
0,34.1298,4.9174,-3,21,72,0,80.22975039312503,0
0,34.1298,3.1293,-3,22,72,0,80.22975039312503,0
-1,34.1298,4.4704,-3,23,72,0,86.28993308116371,0
-1,1856.9232,5.8115,-3,0,73,0,86.28993308116371,0
-2,34.1298,6.7056,-4,1,73,0,86.18375948438603,0
-2,34.1298,4.9174,-4,2,73,0,86.18375948438603,0
-3,34.1298,3.1293,-4,3,73,0,92.806460468027481,0
-4,34.1298,3.5763,-5,4,73,0,92.748266931412331,0
-4,34.1298,3.1293,-5,5,73,0,92.748266931412331,0
-4,34.1298,3.1293,-5,6,73,0,92.748266931412331,0
-4,34.1298,2.2352,-6,7,73,96.242,85.967788086353806,96.242
-4,1856.9232,2.2352,-6,8,73,318.36,85.967788086353806,318.36
-4,1856.9232,5.8115,-7,9,73,524.65,79.631765086518371,524.65
-3,1856.9232,4.4704,-7,10,73,679.94,73.90342258501218,679.94
-3,34.1298,3.1293,-7,11,73,787.69,73.90342258501218,345.71
